"pulled_date","date_avail","stocknumber","pulled_to_available","avail_ts","prev_7_pull_to_avail","median","average","sum_of_7","cardinality"
"2019-10-28","2019-10-29","G37405AA",1.0,"2019-10-29 08:13:03-05","{8.2,1.0,30.2,2.2,1.1,3.0,0.0,0.0,0.0,0.0,8.1,2.9,0.0,6.1,11.1,4.1,7.1,4.0,4.0,1.0}",3.0,4.7,94.1,20
"2019-10-23","2019-10-29","G38136GA",6.3,"2019-10-29 15:18:37-05","{1.0,30.2,2.2,1.1,3.0,0.0,0.0,0.0,0.0,8.1,2.9,0.0,6.1,11.1,4.1,7.1,4.0,4.0,1.0,6.3}",3.0,4.6,92.2,20
"2019-10-22","2019-10-29","G37715A",7.3,"2019-10-29 16:05:30-05","{30.2,2.2,1.1,3.0,0.0,0.0,0.0,0.0,8.1,2.9,0.0,6.1,11.1,4.1,7.1,4.0,4.0,1.0,6.3,7.3}",3.5,4.9,98.5,20
"2019-10-29","2019-10-29","G35550A",0.3,"2019-10-29 16:06:33-05","{2.2,1.1,3.0,0.0,0.0,0.0,0.0,8.1,2.9,0.0,6.1,11.1,4.1,7.1,4.0,4.0,1.0,6.3,7.3,0.3}",3.0,3.4,68.6,20
"2019-10-25","2019-10-29","G37063A",4.3,"2019-10-29 16:07:08-05","{1.1,3.0,0.0,0.0,0.0,0.0,8.1,2.9,0.0,6.1,11.1,4.1,7.1,4.0,4.0,1.0,6.3,7.3,0.3,4.3}",3.5,3.5,70.7,20
"2019-10-29","2019-10-29","G37826A",0.3,"2019-10-29 16:07:47-05","{3.0,0.0,0.0,0.0,0.0,8.1,2.9,0.0,6.1,11.1,4.1,7.1,4.0,4.0,1.0,6.3,7.3,0.3,4.3,0.3}",3.5,3.5,69.9,20
"2019-10-28","2019-10-29","G38340X",1.3,"2019-10-29 16:08:22-05","{0.0,0.0,0.0,0.0,8.1,2.9,0.0,6.1,11.1,4.1,7.1,4.0,4.0,1.0,6.3,7.3,0.3,4.3,0.3,1.3}",3.5,3.4,68.2,20
"2019-10-23","2019-10-30","G36536RA",7.1,"2019-10-30 09:19:56-05","{0.0,0.0,0.0,8.1,2.9,0.0,6.1,11.1,4.1,7.1,4.0,4.0,1.0,6.3,7.3,0.3,4.3,0.3,1.3,7.1}",4.0,3.8,75.3,20
"2019-10-29","2019-10-30","G37788X",0.7,"2019-10-30 09:20:12-05","{0.0,0.0,8.1,2.9,0.0,6.1,11.1,4.1,7.1,4.0,4.0,1.0,6.3,7.3,0.3,4.3,0.3,1.3,7.1,0.7}",4.0,3.8,76.0,20
"2019-10-08","2019-10-30","G33587RA",22.0,"2019-10-30 09:20:49-05","{0.0,8.1,2.9,0.0,6.1,11.1,4.1,7.1,4.0,4.0,1.0,6.3,7.3,0.3,4.3,0.3,1.3,7.1,0.7,22.0}",4.1,4.9,98.0,20
"2019-10-22","2019-10-30","G38241X",8.0,"2019-10-30 09:21:03-05","{8.1,2.9,0.0,6.1,11.1,4.1,7.1,4.0,4.0,1.0,6.3,7.3,0.3,4.3,0.3,1.3,7.1,0.7,22.0,8.0}",4.2,5.3,106.0,20
"2019-10-22","2019-10-30","G36658RB",8.0,"2019-10-30 10:00:05-05","{2.9,0.0,6.1,11.1,4.1,7.1,4.0,4.0,1.0,6.3,7.3,0.3,4.3,0.3,1.3,7.1,0.7,22.0,8.0,8.0}",4.2,5.3,105.9,20
"2019-10-11","2019-10-30","G37770A",19.0,"2019-10-30 10:32:11-05","{0.0,6.1,11.1,4.1,7.1,4.0,4.0,1.0,6.3,7.3,0.3,4.3,0.3,1.3,7.1,0.7,22.0,8.0,8.0,19.0}",5.2,6.1,122.0,20
"2019-10-16","2019-10-30","G37677A",13.8,"2019-10-30 10:39:29-05","{6.1,11.1,4.1,7.1,4.0,4.0,1.0,6.3,7.3,0.3,4.3,0.3,1.3,7.1,0.7,22.0,8.0,8.0,19.0,13.8}",6.2,6.8,135.8,20
"2019-10-28","2019-10-30","G38266X",2.1,"2019-10-30 10:39:43-05","{11.1,4.1,7.1,4.0,4.0,1.0,6.3,7.3,0.3,4.3,0.3,1.3,7.1,0.7,22.0,8.0,8.0,19.0,13.8,2.1}",5.3,6.6,131.8,20
"2019-10-21","2019-10-30","G38303X",9.1,"2019-10-30 10:40:15-05","{4.1,7.1,4.0,4.0,1.0,6.3,7.3,0.3,4.3,0.3,1.3,7.1,0.7,22.0,8.0,8.0,19.0,13.8,2.1,9.1}",5.3,6.5,129.8,20
"2019-10-23","2019-10-30","G38253A",7.2,"2019-10-30 13:33:00-05","{7.1,4.0,4.0,1.0,6.3,7.3,0.3,4.3,0.3,1.3,7.1,0.7,22.0,8.0,8.0,19.0,13.8,2.1,9.1,7.2}",6.7,6.6,132.9,20
"2019-10-24","2019-10-31","G38156A",7.2,"2019-10-31 13:23:09-05","{4.0,4.0,1.0,6.3,7.3,0.3,4.3,0.3,1.3,7.1,0.7,22.0,8.0,8.0,19.0,13.8,2.1,9.1,7.2,7.2}",6.7,6.7,133.0,20
"2019-10-29","2019-10-31","G38319X",2.3,"2019-10-31 15:40:11-05","{4.0,1.0,6.3,7.3,0.3,4.3,0.3,1.3,7.1,0.7,22.0,8.0,8.0,19.0,13.8,2.1,9.1,7.2,7.2,2.3}",6.7,6.6,131.3,20
"2019-10-28","2019-10-31","G38358X",3.3,"2019-10-31 15:40:27-05","{1.0,6.3,7.3,0.3,4.3,0.3,1.3,7.1,0.7,22.0,8.0,8.0,19.0,13.8,2.1,9.1,7.2,7.2,2.3,3.3}",6.7,6.5,130.6,20
"2019-10-29","2019-11-01","G38348X",3.1,"2019-11-01 11:58:01-05","{6.3,7.3,0.3,4.3,0.3,1.3,7.1,0.7,22.0,8.0,8.0,19.0,13.8,2.1,9.1,7.2,7.2,2.3,3.3,3.1}",6.7,6.6,132.7,20
"2019-10-29","2019-11-01","G36620RA",3.1,"2019-11-01 11:58:12-05","{7.3,0.3,4.3,0.3,1.3,7.1,0.7,22.0,8.0,8.0,19.0,13.8,2.1,9.1,7.2,7.2,2.3,3.3,3.1,3.1}",5.7,6.5,129.5,20
"2019-10-29","2019-11-01","G38139A",3.3,"2019-11-01 14:16:13-05","{0.3,4.3,0.3,1.3,7.1,0.7,22.0,8.0,8.0,19.0,13.8,2.1,9.1,7.2,7.2,2.3,3.3,3.1,3.1,3.3}",3.8,6.3,125.5,20
"2019-10-30","2019-11-02","G38350X",3.2,"2019-11-02 14:50:43-05","{4.3,0.3,1.3,7.1,0.7,22.0,8.0,8.0,19.0,13.8,2.1,9.1,7.2,7.2,2.3,3.3,3.1,3.1,3.3,3.2}",3.8,6.4,128.4,20
"2019-10-30","2019-11-02","G38324A",2.9,"2019-11-02 14:51:35-05","{0.3,1.3,7.1,0.7,22.0,8.0,8.0,19.0,13.8,2.1,9.1,7.2,7.2,2.3,3.3,3.1,3.1,3.3,3.2,2.9}",3.3,6.4,127.0,20
"2019-10-30","2019-11-02","G38373M",2.9,"2019-11-02 14:52:26-05","{1.3,7.1,0.7,22.0,8.0,8.0,19.0,13.8,2.1,9.1,7.2,7.2,2.3,3.3,3.1,3.1,3.3,3.2,2.9,2.9}",3.3,6.5,129.6,20
"2019-10-21","2019-11-04","G38153A",14.0,"2019-11-04 08:11:37-06","{7.1,0.7,22.0,8.0,8.0,19.0,13.8,2.1,9.1,7.2,7.2,2.3,3.3,3.1,3.1,3.3,3.2,2.9,2.9,14.0}",5.2,7.1,142.3,20
"2019-10-30","2019-11-04","G38098B",5.0,"2019-11-04 08:12:36-06","{0.7,22.0,8.0,8.0,19.0,13.8,2.1,9.1,7.2,7.2,2.3,3.3,3.1,3.1,3.3,3.2,2.9,2.9,14.0,5.0}",4.2,7.0,140.2,20
"2019-10-29","2019-11-04","G36370B",6.0,"2019-11-04 08:12:58-06","{22.0,8.0,8.0,19.0,13.8,2.1,9.1,7.2,7.2,2.3,3.3,3.1,3.1,3.3,3.2,2.9,2.9,14.0,5.0,6.0}",5.5,7.3,145.5,20
"2019-10-24","2019-11-04","G37819B",11.4,"2019-11-04 15:19:40-06","{8.0,8.0,19.0,13.8,2.1,9.1,7.2,7.2,2.3,3.3,3.1,3.1,3.3,3.2,2.9,2.9,14.0,5.0,6.0,11.4}",5.5,6.7,134.9,20
"2019-10-28","2019-11-04","G36748MA",7.3,"2019-11-04 15:20:43-06","{8.0,19.0,13.8,2.1,9.1,7.2,7.2,2.3,3.3,3.1,3.1,3.3,3.2,2.9,2.9,14.0,5.0,6.0,11.4,7.3}",5.5,6.7,134.2,20
"2019-10-30","2019-11-05","G36817XA",6.3,"2019-11-05 14:32:41-06","{19.0,13.8,2.1,9.1,7.2,7.2,2.3,3.3,3.1,3.1,3.3,3.2,2.9,2.9,14.0,5.0,6.0,11.4,7.3,6.3}",5.5,6.6,132.5,20
"2019-10-28","2019-11-06","G35450A",9.1,"2019-11-06 10:58:05-06","{13.8,2.1,9.1,7.2,7.2,2.3,3.3,3.1,3.1,3.3,3.2,2.9,2.9,14.0,5.0,6.0,11.4,7.3,6.3,9.1}",5.5,6.1,122.6,20
"2019-11-04","2019-11-06","G37138RA",2.1,"2019-11-06 10:58:16-06","{2.1,9.1,7.2,7.2,2.3,3.3,3.1,3.1,3.3,3.2,2.9,2.9,14.0,5.0,6.0,11.4,7.3,6.3,9.1,2.1}",4.2,5.5,110.9,20
"2019-10-30","2019-11-06","G38351X",6.7,"2019-11-06 10:58:58-06","{9.1,7.2,7.2,2.3,3.3,3.1,3.1,3.3,3.2,2.9,2.9,14.0,5.0,6.0,11.4,7.3,6.3,9.1,2.1,6.7}",5.5,5.8,115.5,20
"2019-11-04","2019-11-06","G38230A",2.1,"2019-11-06 10:59:09-06","{7.2,7.2,2.3,3.3,3.1,3.1,3.3,3.2,2.9,2.9,14.0,5.0,6.0,11.4,7.3,6.3,9.1,2.1,6.7,2.1}",4.2,5.4,108.5,20
"2019-11-01","2019-11-06","G38427X",5.1,"2019-11-06 10:59:17-06","{7.2,2.3,3.3,3.1,3.1,3.3,3.2,2.9,2.9,14.0,5.0,6.0,11.4,7.3,6.3,9.1,2.1,6.7,2.1,5.1}",4.2,5.3,106.4,20
"2019-11-01","2019-11-06","G36855RA",5.1,"2019-11-06 10:59:28-06","{2.3,3.3,3.1,3.1,3.3,3.2,2.9,2.9,14.0,5.0,6.0,11.4,7.3,6.3,9.1,2.1,6.7,2.1,5.1,5.1}",4.2,5.2,104.3,20
"2019-10-30","2019-11-06","G37972C",7.1,"2019-11-06 10:59:39-06","{3.3,3.1,3.1,3.3,3.2,2.9,2.9,14.0,5.0,6.0,11.4,7.3,6.3,9.1,2.1,6.7,2.1,5.1,5.1,7.1}",5.1,5.5,109.1,20
"2019-11-04","2019-11-06","G38363GA",2.2,"2019-11-06 12:30:18-06","{3.1,3.1,3.3,3.2,2.9,2.9,14.0,5.0,6.0,11.4,7.3,6.3,9.1,2.1,6.7,2.1,5.1,5.1,7.1,2.2}",5.1,5.4,108.0,20
"2019-11-05","2019-11-06","G36352XB",1.1,"2019-11-06 12:31:02-06","{3.1,3.3,3.2,2.9,2.9,14.0,5.0,6.0,11.4,7.3,6.3,9.1,2.1,6.7,2.1,5.1,5.1,7.1,2.2,1.1}",5.1,5.3,106.0,20
"2019-10-25","2019-11-06","G35702RBB",12.3,"2019-11-06 13:31:57-06","{3.3,3.2,2.9,2.9,14.0,5.0,6.0,11.4,7.3,6.3,9.1,2.1,6.7,2.1,5.1,5.1,7.1,2.2,1.1,12.3}",5.1,5.8,115.2,20
"2019-10-29","2019-11-06","G38345X",8.4,"2019-11-06 18:09:13-06","{3.2,2.9,2.9,14.0,5.0,6.0,11.4,7.3,6.3,9.1,2.1,6.7,2.1,5.1,5.1,7.1,2.2,1.1,12.3,8.4}",5.6,6.0,120.3,20
"2019-11-05","2019-11-08","G38339X",2.9,"2019-11-08 08:26:58-06","{2.9,2.9,14.0,5.0,6.0,11.4,7.3,6.3,9.1,2.1,6.7,2.1,5.1,5.1,7.1,2.2,1.1,12.3,8.4,2.9}",5.6,6.0,120.0,20
"2019-10-28","2019-11-08","G37405A",11.1,"2019-11-08 09:50:11-06","{2.9,14.0,5.0,6.0,11.4,7.3,6.3,9.1,2.1,6.7,2.1,5.1,5.1,7.1,2.2,1.1,12.3,8.4,2.9,11.1}",6.2,6.4,128.2,20
"2019-11-04","2019-11-08","G38105A",4.0,"2019-11-08 09:50:22-06","{14.0,5.0,6.0,11.4,7.3,6.3,9.1,2.1,6.7,2.1,5.1,5.1,7.1,2.2,1.1,12.3,8.4,2.9,11.1,4.0}",6.2,6.5,129.3,20
"2019-11-05","2019-11-08","G38470X",3.0,"2019-11-08 09:50:34-06","{5.0,6.0,11.4,7.3,6.3,9.1,2.1,6.7,2.1,5.1,5.1,7.1,2.2,1.1,12.3,8.4,2.9,11.1,4.0,3.0}",5.6,5.9,118.3,20
"2019-11-04","2019-11-08","G38360X",4.1,"2019-11-08 09:50:45-06","{6.0,11.4,7.3,6.3,9.1,2.1,6.7,2.1,5.1,5.1,7.1,2.2,1.1,12.3,8.4,2.9,11.1,4.0,3.0,4.1}",5.6,5.9,117.4,20
"2019-11-07","2019-11-08","G38309X",1.1,"2019-11-08 09:50:55-06","{11.4,7.3,6.3,9.1,2.1,6.7,2.1,5.1,5.1,7.1,2.2,1.1,12.3,8.4,2.9,11.1,4.0,3.0,4.1,1.1}",5.1,5.6,112.5,20
"2019-11-08","2019-11-08","G36359XA",0.1,"2019-11-08 10:18:25-06","{7.3,6.3,9.1,2.1,6.7,2.1,5.1,5.1,7.1,2.2,1.1,12.3,8.4,2.9,11.1,4.0,3.0,4.1,1.1,0.1}",4.6,5.1,101.2,20
"2019-11-08","2019-11-08","G38434X",0.3,"2019-11-08 16:22:25-06","{6.3,9.1,2.1,6.7,2.1,5.1,5.1,7.1,2.2,1.1,12.3,8.4,2.9,11.1,4.0,3.0,4.1,1.1,0.1,0.3}",4.1,4.7,94.2,20
"2019-11-04","2019-11-08","G37651A",4.3,"2019-11-08 16:25:31-06","{9.1,2.1,6.7,2.1,5.1,5.1,7.1,2.2,1.1,12.3,8.4,2.9,11.1,4.0,3.0,4.1,1.1,0.1,0.3,4.3}",4.1,4.6,92.2,20
"2019-11-04","2019-11-09","G37063AA",5.0,"2019-11-09 08:37:59-06","{2.1,6.7,2.1,5.1,5.1,7.1,2.2,1.1,12.3,8.4,2.9,11.1,4.0,3.0,4.1,1.1,0.1,0.3,4.3,5.0}",4.1,4.4,88.1,20
"2019-10-30","2019-11-09","G37938A",9.6,"2019-11-09 08:38:10-06","{6.7,2.1,5.1,5.1,7.1,2.2,1.1,12.3,8.4,2.9,11.1,4.0,3.0,4.1,1.1,0.1,0.3,4.3,5.0,9.6}",4.2,4.8,95.6,20
"2019-11-08","2019-11-09","G38316A",1.4,"2019-11-09 17:34:25-06","{2.1,5.1,5.1,7.1,2.2,1.1,12.3,8.4,2.9,11.1,4.0,3.0,4.1,1.1,0.1,0.3,4.3,5.0,9.6,1.4}",4.1,4.5,90.3,20
"2019-10-29","2019-11-10","G37421RA",11.7,"2019-11-10 07:01:10-06","{5.1,5.1,7.1,2.2,1.1,12.3,8.4,2.9,11.1,4.0,3.0,4.1,1.1,0.1,0.3,4.3,5.0,9.6,1.4,11.7}",4.2,5.0,99.9,20
"2019-11-11","2019-11-12","G38336A",1.2,"2019-11-12 12:57:32-06","{5.1,7.1,2.2,1.1,12.3,8.4,2.9,11.1,4.0,3.0,4.1,1.1,0.1,0.3,4.3,5.0,9.6,1.4,11.7,1.2}",4.1,4.8,96.0,20
"2019-11-11","2019-11-12","G38087A",1.2,"2019-11-12 12:57:49-06","{7.1,2.2,1.1,12.3,8.4,2.9,11.1,4.0,3.0,4.1,1.1,0.1,0.3,4.3,5.0,9.6,1.4,11.7,1.2,1.2}",3.5,4.6,92.1,20
"2019-11-01","2019-11-12","G38321X",11.2,"2019-11-12 12:58:01-06","{2.2,1.1,12.3,8.4,2.9,11.1,4.0,3.0,4.1,1.1,0.1,0.3,4.3,5.0,9.6,1.4,11.7,1.2,1.2,11.2}",3.5,4.8,96.2,20
"2019-11-11","2019-11-12","G37897P",1.2,"2019-11-12 13:00:37-06","{1.1,12.3,8.4,2.9,11.1,4.0,3.0,4.1,1.1,0.1,0.3,4.3,5.0,9.6,1.4,11.7,1.2,1.2,11.2,1.2}",3.5,4.8,95.2,20
"2019-11-11","2019-11-12","G37818A",1.2,"2019-11-12 13:00:49-06","{12.3,8.4,2.9,11.1,4.0,3.0,4.1,1.1,0.1,0.3,4.3,5.0,9.6,1.4,11.7,1.2,1.2,11.2,1.2,1.2}",3.5,4.8,95.3,20
"2019-10-23","2019-11-12","G37645A",20.3,"2019-11-12 15:23:43-06","{8.4,2.9,11.1,4.0,3.0,4.1,1.1,0.1,0.3,4.3,5.0,9.6,1.4,11.7,1.2,1.2,11.2,1.2,1.2,20.3}",3.5,5.2,103.3,20
"2019-10-31","2019-11-12","G38307X",12.4,"2019-11-12 16:37:00-06","{2.9,11.1,4.0,3.0,4.1,1.1,0.1,0.3,4.3,5.0,9.6,1.4,11.7,1.2,1.2,11.2,1.2,1.2,20.3,12.4}",3.5,5.4,107.3,20
"2019-11-11","2019-11-12","G38469X",1.3,"2019-11-12 16:37:16-06","{11.1,4.0,3.0,4.1,1.1,0.1,0.3,4.3,5.0,9.6,1.4,11.7,1.2,1.2,11.2,1.2,1.2,20.3,12.4,1.3}",3.5,5.3,105.7,20
"2019-11-04","2019-11-13","G37879A",9.3,"2019-11-13 15:15:44-06","{4.0,3.0,4.1,1.1,0.1,0.3,4.3,5.0,9.6,1.4,11.7,1.2,1.2,11.2,1.2,1.2,20.3,12.4,1.3,9.3}",3.5,5.2,103.9,20
"2019-11-13","2019-11-13","G38302X",0.2,"2019-11-13 15:15:55-06","{3.0,4.1,1.1,0.1,0.3,4.3,5.0,9.6,1.4,11.7,1.2,1.2,11.2,1.2,1.2,20.3,12.4,1.3,9.3,0.2}",2.2,5.0,100.1,20
"2019-11-07","2019-11-13","G36632RC",6.4,"2019-11-13 15:26:06-06","{4.1,1.1,0.1,0.3,4.3,5.0,9.6,1.4,11.7,1.2,1.2,11.2,1.2,1.2,20.3,12.4,1.3,9.3,0.2,6.4}",2.8,5.2,103.5,20
"2019-11-05","2019-11-13","G38472P",8.2,"2019-11-13 15:28:24-06","{1.1,0.1,0.3,4.3,5.0,9.6,1.4,11.7,1.2,1.2,11.2,1.2,1.2,20.3,12.4,1.3,9.3,0.2,6.4,8.2}",2.9,5.4,107.6,20
"2019-11-08","2019-11-14","G38454X",6.1,"2019-11-14 10:22:58-06","{0.1,0.3,4.3,5.0,9.6,1.4,11.7,1.2,1.2,11.2,1.2,1.2,20.3,12.4,1.3,9.3,0.2,6.4,8.2,6.1}",4.7,5.6,112.6,20
"2019-11-11","2019-11-14","G35882RA",3.1,"2019-11-14 10:23:15-06","{0.3,4.3,5.0,9.6,1.4,11.7,1.2,1.2,11.2,1.2,1.2,20.3,12.4,1.3,9.3,0.2,6.4,8.2,6.1,3.1}",4.7,5.8,115.6,20
"2019-11-11","2019-11-14","G38349X",3.1,"2019-11-14 10:23:33-06","{4.3,5.0,9.6,1.4,11.7,1.2,1.2,11.2,1.2,1.2,20.3,12.4,1.3,9.3,0.2,6.4,8.2,6.1,3.1,3.1}",4.7,5.9,118.4,20
"2019-11-11","2019-11-14","G38522X",3.1,"2019-11-14 10:24:13-06","{5.0,9.6,1.4,11.7,1.2,1.2,11.2,1.2,1.2,20.3,12.4,1.3,9.3,0.2,6.4,8.2,6.1,3.1,3.1,3.1}",4.1,5.9,117.2,20
"2019-11-05","2019-11-14","G38196PA",9.0,"2019-11-14 10:24:34-06","{9.6,1.4,11.7,1.2,1.2,11.2,1.2,1.2,20.3,12.4,1.3,9.3,0.2,6.4,8.2,6.1,3.1,3.1,3.1,9.0}",4.6,6.1,121.2,20
"2019-11-07","2019-11-14","G36086RA",7.3,"2019-11-14 13:32:11-06","{1.4,11.7,1.2,1.2,11.2,1.2,1.2,20.3,12.4,1.3,9.3,0.2,6.4,8.2,6.1,3.1,3.1,3.1,9.0,7.3}",4.6,5.9,118.9,20
"2019-11-08","2019-11-14","G38033A",6.4,"2019-11-14 16:30:42-06","{11.7,1.2,1.2,11.2,1.2,1.2,20.3,12.4,1.3,9.3,0.2,6.4,8.2,6.1,3.1,3.1,3.1,9.0,7.3,6.4}",6.3,6.2,123.9,20
"2019-11-08","2019-11-15","G38452X",7.2,"2019-11-15 13:35:54-06","{1.2,1.2,11.2,1.2,1.2,20.3,12.4,1.3,9.3,0.2,6.4,8.2,6.1,3.1,3.1,3.1,9.0,7.3,6.4,7.2}",6.3,6.0,119.4,20
"2019-11-13","2019-11-15","G38347XA",2.1,"2019-11-15 13:37:05-06","{1.2,11.2,1.2,1.2,20.3,12.4,1.3,9.3,0.2,6.4,8.2,6.1,3.1,3.1,3.1,9.0,7.3,6.4,7.2,2.1}",6.3,6.0,120.3,20
"2019-11-07","2019-11-15","G38463GA",8.3,"2019-11-15 13:37:21-06","{11.2,1.2,1.2,20.3,12.4,1.3,9.3,0.2,6.4,8.2,6.1,3.1,3.1,3.1,9.0,7.3,6.4,7.2,2.1,8.3}",6.4,6.4,127.4,20
"2019-11-12","2019-11-15","G38458X",3.2,"2019-11-15 13:37:43-06","{1.2,1.2,20.3,12.4,1.3,9.3,0.2,6.4,8.2,6.1,3.1,3.1,3.1,9.0,7.3,6.4,7.2,2.1,8.3,3.2}",6.3,6.0,119.4,20
"2019-11-04","2019-11-15","G38198X",11.2,"2019-11-15 13:37:53-06","{1.2,20.3,12.4,1.3,9.3,0.2,6.4,8.2,6.1,3.1,3.1,3.1,9.0,7.3,6.4,7.2,2.1,8.3,3.2,11.2}",6.4,6.5,129.4,20
"2019-10-30","2019-11-15","G38244XA",15.9,"2019-11-15 13:42:00-06","{20.3,12.4,1.3,9.3,0.2,6.4,8.2,6.1,3.1,3.1,3.1,9.0,7.3,6.4,7.2,2.1,8.3,3.2,11.2,15.9}",6.8,7.2,144.1,20
"2019-11-04","2019-11-15","G38310XA",11.2,"2019-11-15 13:44:39-06","{12.4,1.3,9.3,0.2,6.4,8.2,6.1,3.1,3.1,3.1,9.0,7.3,6.4,7.2,2.1,8.3,3.2,11.2,15.9,11.2}",6.8,6.8,135.0,20
"2019-11-15","2019-11-15","G38419P",0.2,"2019-11-15 15:30:53-06","{1.3,9.3,0.2,6.4,8.2,6.1,3.1,3.1,3.1,9.0,7.3,6.4,7.2,2.1,8.3,3.2,11.2,15.9,11.2,0.2}",6.4,6.1,122.8,20
"2019-11-15","2019-11-15","G37405AB",0.2,"2019-11-15 15:49:59-06","{9.3,0.2,6.4,8.2,6.1,3.1,3.1,3.1,9.0,7.3,6.4,7.2,2.1,8.3,3.2,11.2,15.9,11.2,0.2,0.2}",6.4,6.1,121.7,20
"2019-11-11","2019-11-16","G38467M",4.8,"2019-11-16 10:55:33-06","{0.2,6.4,8.2,6.1,3.1,3.1,3.1,9.0,7.3,6.4,7.2,2.1,8.3,3.2,11.2,15.9,11.2,0.2,0.2,4.8}",6.3,5.9,117.2,20
"2019-11-04","2019-11-16","G38212A",12.1,"2019-11-16 10:55:49-06","{6.4,8.2,6.1,3.1,3.1,3.1,9.0,7.3,6.4,7.2,2.1,8.3,3.2,11.2,15.9,11.2,0.2,0.2,4.8,12.1}",6.4,6.5,129.1,20
"2019-11-11","2019-11-18","G38433GA",7.1,"2019-11-18 10:08:36-06","{8.2,6.1,3.1,3.1,3.1,9.0,7.3,6.4,7.2,2.1,8.3,3.2,11.2,15.9,11.2,0.2,0.2,4.8,12.1,7.1}",6.8,6.5,129.8,20
"2019-11-11","2019-11-18","G37815A",7.3,"2019-11-18 14:52:13-06","{6.1,3.1,3.1,3.1,9.0,7.3,6.4,7.2,2.1,8.3,3.2,11.2,15.9,11.2,0.2,0.2,4.8,12.1,7.1,7.3}",6.8,6.4,128.9,20
"2019-11-13","2019-11-18","G38361X",5.2,"2019-11-18 14:57:29-06","{3.1,3.1,3.1,9.0,7.3,6.4,7.2,2.1,8.3,3.2,11.2,15.9,11.2,0.2,0.2,4.8,12.1,7.1,7.3,5.2}",6.8,6.4,128.0,20
"2019-11-08","2019-11-18","G37547A",10.3,"2019-11-18 15:36:24-06","{3.1,3.1,9.0,7.3,6.4,7.2,2.1,8.3,3.2,11.2,15.9,11.2,0.2,0.2,4.8,12.1,7.1,7.3,5.2,10.3}",7.2,6.8,135.2,20
"2019-11-18","2019-11-18","G38360XA",0.3,"2019-11-18 17:00:32-06","{3.1,9.0,7.3,6.4,7.2,2.1,8.3,3.2,11.2,15.9,11.2,0.2,0.2,4.8,12.1,7.1,7.3,5.2,10.3,0.3}",7.2,6.6,132.4,20
"2019-11-18","2019-11-19","G38209A",1.1,"2019-11-19 12:35:11-06","{9.0,7.3,6.4,7.2,2.1,8.3,3.2,11.2,15.9,11.2,0.2,0.2,4.8,12.1,7.1,7.3,5.2,10.3,0.3,1.1}",7.2,6.5,130.4,20
"2019-11-13","2019-11-19","G38365A",6.1,"2019-11-19 12:35:23-06","{7.3,6.4,7.2,2.1,8.3,3.2,11.2,15.9,11.2,0.2,0.2,4.8,12.1,7.1,7.3,5.2,10.3,0.3,1.1,6.1}",6.8,6.4,127.5,20
"2019-11-18","2019-11-19","G38460X",1.1,"2019-11-19 12:35:46-06","{6.4,7.2,2.1,8.3,3.2,11.2,15.9,11.2,0.2,0.2,4.8,12.1,7.1,7.3,5.2,10.3,0.3,1.1,6.1,1.1}",6.3,6.1,121.3,20
"2019-11-18","2019-11-19","G38461X",1.1,"2019-11-19 12:36:00-06","{7.2,2.1,8.3,3.2,11.2,15.9,11.2,0.2,0.2,4.8,12.1,7.1,7.3,5.2,10.3,0.3,1.1,6.1,1.1,1.1}",5.7,5.8,116.0,20
"2019-11-08","2019-11-19","G38440X",11.2,"2019-11-19 12:36:14-06","{2.1,8.3,3.2,11.2,15.9,11.2,0.2,0.2,4.8,12.1,7.1,7.3,5.2,10.3,0.3,1.1,6.1,1.1,1.1,11.2}",5.7,6.0,120.0,20
"2019-11-07","2019-11-19","G38017B",12.3,"2019-11-19 13:29:46-06","{8.3,3.2,11.2,15.9,11.2,0.2,0.2,4.8,12.1,7.1,7.3,5.2,10.3,0.3,1.1,6.1,1.1,1.1,11.2,12.3}",6.6,6.5,130.2,20
"2019-11-14","2019-11-19","G38508GA",5.2,"2019-11-19 13:30:42-06","{3.2,11.2,15.9,11.2,0.2,0.2,4.8,12.1,7.1,7.3,5.2,10.3,0.3,1.1,6.1,1.1,1.1,11.2,12.3,5.2}",5.7,6.4,127.1,20
"2019-11-01","2019-11-19","G38304XA",18.5,"2019-11-19 20:27:56-06","{11.2,15.9,11.2,0.2,0.2,4.8,12.1,7.1,7.3,5.2,10.3,0.3,1.1,6.1,1.1,1.1,11.2,12.3,5.2,18.5}",6.6,7.1,142.4,20
"2019-11-18","2019-11-19","G38252A",1.5,"2019-11-19 20:28:18-06","{15.9,11.2,0.2,0.2,4.8,12.1,7.1,7.3,5.2,10.3,0.3,1.1,6.1,1.1,1.1,11.2,12.3,5.2,18.5,1.5}",5.7,6.6,132.7,20
"2019-11-18","2019-11-19","G38466M",1.5,"2019-11-19 20:28:33-06","{11.2,0.2,0.2,4.8,12.1,7.1,7.3,5.2,10.3,0.3,1.1,6.1,1.1,1.1,11.2,12.3,5.2,18.5,1.5,1.5}",5.2,5.9,118.3,20
"2019-11-04","2019-11-19","G36997A",15.5,"2019-11-19 20:28:58-06","{0.2,0.2,4.8,12.1,7.1,7.3,5.2,10.3,0.3,1.1,6.1,1.1,1.1,11.2,12.3,5.2,18.5,1.5,1.5,15.5}",5.2,6.1,122.6,20
"2019-11-18","2019-11-19","G38077A",1.5,"2019-11-19 20:29:11-06","{0.2,4.8,12.1,7.1,7.3,5.2,10.3,0.3,1.1,6.1,1.1,1.1,11.2,12.3,5.2,18.5,1.5,1.5,15.5,1.5}",5.2,6.2,123.9,20
"2019-11-18","2019-11-19","G37579A",1.2,"2019-11-19 20:29:30-06","{4.8,12.1,7.1,7.3,5.2,10.3,0.3,1.1,6.1,1.1,1.1,11.2,12.3,5.2,18.5,1.5,1.5,15.5,1.5,1.2}",5.2,6.2,124.9,20
"2019-10-16","2019-11-19","G38121X",34.3,"2019-11-19 20:29:44-06","{12.1,7.1,7.3,5.2,10.3,0.3,1.1,6.1,1.1,1.1,11.2,12.3,5.2,18.5,1.5,1.5,15.5,1.5,1.2,34.3}",5.7,7.7,154.4,20
"2019-11-07","2019-11-19","G37439RA",12.6,"2019-11-19 20:29:58-06","{7.1,7.3,5.2,10.3,0.3,1.1,6.1,1.1,1.1,11.2,12.3,5.2,18.5,1.5,1.5,15.5,1.5,1.2,34.3,12.6}",5.7,7.7,154.9,20
"2019-11-14","2019-11-20","G38451X",6.1,"2019-11-20 13:40:49-06","{7.3,5.2,10.3,0.3,1.1,6.1,1.1,1.1,11.2,12.3,5.2,18.5,1.5,1.5,15.5,1.5,1.2,34.3,12.6,6.1}",5.7,7.7,153.9,20
"2019-11-13","2019-11-20","G37882A",7.2,"2019-11-20 14:44:02-06","{5.2,10.3,0.3,1.1,6.1,1.1,1.1,11.2,12.3,5.2,18.5,1.5,1.5,15.5,1.5,1.2,34.3,12.6,6.1,7.2}",5.7,7.7,153.8,20
"2019-11-14","2019-11-20","G38524P",6.3,"2019-11-20 14:45:28-06","{10.3,0.3,1.1,6.1,1.1,1.1,11.2,12.3,5.2,18.5,1.5,1.5,15.5,1.5,1.2,34.3,12.6,6.1,7.2,6.3}",6.1,7.7,154.9,20
"2019-11-13","2019-11-21","G38018A",8.0,"2019-11-21 09:28:18-06","{0.3,1.1,6.1,1.1,1.1,11.2,12.3,5.2,18.5,1.5,1.5,15.5,1.5,1.2,34.3,12.6,6.1,7.2,6.3,8.0}",6.1,7.6,152.6,20
"2019-11-14","2019-11-21","G38416X",7.1,"2019-11-21 09:28:29-06","{1.1,6.1,1.1,1.1,11.2,12.3,5.2,18.5,1.5,1.5,15.5,1.5,1.2,34.3,12.6,6.1,7.2,6.3,8.0,7.1}",6.2,8.0,159.4,20
"2019-11-19","2019-11-21","G38143A",2.1,"2019-11-21 09:28:47-06","{6.1,1.1,1.1,11.2,12.3,5.2,18.5,1.5,1.5,15.5,1.5,1.2,34.3,12.6,6.1,7.2,6.3,8.0,7.1,2.1}",6.2,8.0,160.4,20
"2019-10-30","2019-11-21","G38346A",21.7,"2019-11-21 09:28:59-06","{1.1,1.1,11.2,12.3,5.2,18.5,1.5,1.5,15.5,1.5,1.2,34.3,12.6,6.1,7.2,6.3,8.0,7.1,2.1,21.7}",6.7,8.8,176.0,20
"2019-11-20","2019-11-21","G38597X",1.0,"2019-11-21 09:29:11-06","{1.1,11.2,12.3,5.2,18.5,1.5,1.5,15.5,1.5,1.2,34.3,12.6,6.1,7.2,6.3,8.0,7.1,2.1,21.7,1.0}",6.7,8.8,175.9,20
"2019-11-20","2019-11-21","G38309XA",1.1,"2019-11-21 09:29:26-06","{11.2,12.3,5.2,18.5,1.5,1.5,15.5,1.5,1.2,34.3,12.6,6.1,7.2,6.3,8.0,7.1,2.1,21.7,1.0,1.1}",6.7,8.8,175.9,20
"2019-11-11","2019-11-21","G36729B",10.0,"2019-11-21 09:29:40-06","{12.3,5.2,18.5,1.5,1.5,15.5,1.5,1.2,34.3,12.6,6.1,7.2,6.3,8.0,7.1,2.1,21.7,1.0,1.1,10.0}",6.7,8.7,174.7,20
"2019-11-21","2019-11-21","G38428X",0.0,"2019-11-21 09:30:08-06","{5.2,18.5,1.5,1.5,15.5,1.5,1.2,34.3,12.6,6.1,7.2,6.3,8.0,7.1,2.1,21.7,1.0,1.1,10.0,0.0}",6.2,8.1,162.4,20
"2019-11-08","2019-11-21","G37333C",13.4,"2019-11-21 17:34:06-06","{18.5,1.5,1.5,15.5,1.5,1.2,34.3,12.6,6.1,7.2,6.3,8.0,7.1,2.1,21.7,1.0,1.1,10.0,0.0,13.4}",6.7,8.5,170.6,20
"2019-11-18","2019-11-22","G38459X",4.0,"2019-11-22 08:19:05-06","{1.5,1.5,15.5,1.5,1.2,34.3,12.6,6.1,7.2,6.3,8.0,7.1,2.1,21.7,1.0,1.1,10.0,0.0,13.4,4.0}",6.2,7.8,156.1,20
"2019-10-31","2019-11-22","G38337A",22.1,"2019-11-22 08:19:19-06","{1.5,15.5,1.5,1.2,34.3,12.6,6.1,7.2,6.3,8.0,7.1,2.1,21.7,1.0,1.1,10.0,0.0,13.4,4.0,22.1}",6.7,8.8,176.7,20
"2019-11-19","2019-11-22","G37867B",3.1,"2019-11-22 10:27:56-06","{15.5,1.5,1.2,34.3,12.6,6.1,7.2,6.3,8.0,7.1,2.1,21.7,1.0,1.1,10.0,0.0,13.4,4.0,22.1,3.1}",6.7,8.9,178.3,20
"2019-11-15","2019-11-22","G37491A",7.2,"2019-11-22 14:15:33-06","{1.5,1.2,34.3,12.6,6.1,7.2,6.3,8.0,7.1,2.1,21.7,1.0,1.1,10.0,0.0,13.4,4.0,22.1,3.1,7.2}",6.7,8.5,170.0,20
"2019-11-08","2019-11-25","G38494P",17.1,"2019-11-25 09:50:07-06","{1.2,34.3,12.6,6.1,7.2,6.3,8.0,7.1,2.1,21.7,1.0,1.1,10.0,0.0,13.4,4.0,22.1,3.1,7.2,17.1}",7.2,9.3,185.6,20
"2019-11-22","2019-11-25","G38284A",3.2,"2019-11-25 15:14:29-06","{34.3,12.6,6.1,7.2,6.3,8.0,7.1,2.1,21.7,1.0,1.1,10.0,0.0,13.4,4.0,22.1,3.1,7.2,17.1,3.2}",7.2,9.4,187.6,20
"2019-11-15","2019-11-26","G38117XA",11.0,"2019-11-26 10:43:24-06","{12.6,6.1,7.2,6.3,8.0,7.1,2.1,21.7,1.0,1.1,10.0,0.0,13.4,4.0,22.1,3.1,7.2,17.1,3.2,11.0}",7.2,8.2,164.3,20
"2019-11-14","2019-11-26","G38457A",12.3,"2019-11-26 17:12:59-06","{6.1,7.2,6.3,8.0,7.1,2.1,21.7,1.0,1.1,10.0,0.0,13.4,4.0,22.1,3.1,7.2,17.1,3.2,11.0,12.3}",7.2,8.2,164.0,20
"2019-11-25","2019-11-26","G38298A",1.3,"2019-11-26 17:14:27-06","{7.2,6.3,8.0,7.1,2.1,21.7,1.0,1.1,10.0,0.0,13.4,4.0,22.1,3.1,7.2,17.1,3.2,11.0,12.3,1.3}",7.2,8.0,159.2,20
"2019-11-18","2019-11-29","G38106A",10.9,"2019-11-29 06:28:02-06","{6.3,8.0,7.1,2.1,21.7,1.0,1.1,10.0,0.0,13.4,4.0,22.1,3.1,7.2,17.1,3.2,11.0,12.3,1.3,10.9}",7.2,8.1,162.9,20
"2019-11-21","2019-11-29","G38029A",7.9,"2019-11-29 06:28:18-06","{8.0,7.1,2.1,21.7,1.0,1.1,10.0,0.0,13.4,4.0,22.1,3.1,7.2,17.1,3.2,11.0,12.3,1.3,10.9,7.9}",7.6,8.2,164.5,20
"2019-11-25","2019-11-29","G37901A",3.9,"2019-11-29 06:28:31-06","{7.1,2.1,21.7,1.0,1.1,10.0,0.0,13.4,4.0,22.1,3.1,7.2,17.1,3.2,11.0,12.3,1.3,10.9,7.9,3.9}",7.2,8.0,160.4,20
"2019-11-22","2019-11-29","G38169A",6.9,"2019-11-29 06:29:29-06","{2.1,21.7,1.0,1.1,10.0,0.0,13.4,4.0,22.1,3.1,7.2,17.1,3.2,11.0,12.3,1.3,10.9,7.9,3.9,6.9}",7.1,8.0,160.2,20
"2019-11-21","2019-11-29","G38493XA",7.9,"2019-11-29 06:29:43-06","{21.7,1.0,1.1,10.0,0.0,13.4,4.0,22.1,3.1,7.2,17.1,3.2,11.0,12.3,1.3,10.9,7.9,3.9,6.9,7.9}",7.6,8.3,166.0,20
"2019-11-18","2019-11-29","G38308XA",10.9,"2019-11-29 06:30:12-06","{1.0,1.1,10.0,0.0,13.4,4.0,22.1,3.1,7.2,17.1,3.2,11.0,12.3,1.3,10.9,7.9,3.9,6.9,7.9,10.9}",7.6,7.8,155.2,20
"2019-11-15","2019-11-29","G38335A",14.1,"2019-11-29 12:40:55-06","{1.1,10.0,0.0,13.4,4.0,22.1,3.1,7.2,17.1,3.2,11.0,12.3,1.3,10.9,7.9,3.9,6.9,7.9,10.9,14.1}",7.9,8.4,168.3,20
"2019-11-22","2019-11-29","G38638GA",7.2,"2019-11-29 12:41:50-06","{10.0,0.0,13.4,4.0,22.1,3.1,7.2,17.1,3.2,11.0,12.3,1.3,10.9,7.9,3.9,6.9,7.9,10.9,14.1,7.2}",7.9,8.7,174.4,20
"2019-11-19","2019-11-29","G38312XA",10.2,"2019-11-29 12:42:12-06","{0.0,13.4,4.0,22.1,3.1,7.2,17.1,3.2,11.0,12.3,1.3,10.9,7.9,3.9,6.9,7.9,10.9,14.1,7.2,10.2}",7.9,8.7,174.6,20
"2019-11-22","2019-11-29","G38635X",7.2,"2019-11-29 12:42:39-06","{13.4,4.0,22.1,3.1,7.2,17.1,3.2,11.0,12.3,1.3,10.9,7.9,3.9,6.9,7.9,10.9,14.1,7.2,10.2,7.2}",7.9,9.1,181.8,20
"2019-11-19","2019-11-29","G36830A",10.2,"2019-11-29 12:43:09-06","{4.0,22.1,3.1,7.2,17.1,3.2,11.0,12.3,1.3,10.9,7.9,3.9,6.9,7.9,10.9,14.1,7.2,10.2,7.2,10.2}",7.9,8.9,178.6,20
"2019-11-04","2019-11-29","G38431X",25.2,"2019-11-29 12:43:31-06","{22.1,3.1,7.2,17.1,3.2,11.0,12.3,1.3,10.9,7.9,3.9,6.9,7.9,10.9,14.1,7.2,10.2,7.2,10.2,25.2}",9.1,10.0,199.8,20
"2019-11-29","2019-11-30","G38065A",0.9,"2019-11-30 09:36:32-06","{3.1,7.2,17.1,3.2,11.0,12.3,1.3,10.9,7.9,3.9,6.9,7.9,10.9,14.1,7.2,10.2,7.2,10.2,25.2,0.9}",7.9,8.9,178.6,20
"2019-11-25","2019-11-30","G38358XA",5.0,"2019-11-30 09:36:46-06","{7.2,17.1,3.2,11.0,12.3,1.3,10.9,7.9,3.9,6.9,7.9,10.9,14.1,7.2,10.2,7.2,10.2,25.2,0.9,5.0}",7.9,9.0,180.5,20
"2019-11-26","2019-11-30","G38558XA",4.0,"2019-11-30 09:37:00-06","{17.1,3.2,11.0,12.3,1.3,10.9,7.9,3.9,6.9,7.9,10.9,14.1,7.2,10.2,7.2,10.2,25.2,0.9,5.0,4.0}",7.9,8.9,177.3,20
"2019-11-25","2019-12-03","G38322XA",8.1,"2019-12-03 12:15:43-06","{3.2,11.0,12.3,1.3,10.9,7.9,3.9,6.9,7.9,10.9,14.1,7.2,10.2,7.2,10.2,25.2,0.9,5.0,4.0,8.1}",7.9,8.4,168.3,20
"2019-11-21","2019-12-03","G37874A",12.2,"2019-12-03 13:39:16-06","{11.0,12.3,1.3,10.9,7.9,3.9,6.9,7.9,10.9,14.1,7.2,10.2,7.2,10.2,25.2,0.9,5.0,4.0,8.1,12.2}",8.0,8.9,177.3,20
"2019-11-25","2019-12-03","G38278GA",8.2,"2019-12-03 13:45:25-06","{12.3,1.3,10.9,7.9,3.9,6.9,7.9,10.9,14.1,7.2,10.2,7.2,10.2,25.2,0.9,5.0,4.0,8.1,12.2,8.2}",8.0,8.7,174.5,20
"2019-12-03","2019-12-04","G38135B",1.2,"2019-12-04 13:58:45-06","{1.3,10.9,7.9,3.9,6.9,7.9,10.9,14.1,7.2,10.2,7.2,10.2,25.2,0.9,5.0,4.0,8.1,12.2,8.2,1.2}",7.9,8.2,163.4,20
"2019-11-25","2019-12-05","G37793XBB",10.3,"2019-12-05 14:22:57-06","{10.9,7.9,3.9,6.9,7.9,10.9,14.1,7.2,10.2,7.2,10.2,25.2,0.9,5.0,4.0,8.1,12.2,8.2,1.2,10.3}",8.0,8.6,172.4,20
"2019-12-02","2019-12-05","G38584A",3.3,"2019-12-05 15:43:53-06","{7.9,3.9,6.9,7.9,10.9,14.1,7.2,10.2,7.2,10.2,25.2,0.9,5.0,4.0,8.1,12.2,8.2,1.2,10.3,3.3}",7.9,8.2,164.8,20
"2019-12-05","2019-12-05","G38122X",0.3,"2019-12-05 15:45:34-06","{3.9,6.9,7.9,10.9,14.1,7.2,10.2,7.2,10.2,25.2,0.9,5.0,4.0,8.1,12.2,8.2,1.2,10.3,3.3,0.3}",7.6,7.9,157.2,20
"2019-11-29","2019-12-05","G38134A",6.3,"2019-12-05 15:51:08-06","{6.9,7.9,10.9,14.1,7.2,10.2,7.2,10.2,25.2,0.9,5.0,4.0,8.1,12.2,8.2,1.2,10.3,3.3,0.3,6.3}",7.6,8.0,159.6,20
"2019-11-25","2019-12-05","G38569X",10.4,"2019-12-05 17:28:54-06","{7.9,10.9,14.1,7.2,10.2,7.2,10.2,25.2,0.9,5.0,4.0,8.1,12.2,8.2,1.2,10.3,3.3,0.3,6.3,10.4}",8.0,8.2,163.1,20
"2019-11-29","2019-12-05","G37438RA",6.4,"2019-12-05 17:29:03-06","{10.9,14.1,7.2,10.2,7.2,10.2,25.2,0.9,5.0,4.0,8.1,12.2,8.2,1.2,10.3,3.3,0.3,6.3,10.4,6.4}",7.7,8.1,161.6,20
"2019-11-25","2019-12-05","G36936A",10.3,"2019-12-05 17:29:15-06","{14.1,7.2,10.2,7.2,10.2,25.2,0.9,5.0,4.0,8.1,12.2,8.2,1.2,10.3,3.3,0.3,6.3,10.4,6.4,10.3}",7.7,8.1,161.0,20
"2019-11-29","2019-12-05","G38671X",6.4,"2019-12-05 17:29:48-06","{7.2,10.2,7.2,10.2,25.2,0.9,5.0,4.0,8.1,12.2,8.2,1.2,10.3,3.3,0.3,6.3,10.4,6.4,10.3,6.4}",7.2,7.7,153.3,20
"2019-11-18","2019-12-06","G38588P",18.1,"2019-12-06 10:40:42-06","{10.2,7.2,10.2,25.2,0.9,5.0,4.0,8.1,12.2,8.2,1.2,10.3,3.3,0.3,6.3,10.4,6.4,10.3,6.4,18.1}",7.7,8.2,164.2,20
"2019-11-25","2019-12-07","G37533A",12.0,"2019-12-07 10:23:57-06","{7.2,10.2,25.2,0.9,5.0,4.0,8.1,12.2,8.2,1.2,10.3,3.3,0.3,6.3,10.4,6.4,10.3,6.4,18.1,12.0}",7.7,8.3,166.0,20
"2019-12-03","2019-12-07","G35671XA",4.0,"2019-12-07 10:24:11-06","{10.2,25.2,0.9,5.0,4.0,8.1,12.2,8.2,1.2,10.3,3.3,0.3,6.3,10.4,6.4,10.3,6.4,18.1,12.0,4.0}",7.3,8.1,162.8,20
"2019-12-03","2019-12-07","G37588B",4.1,"2019-12-07 10:24:37-06","{25.2,0.9,5.0,4.0,8.1,12.2,8.2,1.2,10.3,3.3,0.3,6.3,10.4,6.4,10.3,6.4,18.1,12.0,4.0,4.1}",6.4,7.8,156.7,20
"2019-11-29","2019-12-09","G38572X",10.1,"2019-12-09 12:00:54-06","{0.9,5.0,4.0,8.1,12.2,8.2,1.2,10.3,3.3,0.3,6.3,10.4,6.4,10.3,6.4,18.1,12.0,4.0,4.1,10.1}",6.4,7.1,141.6,20
"2019-12-02","2019-12-09","G38119XA",6.9,"2019-12-09 12:36:50-06","{5.0,4.0,8.1,12.2,8.2,1.2,10.3,3.3,0.3,6.3,10.4,6.4,10.3,6.4,18.1,12.0,4.0,4.1,10.1,6.9}",6.7,7.4,147.6,20
"2019-11-29","2019-12-09","G38143B",10.2,"2019-12-09 13:20:00-06","{4.0,8.1,12.2,8.2,1.2,10.3,3.3,0.3,6.3,10.4,6.4,10.3,6.4,18.1,12.0,4.0,4.1,10.1,6.9,10.2}",7.5,7.6,152.8,20
"2019-11-29","2019-12-09","G38559A",10.3,"2019-12-09 16:39:33-06","{8.1,12.2,8.2,1.2,10.3,3.3,0.3,6.3,10.4,6.4,10.3,6.4,18.1,12.0,4.0,4.1,10.1,6.9,10.2,10.3}",8.2,8.0,159.1,20
"2019-12-06","2019-12-09","G38450X",3.3,"2019-12-09 16:39:44-06","{12.2,8.2,1.2,10.3,3.3,0.3,6.3,10.4,6.4,10.3,6.4,18.1,12.0,4.0,4.1,10.1,6.9,10.2,10.3,3.3}",7.6,7.7,154.3,20
"2019-12-04","2019-12-10","G37006RA",6.3,"2019-12-10 15:33:00-06","{8.2,1.2,10.3,3.3,0.3,6.3,10.4,6.4,10.3,6.4,18.1,12.0,4.0,4.1,10.1,6.9,10.2,10.3,3.3,6.3}",6.7,7.4,148.4,20
"2019-12-04","2019-12-10","G38695P",6.3,"2019-12-10 15:34:47-06","{1.2,10.3,3.3,0.3,6.3,10.4,6.4,10.3,6.4,18.1,12.0,4.0,4.1,10.1,6.9,10.2,10.3,3.3,6.3,6.3}",6.4,7.3,146.5,20
"2019-11-22","2019-12-10","G37750B",18.3,"2019-12-10 15:35:25-06","{10.3,3.3,0.3,6.3,10.4,6.4,10.3,6.4,18.1,12.0,4.0,4.1,10.1,6.9,10.2,10.3,3.3,6.3,6.3,18.3}",6.7,8.2,163.6,20
"2019-12-10","2019-12-10","G38210A",0.3,"2019-12-10 15:37:39-06","{3.3,0.3,6.3,10.4,6.4,10.3,6.4,18.1,12.0,4.0,4.1,10.1,6.9,10.2,10.3,3.3,6.3,6.3,18.3,0.3}",6.4,7.7,153.6,20
"2019-12-09","2019-12-10","G38700X",1.2,"2019-12-10 15:38:27-06","{0.3,6.3,10.4,6.4,10.3,6.4,18.1,12.0,4.0,4.1,10.1,6.9,10.2,10.3,3.3,6.3,6.3,18.3,0.3,1.2}",6.4,7.6,151.5,20
"2019-11-08","2019-12-10","G38421A",32.3,"2019-12-10 15:51:31-06","{6.3,10.4,6.4,10.3,6.4,18.1,12.0,4.0,4.1,10.1,6.9,10.2,10.3,3.3,6.3,6.3,18.3,0.3,1.2,32.3}",6.7,9.2,183.5,20
"2019-12-10","2019-12-10","G38637X",0.5,"2019-12-10 19:20:58-06","{10.4,6.4,10.3,6.4,18.1,12.0,4.0,4.1,10.1,6.9,10.2,10.3,3.3,6.3,6.3,18.3,0.3,1.2,32.3,0.5}",6.7,8.9,177.7,20
"2019-12-09","2019-12-12","G38703X",3.1,"2019-12-12 11:03:38-06","{6.4,10.3,6.4,18.1,12.0,4.0,4.1,10.1,6.9,10.2,10.3,3.3,6.3,6.3,18.3,0.3,1.2,32.3,0.5,3.1}",6.4,8.5,170.4,20
"2019-12-09","2019-12-12","G38615X",3.2,"2019-12-12 14:35:56-06","{10.3,6.4,18.1,12.0,4.0,4.1,10.1,6.9,10.2,10.3,3.3,6.3,6.3,18.3,0.3,1.2,32.3,0.5,3.1,3.2}",6.4,8.4,167.2,20
"2019-12-03","2019-12-12","G37024RB",9.2,"2019-12-12 14:56:12-06","{6.4,18.1,12.0,4.0,4.1,10.1,6.9,10.2,10.3,3.3,6.3,6.3,18.3,0.3,1.2,32.3,0.5,3.1,3.2,9.2}",6.4,8.3,166.1,20
"2019-12-12","2019-12-12","G37033RB",0.3,"2019-12-12 14:58:02-06","{18.1,12.0,4.0,4.1,10.1,6.9,10.2,10.3,3.3,6.3,6.3,18.3,0.3,1.2,32.3,0.5,3.1,3.2,9.2,0.3}",6.3,8.0,160.0,20
"2019-11-25","2019-12-12","G38314X",17.3,"2019-12-12 16:50:41-06","{12.0,4.0,4.1,10.1,6.9,10.2,10.3,3.3,6.3,6.3,18.3,0.3,1.2,32.3,0.5,3.1,3.2,9.2,0.3,17.3}",6.3,8.0,159.2,20
"2019-12-10","2019-12-13","G37160A",3.0,"2019-12-13 07:56:45-06","{4.0,4.1,10.1,6.9,10.2,10.3,3.3,6.3,6.3,18.3,0.3,1.2,32.3,0.5,3.1,3.2,9.2,0.3,17.3,3.0}",5.2,7.5,150.2,20
"2019-12-06","2019-12-16","G38414A",10.1,"2019-12-16 11:38:29-06","{4.1,10.1,6.9,10.2,10.3,3.3,6.3,6.3,18.3,0.3,1.2,32.3,0.5,3.1,3.2,9.2,0.3,17.3,3.0,10.1}",6.3,7.8,156.3,20
"2019-12-10","2019-12-16","G37763RA",6.1,"2019-12-16 11:38:57-06","{10.1,6.9,10.2,10.3,3.3,6.3,6.3,18.3,0.3,1.2,32.3,0.5,3.1,3.2,9.2,0.3,17.3,3.0,10.1,6.1}",6.3,7.9,158.3,20
"2019-12-09","2019-12-16","G38229XB",7.1,"2019-12-16 11:39:39-06","{6.9,10.2,10.3,3.3,6.3,6.3,18.3,0.3,1.2,32.3,0.5,3.1,3.2,9.2,0.3,17.3,3.0,10.1,6.1,7.1}",6.3,7.8,155.3,20
"2019-12-11","2019-12-16","G38569XA",5.3,"2019-12-16 14:07:41-06","{10.2,10.3,3.3,6.3,6.3,18.3,0.3,1.2,32.3,0.5,3.1,3.2,9.2,0.3,17.3,3.0,10.1,6.1,7.1,5.3}",6.2,7.7,153.7,20
"2019-12-02","2019-12-16","G38542A",14.2,"2019-12-16 14:08:03-06","{10.3,3.3,6.3,6.3,18.3,0.3,1.2,32.3,0.5,3.1,3.2,9.2,0.3,17.3,3.0,10.1,6.1,7.1,5.3,14.2}",6.2,7.9,157.7,20
"2019-12-16","2019-12-16","G38116XA",0.2,"2019-12-16 16:50:32-06","{3.3,6.3,6.3,18.3,0.3,1.2,32.3,0.5,3.1,3.2,9.2,0.3,17.3,3.0,10.1,6.1,7.1,5.3,14.2,0.2}",5.7,7.4,147.6,20
"2019-11-29","2019-12-17","G38589B",18.3,"2019-12-17 15:02:43-06","{6.3,6.3,18.3,0.3,1.2,32.3,0.5,3.1,3.2,9.2,0.3,17.3,3.0,10.1,6.1,7.1,5.3,14.2,0.2,18.3}",6.2,8.1,162.6,20
"2019-12-06","2019-12-17","G38597XA",11.3,"2019-12-17 17:03:53-06","{6.3,18.3,0.3,1.2,32.3,0.5,3.1,3.2,9.2,0.3,17.3,3.0,10.1,6.1,7.1,5.3,14.2,0.2,18.3,11.3}",6.2,8.4,167.6,20
"2019-12-12","2019-12-17","G38503A",5.4,"2019-12-17 17:04:03-06","{18.3,0.3,1.2,32.3,0.5,3.1,3.2,9.2,0.3,17.3,3.0,10.1,6.1,7.1,5.3,14.2,0.2,18.3,11.3,5.4}",5.8,8.3,166.7,20
"2019-10-30","2019-12-17","G38356A",48.0,"2019-12-17 17:22:27-06","{0.3,1.2,32.3,0.5,3.1,3.2,9.2,0.3,17.3,3.0,10.1,6.1,7.1,5.3,14.2,0.2,18.3,11.3,5.4,48.0}",5.8,9.8,196.4,20
"2019-11-18","2019-12-17","G38103A",29.3,"2019-12-17 17:22:35-06","{1.2,32.3,0.5,3.1,3.2,9.2,0.3,17.3,3.0,10.1,6.1,7.1,5.3,14.2,0.2,18.3,11.3,5.4,48.0,29.3}",6.6,11.3,225.4,20
"2019-12-16","2019-12-17","G38640X",1.2,"2019-12-17 17:22:49-06","{32.3,0.5,3.1,3.2,9.2,0.3,17.3,3.0,10.1,6.1,7.1,5.3,14.2,0.2,18.3,11.3,5.4,48.0,29.3,1.2}",6.6,11.3,225.4,20
"2019-12-06","2019-12-17","G38257A",11.5,"2019-12-17 20:45:08-06","{0.5,3.1,3.2,9.2,0.3,17.3,3.0,10.1,6.1,7.1,5.3,14.2,0.2,18.3,11.3,5.4,48.0,29.3,1.2,11.5}",6.6,10.2,204.6,20
"2019-12-18","2019-12-18","G37709A",0.0,"2019-12-18 08:14:19-06","{3.1,3.2,9.2,0.3,17.3,3.0,10.1,6.1,7.1,5.3,14.2,0.2,18.3,11.3,5.4,48.0,29.3,1.2,11.5,0.0}",6.6,10.2,204.1,20
"2019-12-18","2019-12-18","G38547AA",0.0,"2019-12-18 08:15:55-06","{3.2,9.2,0.3,17.3,3.0,10.1,6.1,7.1,5.3,14.2,0.2,18.3,11.3,5.4,48.0,29.3,1.2,11.5,0.0,0.0}",6.6,10.1,201.0,20
"2019-12-18","2019-12-18","G38252B",0.0,"2019-12-18 08:17:28-06","{9.2,0.3,17.3,3.0,10.1,6.1,7.1,5.3,14.2,0.2,18.3,11.3,5.4,48.0,29.3,1.2,11.5,0.0,0.0,0.0}",6.6,9.9,197.8,20
"2019-12-02","2019-12-18","G37682B",16.2,"2019-12-18 12:52:43-06","{0.3,17.3,3.0,10.1,6.1,7.1,5.3,14.2,0.2,18.3,11.3,5.4,48.0,29.3,1.2,11.5,0.0,0.0,0.0,16.2}",6.6,10.2,204.8,20
"2019-12-18","2019-12-18","G38746X",0.4,"2019-12-18 18:13:01-06","{17.3,3.0,10.1,6.1,7.1,5.3,14.2,0.2,18.3,11.3,5.4,48.0,29.3,1.2,11.5,0.0,0.0,0.0,16.2,0.4}",6.6,10.2,204.9,20
"2019-12-18","2019-12-18","G38177A",0.4,"2019-12-18 18:13:25-06","{3.0,10.1,6.1,7.1,5.3,14.2,0.2,18.3,11.3,5.4,48.0,29.3,1.2,11.5,0.0,0.0,0.0,16.2,0.4,0.4}",5.8,9.4,188.0,20
"2019-12-18","2019-12-18","G38020A",0.4,"2019-12-18 18:54:54-06","{10.1,6.1,7.1,5.3,14.2,0.2,18.3,11.3,5.4,48.0,29.3,1.2,11.5,0.0,0.0,0.0,16.2,0.4,0.4,0.4}",5.8,9.3,185.4,20
"2019-12-16","2019-12-18","G38749X",2.3,"2019-12-18 19:00:34-06","{6.1,7.1,5.3,14.2,0.2,18.3,11.3,5.4,48.0,29.3,1.2,11.5,0.0,0.0,0.0,16.2,0.4,0.4,0.4,2.3}",5.4,8.9,177.6,20
"2019-12-12","2019-12-18","G37802A",6.4,"2019-12-18 19:01:20-06","{7.1,5.3,14.2,0.2,18.3,11.3,5.4,48.0,29.3,1.2,11.5,0.0,0.0,0.0,16.2,0.4,0.4,0.4,2.3,6.4}",5.4,8.9,177.9,20
"2019-12-18","2019-12-18","G36928RA",0.4,"2019-12-18 19:42:48-06","{5.3,14.2,0.2,18.3,11.3,5.4,48.0,29.3,1.2,11.5,0.0,0.0,0.0,16.2,0.4,0.4,0.4,2.3,6.4,0.4}",3.8,8.6,171.2,20
"2019-12-06","2019-12-19","G37961A",13.2,"2019-12-19 13:46:53-06","{14.2,0.2,18.3,11.3,5.4,48.0,29.3,1.2,11.5,0.0,0.0,0.0,16.2,0.4,0.4,0.4,2.3,6.4,0.4,13.2}",3.9,9.0,179.1,20
"2019-12-12","2019-12-19","G36832A",7.3,"2019-12-19 16:32:26-06","{0.2,18.3,11.3,5.4,48.0,29.3,1.2,11.5,0.0,0.0,0.0,16.2,0.4,0.4,0.4,2.3,6.4,0.4,13.2,7.3}",3.9,8.6,172.2,20
"2019-12-12","2019-12-20","G37521RB",8.2,"2019-12-20 14:15:33-06","{18.3,11.3,5.4,48.0,29.3,1.2,11.5,0.0,0.0,0.0,16.2,0.4,0.4,0.4,2.3,6.4,0.4,13.2,7.3,8.2}",5.9,9.0,180.2,20
"2019-12-12","2019-12-23","G37410B",10.6,"2019-12-23 07:13:45-06","{11.3,5.4,48.0,29.3,1.2,11.5,0.0,0.0,0.0,16.2,0.4,0.4,0.4,2.3,6.4,0.4,13.2,7.3,8.2,10.6}",5.9,8.6,172.5,20
"2019-12-23","2019-12-23","G38435X",0.0,"2019-12-23 07:33:52-06","{5.4,48.0,29.3,1.2,11.5,0.0,0.0,0.0,16.2,0.4,0.4,0.4,2.3,6.4,0.4,13.2,7.3,8.2,10.6,0.0}",3.9,8.1,161.2,20
"2019-12-23","2019-12-23","G38453X",0.0,"2019-12-23 07:37:31-06","{48.0,29.3,1.2,11.5,0.0,0.0,0.0,16.2,0.4,0.4,0.4,2.3,6.4,0.4,13.2,7.3,8.2,10.6,0.0,0.0}",1.8,7.8,155.8,20
"2019-12-18","2019-12-23","G38439X",5.0,"2019-12-23 08:42:23-06","{29.3,1.2,11.5,0.0,0.0,0.0,16.2,0.4,0.4,0.4,2.3,6.4,0.4,13.2,7.3,8.2,10.6,0.0,0.0,5.0}",1.8,5.6,112.8,20
"2019-12-16","2019-12-23","G38547A",6.9,"2019-12-23 08:42:50-06","{1.2,11.5,0.0,0.0,0.0,16.2,0.4,0.4,0.4,2.3,6.4,0.4,13.2,7.3,8.2,10.6,0.0,0.0,5.0,6.9}",1.8,4.5,90.4,20
"2019-12-18","2019-12-23","G38705X",5.0,"2019-12-23 08:43:13-06","{11.5,0.0,0.0,0.0,16.2,0.4,0.4,0.4,2.3,6.4,0.4,13.2,7.3,8.2,10.6,0.0,0.0,5.0,6.9,5.0}",3.7,4.7,94.2,20
"2019-12-16","2019-12-23","G37732A",6.9,"2019-12-23 08:43:44-06","{0.0,0.0,0.0,16.2,0.4,0.4,0.4,2.3,6.4,0.4,13.2,7.3,8.2,10.6,0.0,0.0,5.0,6.9,5.0,6.9}",3.7,4.5,89.6,20
"2019-12-12","2019-12-23","G38230BB",11.2,"2019-12-23 13:59:51-06","{0.0,0.0,16.2,0.4,0.4,0.4,2.3,6.4,0.4,13.2,7.3,8.2,10.6,0.0,0.0,5.0,6.9,5.0,6.9,11.2}",5.0,5.0,100.8,20
"2019-12-23","2019-12-23","G38890X",0.2,"2019-12-23 14:00:04-06","{0.0,16.2,0.4,0.4,0.4,2.3,6.4,0.4,13.2,7.3,8.2,10.6,0.0,0.0,5.0,6.9,5.0,6.9,11.2,0.2}",5.0,5.1,101.0,20
"2019-12-17","2019-12-23","G38771X",6.3,"2019-12-23 14:00:16-06","{16.2,0.4,0.4,0.4,2.3,6.4,0.4,13.2,7.3,8.2,10.6,0.0,0.0,5.0,6.9,5.0,6.9,11.2,0.2,6.3}",5.7,5.4,107.3,20
"2019-12-18","2019-12-23","G38800X",5.2,"2019-12-23 14:00:28-06","{0.4,0.4,0.4,2.3,6.4,0.4,13.2,7.3,8.2,10.6,0.0,0.0,5.0,6.9,5.0,6.9,11.2,0.2,6.3,5.2}",5.1,4.8,96.3,20
"2019-12-23","2019-12-23","G38661A",0.2,"2019-12-23 14:09:54-06","{0.4,0.4,2.3,6.4,0.4,13.2,7.3,8.2,10.6,0.0,0.0,5.0,6.9,5.0,6.9,11.2,0.2,6.3,5.2,0.2}",5.1,4.8,96.1,20
"2019-12-23","2019-12-23","G38801X",0.2,"2019-12-23 14:10:10-06","{0.4,2.3,6.4,0.4,13.2,7.3,8.2,10.6,0.0,0.0,5.0,6.9,5.0,6.9,11.2,0.2,6.3,5.2,0.2,0.2}",5.1,4.8,95.9,20
"2019-12-23","2019-12-24","G38633A",1.1,"2019-12-24 11:35:16-06","{2.3,6.4,0.4,13.2,7.3,8.2,10.6,0.0,0.0,5.0,6.9,5.0,6.9,11.2,0.2,6.3,5.2,0.2,0.2,1.1}",5.1,4.8,96.6,20
"2019-12-09","2019-12-24","G36569RB",15.1,"2019-12-24 12:01:35-06","{6.4,0.4,13.2,7.3,8.2,10.6,0.0,0.0,5.0,6.9,5.0,6.9,11.2,0.2,6.3,5.2,0.2,0.2,1.1,15.1}",5.8,5.5,109.4,20
"2019-12-16","2019-12-24","G38230B",8.0,"2019-12-24 12:06:18-06","{0.4,13.2,7.3,8.2,10.6,0.0,0.0,5.0,6.9,5.0,6.9,11.2,0.2,6.3,5.2,0.2,0.2,1.1,15.1,8.0}",5.8,5.6,111.0,20
"2019-12-19","2019-12-26","G33954B",7.2,"2019-12-26 13:56:46-06","{13.2,7.3,8.2,10.6,0.0,0.0,5.0,6.9,5.0,6.9,11.2,0.2,6.3,5.2,0.2,0.2,1.1,15.1,8.0,7.2}",6.6,5.9,117.8,20
"2019-12-24","2019-12-27","G38748X",2.9,"2019-12-27 08:24:33-06","{7.3,8.2,10.6,0.0,0.0,5.0,6.9,5.0,6.9,11.2,0.2,6.3,5.2,0.2,0.2,1.1,15.1,8.0,7.2,2.9}",5.8,5.4,107.5,20
"2019-12-16","2019-12-27","G38413A",11.0,"2019-12-27 10:18:24-06","{8.2,10.6,0.0,0.0,5.0,6.9,5.0,6.9,11.2,0.2,6.3,5.2,0.2,0.2,1.1,15.1,8.0,7.2,2.9,11.0}",5.8,5.6,111.2,20
"2019-12-16","2019-12-27","G38813X",10.9,"2019-12-27 10:18:35-06","{10.6,0.0,0.0,5.0,6.9,5.0,6.9,11.2,0.2,6.3,5.2,0.2,0.2,1.1,15.1,8.0,7.2,2.9,11.0,10.9}",5.8,5.7,113.9,20
"2019-12-18","2019-12-27","G37475RA",9.1,"2019-12-27 10:18:57-06","{0.0,0.0,5.0,6.9,5.0,6.9,11.2,0.2,6.3,5.2,0.2,0.2,1.1,15.1,8.0,7.2,2.9,11.0,10.9,9.1}",5.8,5.6,112.4,20
"2019-12-24","2019-12-27","G38806X",3.0,"2019-12-27 10:19:22-06","{0.0,5.0,6.9,5.0,6.9,11.2,0.2,6.3,5.2,0.2,0.2,1.1,15.1,8.0,7.2,2.9,11.0,10.9,9.1,3.0}",5.8,5.8,115.4,20
"2019-12-24","2019-12-27","G38076A",3.0,"2019-12-27 10:19:35-06","{5.0,6.9,5.0,6.9,11.2,0.2,6.3,5.2,0.2,0.2,1.1,15.1,8.0,7.2,2.9,11.0,10.9,9.1,3.0,3.0}",5.8,5.9,118.4,20
"2019-12-18","2019-12-27","G38719X",9.0,"2019-12-27 10:19:51-06","{6.9,5.0,6.9,11.2,0.2,6.3,5.2,0.2,0.2,1.1,15.1,8.0,7.2,2.9,11.0,10.9,9.1,3.0,3.0,9.0}",6.6,6.1,122.4,20
"2019-12-24","2019-12-27","G38468X",3.0,"2019-12-27 10:20:03-06","{5.0,6.9,11.2,0.2,6.3,5.2,0.2,0.2,1.1,15.1,8.0,7.2,2.9,11.0,10.9,9.1,3.0,3.0,9.0,3.0}",5.8,5.9,118.5,20
"2019-12-23","2019-12-27","G38397A",4.0,"2019-12-27 10:20:21-06","{6.9,11.2,0.2,6.3,5.2,0.2,0.2,1.1,15.1,8.0,7.2,2.9,11.0,10.9,9.1,3.0,3.0,9.0,3.0,4.0}",5.8,5.9,117.5,20
"2019-12-12","2019-12-27","G38592A",15.1,"2019-12-27 10:20:47-06","{11.2,0.2,6.3,5.2,0.2,0.2,1.1,15.1,8.0,7.2,2.9,11.0,10.9,9.1,3.0,3.0,9.0,3.0,4.0,15.1}",5.8,6.3,125.7,20
"2019-12-18","2019-12-31","G38649B",13.2,"2019-12-31 14:46:52-06","{0.2,6.3,5.2,0.2,0.2,1.1,15.1,8.0,7.2,2.9,11.0,10.9,9.1,3.0,3.0,9.0,3.0,4.0,15.1,13.2}",5.8,6.4,127.7,20
"2019-12-16","2019-12-31","G38641X",15.3,"2019-12-31 15:14:09-06","{6.3,5.2,0.2,0.2,1.1,15.1,8.0,7.2,2.9,11.0,10.9,9.1,3.0,3.0,9.0,3.0,4.0,15.1,13.2,15.3}",6.8,7.1,142.8,20
"2019-12-10","2020-01-02","G37734B",23.3,"2020-01-02 14:32:17-06","{5.2,0.2,0.2,1.1,15.1,8.0,7.2,2.9,11.0,10.9,9.1,3.0,3.0,9.0,3.0,4.0,15.1,13.2,15.3,23.3}",7.6,8.0,159.8,20
"2019-12-23","2020-01-03","G38956X",11.0,"2020-01-03 08:29:51-06","{0.2,0.2,1.1,15.1,8.0,7.2,2.9,11.0,10.9,9.1,3.0,3.0,9.0,3.0,4.0,15.1,13.2,15.3,23.3,11.0}",8.5,8.3,165.6,20
"2019-12-23","2020-01-03","G38981M",11.0,"2020-01-03 08:30:06-06","{0.2,1.1,15.1,8.0,7.2,2.9,11.0,10.9,9.1,3.0,3.0,9.0,3.0,4.0,15.1,13.2,15.3,23.3,11.0,11.0}",9.1,8.8,176.4,20
"2019-12-23","2020-01-03","G37888A",11.0,"2020-01-03 08:30:17-06","{1.1,15.1,8.0,7.2,2.9,11.0,10.9,9.1,3.0,3.0,9.0,3.0,4.0,15.1,13.2,15.3,23.3,11.0,11.0,11.0}",10.0,9.4,187.2,20
"2019-10-29","2020-01-03","G38242X",66.0,"2020-01-03 08:30:29-06","{15.1,8.0,7.2,2.9,11.0,10.9,9.1,3.0,3.0,9.0,3.0,4.0,15.1,13.2,15.3,23.3,11.0,11.0,11.0,66.0}",11.0,12.6,252.1,20
"2019-12-26","2020-01-03","G38697X",7.7,"2020-01-03 08:30:58-06","{8.0,7.2,2.9,11.0,10.9,9.1,3.0,3.0,9.0,3.0,4.0,15.1,13.2,15.3,23.3,11.0,11.0,11.0,66.0,7.7}",10.0,12.2,244.7,20
"2019-12-27","2020-01-03","G38773X",7.0,"2020-01-03 08:31:13-06","{7.2,2.9,11.0,10.9,9.1,3.0,3.0,9.0,3.0,4.0,15.1,13.2,15.3,23.3,11.0,11.0,11.0,66.0,7.7,7.0}",10.0,12.2,243.7,20
"2019-12-31","2020-01-03","G38698X",3.0,"2020-01-03 08:31:36-06","{2.9,11.0,10.9,9.1,3.0,3.0,9.0,3.0,4.0,15.1,13.2,15.3,23.3,11.0,11.0,11.0,66.0,7.7,7.0,3.0}",10.0,12.0,239.5,20
"2019-12-20","2020-01-03","G38330A",14.3,"2020-01-03 16:50:17-06","{11.0,10.9,9.1,3.0,3.0,9.0,3.0,4.0,15.1,13.2,15.3,23.3,11.0,11.0,11.0,66.0,7.7,7.0,3.0,14.3}",11.0,12.5,250.9,20
"2019-12-23","2020-01-04","G35882RB",12.0,"2020-01-04 08:25:10-06","{10.9,9.1,3.0,3.0,9.0,3.0,4.0,15.1,13.2,15.3,23.3,11.0,11.0,11.0,66.0,7.7,7.0,3.0,14.3,12.0}",11.0,12.6,251.9,20
"2019-12-23","2020-01-04","G38505A",12.0,"2020-01-04 08:25:19-06","{9.1,3.0,3.0,9.0,3.0,4.0,15.1,13.2,15.3,23.3,11.0,11.0,11.0,66.0,7.7,7.0,3.0,14.3,12.0,12.0}",11.0,12.7,253.0,20
"2019-12-27","2020-01-06","G38963X",10.3,"2020-01-06 15:12:56-06","{3.0,3.0,9.0,3.0,4.0,15.1,13.2,15.3,23.3,11.0,11.0,11.0,66.0,7.7,7.0,3.0,14.3,12.0,12.0,10.3}",11.0,12.7,254.2,20
"2019-12-27","2020-01-06","G38215XB",10.3,"2020-01-06 15:17:04-06","{3.0,9.0,3.0,4.0,15.1,13.2,15.3,23.3,11.0,11.0,11.0,66.0,7.7,7.0,3.0,14.3,12.0,12.0,10.3,10.3}",11.0,13.1,261.5,20
"2019-12-31","2020-01-07","G38362A",7.1,"2020-01-07 11:15:32-06","{9.0,3.0,4.0,15.1,13.2,15.3,23.3,11.0,11.0,11.0,66.0,7.7,7.0,3.0,14.3,12.0,12.0,10.3,10.3,7.1}",11.0,13.3,265.6,20
"2019-12-23","2020-01-07","G38416XB",15.1,"2020-01-07 11:15:45-06","{3.0,4.0,15.1,13.2,15.3,23.3,11.0,11.0,11.0,66.0,7.7,7.0,3.0,14.3,12.0,12.0,10.3,10.3,7.1,15.1}",11.0,13.6,271.7,20
"2019-11-20","2020-01-07","G38201A",48.1,"2020-01-07 11:15:56-06","{4.0,15.1,13.2,15.3,23.3,11.0,11.0,11.0,66.0,7.7,7.0,3.0,14.3,12.0,12.0,10.3,10.3,7.1,15.1,48.1}",11.5,15.8,316.8,20
"2020-01-06","2020-01-07","G38576A",1.0,"2020-01-07 11:16:07-06","{15.1,13.2,15.3,23.3,11.0,11.0,11.0,66.0,7.7,7.0,3.0,14.3,12.0,12.0,10.3,10.3,7.1,15.1,48.1,1.0}",11.5,15.7,313.8,20
"2019-12-26","2020-01-07","G38815XA",12.3,"2020-01-07 14:37:35-06","{13.2,15.3,23.3,11.0,11.0,11.0,66.0,7.7,7.0,3.0,14.3,12.0,12.0,10.3,10.3,7.1,15.1,48.1,1.0,12.3}",11.5,15.6,311.0,20
"2020-01-06","2020-01-07","G37643A",1.2,"2020-01-07 15:21:47-06","{15.3,23.3,11.0,11.0,11.0,66.0,7.7,7.0,3.0,14.3,12.0,12.0,10.3,10.3,7.1,15.1,48.1,1.0,12.3,1.2}",11.0,15.0,299.0,20
"2019-12-24","2020-01-09","G38966P",16.2,"2020-01-09 13:21:51-06","{23.3,11.0,11.0,11.0,66.0,7.7,7.0,3.0,14.3,12.0,12.0,10.3,10.3,7.1,15.1,48.1,1.0,12.3,1.2,16.2}",11.0,15.0,299.9,20
"2020-01-02","2020-01-10","G38435XA",8.2,"2020-01-10 13:00:02-06","{11.0,11.0,11.0,66.0,7.7,7.0,3.0,14.3,12.0,12.0,10.3,10.3,7.1,15.1,48.1,1.0,12.3,1.2,16.2,8.2}",11.0,14.2,284.8,20
"2019-12-31","2020-01-10","G38547AB",10.2,"2020-01-10 13:01:46-06","{11.0,11.0,66.0,7.7,7.0,3.0,14.3,12.0,12.0,10.3,10.3,7.1,15.1,48.1,1.0,12.3,1.2,16.2,8.2,10.2}",10.7,14.2,284.0,20
"2020-01-06","2020-01-13","G38706X",6.9,"2020-01-13 09:00:57-06","{11.0,66.0,7.7,7.0,3.0,14.3,12.0,12.0,10.3,10.3,7.1,15.1,48.1,1.0,12.3,1.2,16.2,8.2,10.2,6.9}",10.3,14.0,279.9,20
"2020-01-06","2020-01-13","G38462X",6.9,"2020-01-13 09:01:24-06","{66.0,7.7,7.0,3.0,14.3,12.0,12.0,10.3,10.3,7.1,15.1,48.1,1.0,12.3,1.2,16.2,8.2,10.2,6.9,6.9}",10.3,13.8,275.8,20
"2020-01-08","2020-01-13","G38720X",5.0,"2020-01-13 09:01:51-06","{7.7,7.0,3.0,14.3,12.0,12.0,10.3,10.3,7.1,15.1,48.1,1.0,12.3,1.2,16.2,8.2,10.2,6.9,6.9,5.0}",9.2,10.7,214.8,20
"2019-12-26","2020-01-13","G38802XA",17.7,"2020-01-13 09:02:12-06","{7.0,3.0,14.3,12.0,12.0,10.3,10.3,7.1,15.1,48.1,1.0,12.3,1.2,16.2,8.2,10.2,6.9,6.9,5.0,17.7}",10.3,11.2,224.8,20
"2020-01-06","2020-01-13","G38747X",6.9,"2020-01-13 09:02:40-06","{3.0,14.3,12.0,12.0,10.3,10.3,7.1,15.1,48.1,1.0,12.3,1.2,16.2,8.2,10.2,6.9,6.9,5.0,17.7,6.9}",10.3,11.2,224.7,20
"2020-01-06","2020-01-13","G36612C",6.9,"2020-01-13 09:03:10-06","{14.3,12.0,12.0,10.3,10.3,7.1,15.1,48.1,1.0,12.3,1.2,16.2,8.2,10.2,6.9,6.9,5.0,17.7,6.9,6.9}",10.3,11.4,228.6,20
"2020-01-08","2020-01-13","G37800B",5.0,"2020-01-13 09:03:34-06","{12.0,12.0,10.3,10.3,7.1,15.1,48.1,1.0,12.3,1.2,16.2,8.2,10.2,6.9,6.9,5.0,17.7,6.9,6.9,5.0}",9.2,11.0,219.3,20
"2020-01-06","2020-01-13","G39017X",6.9,"2020-01-13 09:03:58-06","{12.0,10.3,10.3,7.1,15.1,48.1,1.0,12.3,1.2,16.2,8.2,10.2,6.9,6.9,5.0,17.7,6.9,6.9,5.0,6.9}",7.7,10.7,214.2,20
"2020-01-06","2020-01-13","G37662A",6.9,"2020-01-13 09:04:19-06","{10.3,10.3,7.1,15.1,48.1,1.0,12.3,1.2,16.2,8.2,10.2,6.9,6.9,5.0,17.7,6.9,6.9,5.0,6.9,6.9}",7.0,10.5,209.1,20
"2020-01-08","2020-01-13","G38923A",5.0,"2020-01-13 09:09:22-06","{10.3,7.1,15.1,48.1,1.0,12.3,1.2,16.2,8.2,10.2,6.9,6.9,5.0,17.7,6.9,6.9,5.0,6.9,6.9,5.0}",6.9,10.2,203.8,20
"2020-01-06","2020-01-13","G37793XB",6.9,"2020-01-13 09:09:43-06","{7.1,15.1,48.1,1.0,12.3,1.2,16.2,8.2,10.2,6.9,6.9,5.0,17.7,6.9,6.9,5.0,6.9,6.9,5.0,6.9}",6.9,10.0,200.4,20
"2020-01-06","2020-01-13","G39050X",6.9,"2020-01-13 09:10:13-06","{15.1,48.1,1.0,12.3,1.2,16.2,8.2,10.2,6.9,6.9,5.0,17.7,6.9,6.9,5.0,6.9,6.9,5.0,6.9,6.9}",6.9,10.0,200.2,20
"2020-01-03","2020-01-13","G38177C",10.3,"2020-01-13 14:00:34-06","{48.1,1.0,12.3,1.2,16.2,8.2,10.2,6.9,6.9,5.0,17.7,6.9,6.9,5.0,6.9,6.9,5.0,6.9,6.9,10.3}",6.9,9.8,195.4,20
"2020-01-13","2020-01-14","G39061X",1.0,"2020-01-14 09:11:08-06","{1.0,12.3,1.2,16.2,8.2,10.2,6.9,6.9,5.0,17.7,6.9,6.9,5.0,6.9,6.9,5.0,6.9,6.9,10.3,1.0}",6.9,7.4,148.3,20
"2020-01-13","2020-01-14","G38504A",1.0,"2020-01-14 09:11:19-06","{12.3,1.2,16.2,8.2,10.2,6.9,6.9,5.0,17.7,6.9,6.9,5.0,6.9,6.9,5.0,6.9,6.9,10.3,1.0,1.0}",6.9,7.4,148.3,20
"2020-01-13","2020-01-14","G39056A",1.0,"2020-01-14 09:11:31-06","{1.2,16.2,8.2,10.2,6.9,6.9,5.0,17.7,6.9,6.9,5.0,6.9,6.9,5.0,6.9,6.9,10.3,1.0,1.0,1.0}",6.9,6.9,137.0,20
"2020-01-06","2020-01-14","G38651A",7.9,"2020-01-14 09:11:40-06","{16.2,8.2,10.2,6.9,6.9,5.0,17.7,6.9,6.9,5.0,6.9,6.9,5.0,6.9,6.9,10.3,1.0,1.0,1.0,7.9}",6.9,7.2,143.7,20
"2019-12-31","2020-01-14","G38775X",14.0,"2020-01-14 09:11:52-06","{8.2,10.2,6.9,6.9,5.0,17.7,6.9,6.9,5.0,6.9,6.9,5.0,6.9,6.9,10.3,1.0,1.0,1.0,7.9,14.0}",6.9,7.1,141.5,20
"2020-01-08","2020-01-14","G37731RC",6.0,"2020-01-14 09:12:03-06","{10.2,6.9,6.9,5.0,17.7,6.9,6.9,5.0,6.9,6.9,5.0,6.9,6.9,10.3,1.0,1.0,1.0,7.9,14.0,6.0}",6.9,7.0,139.3,20
"2020-01-13","2020-01-14","G38889X",1.2,"2020-01-14 14:49:29-06","{6.9,6.9,5.0,17.7,6.9,6.9,5.0,6.9,6.9,5.0,6.9,6.9,10.3,1.0,1.0,1.0,7.9,14.0,6.0,1.2}",6.9,6.5,130.3,20
"2020-01-06","2020-01-14","G38989GA",8.2,"2020-01-14 16:22:18-06","{6.9,5.0,17.7,6.9,6.9,5.0,6.9,6.9,5.0,6.9,6.9,10.3,1.0,1.0,1.0,7.9,14.0,6.0,1.2,8.2}",6.9,6.6,131.6,20
"2020-01-07","2020-01-15","G37624A",7.8,"2020-01-15 11:46:16-06","{5.0,17.7,6.9,6.9,5.0,6.9,6.9,5.0,6.9,6.9,10.3,1.0,1.0,1.0,7.9,14.0,6.0,1.2,8.2,7.8}",6.9,6.6,132.5,20
"2020-01-06","2020-01-15","G38605A",9.0,"2020-01-15 11:46:40-06","{17.7,6.9,6.9,5.0,6.9,6.9,5.0,6.9,6.9,10.3,1.0,1.0,1.0,7.9,14.0,6.0,1.2,8.2,7.8,9.0}",6.9,6.8,136.5,20
"2020-01-13","2020-01-15","G38672XA",2.1,"2020-01-15 11:46:51-06","{6.9,6.9,5.0,6.9,6.9,5.0,6.9,6.9,10.3,1.0,1.0,1.0,7.9,14.0,6.0,1.2,8.2,7.8,9.0,2.1}",6.9,6.0,120.9,20
"2019-12-17","2020-01-16","G37885A",30.1,"2020-01-16 09:34:00-06","{6.9,5.0,6.9,6.9,5.0,6.9,6.9,10.3,1.0,1.0,1.0,7.9,14.0,6.0,1.2,8.2,7.8,9.0,2.1,30.1}",6.9,7.2,144.1,20
"2020-01-07","2020-01-16","G39056AA",9.1,"2020-01-16 11:32:44-06","{5.0,6.9,6.9,5.0,6.9,6.9,10.3,1.0,1.0,1.0,7.9,14.0,6.0,1.2,8.2,7.8,9.0,2.1,30.1,9.1}",6.9,7.3,146.3,20
"2020-01-09","2020-01-16","G38911A",7.1,"2020-01-16 11:33:51-06","{6.9,6.9,5.0,6.9,6.9,10.3,1.0,1.0,1.0,7.9,14.0,6.0,1.2,8.2,7.8,9.0,2.1,30.1,9.1,7.1}",6.9,7.4,148.4,20
"2020-01-06","2020-01-16","G35919RB",10.0,"2020-01-16 11:37:21-06","{6.9,5.0,6.9,6.9,10.3,1.0,1.0,1.0,7.9,14.0,6.0,1.2,8.2,7.8,9.0,2.1,30.1,9.1,7.1,10.0}",7.0,7.6,151.5,20
"2020-01-15","2020-01-16","G38776X",1.1,"2020-01-16 11:37:52-06","{5.0,6.9,6.9,10.3,1.0,1.0,1.0,7.9,14.0,6.0,1.2,8.2,7.8,9.0,2.1,30.1,9.1,7.1,10.0,1.1}",7.0,7.3,145.7,20
"2020-01-15","2020-01-16","G39156M",1.1,"2020-01-16 11:38:15-06","{6.9,6.9,10.3,1.0,1.0,1.0,7.9,14.0,6.0,1.2,8.2,7.8,9.0,2.1,30.1,9.1,7.1,10.0,1.1,1.1}",7.0,7.1,141.8,20
"2020-01-13","2020-01-16","G38291B",3.1,"2020-01-16 11:38:32-06","{6.9,10.3,1.0,1.0,1.0,7.9,14.0,6.0,1.2,8.2,7.8,9.0,2.1,30.1,9.1,7.1,10.0,1.1,1.1,3.1}",7.0,6.9,138.0,20
"2020-01-09","2020-01-16","G36738XB",7.1,"2020-01-16 11:39:25-06","{10.3,1.0,1.0,1.0,7.9,14.0,6.0,1.2,8.2,7.8,9.0,2.1,30.1,9.1,7.1,10.0,1.1,1.1,3.1,7.1}",7.1,6.9,138.2,20
"2020-01-07","2020-01-16","G38382A",9.2,"2020-01-16 11:41:45-06","{1.0,1.0,1.0,7.9,14.0,6.0,1.2,8.2,7.8,9.0,2.1,30.1,9.1,7.1,10.0,1.1,1.1,3.1,7.1,9.2}",7.1,6.9,137.1,20
"2020-01-10","2020-01-16","G39030GA",6.2,"2020-01-16 13:48:03-06","{1.0,1.0,7.9,14.0,6.0,1.2,8.2,7.8,9.0,2.1,30.1,9.1,7.1,10.0,1.1,1.1,3.1,7.1,9.2,6.2}",7.1,7.1,142.3,20
"2020-01-15","2020-01-16","G39101X",1.3,"2020-01-16 14:56:07-06","{1.0,7.9,14.0,6.0,1.2,8.2,7.8,9.0,2.1,30.1,9.1,7.1,10.0,1.1,1.1,3.1,7.1,9.2,6.2,1.3}",7.1,7.1,142.6,20
"2020-01-10","2020-01-16","G39099P",6.3,"2020-01-16 14:58:56-06","{7.9,14.0,6.0,1.2,8.2,7.8,9.0,2.1,30.1,9.1,7.1,10.0,1.1,1.1,3.1,7.1,9.2,6.2,1.3,6.3}",7.1,7.4,147.9,20
"2020-01-17","2020-01-17","G38811A",0.0,"2020-01-17 07:06:01-06","{14.0,6.0,1.2,8.2,7.8,9.0,2.1,30.1,9.1,7.1,10.0,1.1,1.1,3.1,7.1,9.2,6.2,1.3,6.3,0.0}",6.7,7.0,140.0,20
"2020-01-06","2020-01-17","G38121XB",11.1,"2020-01-17 14:30:31-06","{6.0,1.2,8.2,7.8,9.0,2.1,30.1,9.1,7.1,10.0,1.1,1.1,3.1,7.1,9.2,6.2,1.3,6.3,0.0,11.1}",6.7,6.9,137.1,20
"2020-01-06","2020-01-18","G38870A",12.2,"2020-01-18 15:11:30-06","{1.2,8.2,7.8,9.0,2.1,30.1,9.1,7.1,10.0,1.1,1.1,3.1,7.1,9.2,6.2,1.3,6.3,0.0,11.1,12.2}",7.1,7.2,143.3,20
"2020-01-17","2020-01-20","G38902XA",3.0,"2020-01-20 07:56:57-06","{8.2,7.8,9.0,2.1,30.1,9.1,7.1,10.0,1.1,1.1,3.1,7.1,9.2,6.2,1.3,6.3,0.0,11.1,12.2,3.0}",7.1,7.3,145.1,20
"2020-01-17","2020-01-20","G39016X",2.8,"2020-01-20 07:57:49-06","{7.8,9.0,2.1,30.1,9.1,7.1,10.0,1.1,1.1,3.1,7.1,9.2,6.2,1.3,6.3,0.0,11.1,12.2,3.0,2.8}",6.7,7.0,139.7,20
"2020-01-16","2020-01-20","G38891X",3.8,"2020-01-20 07:58:10-06","{9.0,2.1,30.1,9.1,7.1,10.0,1.1,1.1,3.1,7.1,9.2,6.2,1.3,6.3,0.0,11.1,12.2,3.0,2.8,3.8}",6.3,6.8,135.7,20
"2020-01-16","2020-01-20","G39094X",3.8,"2020-01-20 07:58:36-06","{2.1,30.1,9.1,7.1,10.0,1.1,1.1,3.1,7.1,9.2,6.2,1.3,6.3,0.0,11.1,12.2,3.0,2.8,3.8,3.8}",5.0,6.5,130.5,20
"2020-01-15","2020-01-20","G38892X",5.0,"2020-01-20 07:58:56-06","{30.1,9.1,7.1,10.0,1.1,1.1,3.1,7.1,9.2,6.2,1.3,6.3,0.0,11.1,12.2,3.0,2.8,3.8,3.8,5.0}",5.6,6.7,133.4,20
"2019-12-18","2020-01-20","G38497A",32.9,"2020-01-20 07:59:25-06","{9.1,7.1,10.0,1.1,1.1,3.1,7.1,9.2,6.2,1.3,6.3,0.0,11.1,12.2,3.0,2.8,3.8,3.8,5.0,32.9}",5.6,6.8,136.2,20
"2020-01-13","2020-01-20","G38448XA",7.0,"2020-01-20 08:35:17-06","{7.1,10.0,1.1,1.1,3.1,7.1,9.2,6.2,1.3,6.3,0.0,11.1,12.2,3.0,2.8,3.8,3.8,5.0,32.9,7.0}",5.6,6.7,134.1,20
"2020-01-16","2020-01-20","G38802XB",4.0,"2020-01-20 13:46:26-06","{10.0,1.1,1.1,3.1,7.1,9.2,6.2,1.3,6.3,0.0,11.1,12.2,3.0,2.8,3.8,3.8,5.0,32.9,7.0,4.0}",4.5,6.6,131.0,20
"2020-01-09","2020-01-20","G38652A",11.3,"2020-01-20 13:47:42-06","{1.1,1.1,3.1,7.1,9.2,6.2,1.3,6.3,0.0,11.1,12.2,3.0,2.8,3.8,3.8,5.0,32.9,7.0,4.0,11.3}",4.5,6.6,132.3,20
