store_code,page,line,gl_account,jeris accts,,144300,insert into sls.jeri_fi_accounts values('144300');
RY1,17,6,144300,144300,x,144400,insert into sls.jeri_fi_accounts values('144400');
RY1,17,7,144400,144400,x,145400,insert into sls.jeri_fi_accounts values('145400');
RY1,17,16,145400,145400,x,145500,insert into sls.jeri_fi_accounts values('145500');
RY1,17,17,145500,145500,x,164300,insert into sls.jeri_fi_accounts values('164300');
RY1,17,17,145502,,,164400,insert into sls.jeri_fi_accounts values('164400');
RY1,17,17,145504,,,165400,insert into sls.jeri_fi_accounts values('165400');
RY1,17,6,164300,164300,x,165500,insert into sls.jeri_fi_accounts values('165500');
RY1,17,7,164400,164400,x,180600,insert into sls.jeri_fi_accounts values('180600');
RY1,17,16,165400,165400,x,180601,insert into sls.jeri_fi_accounts values('180601');
RY1,17,17,165500,165500,x,180700,insert into sls.jeri_fi_accounts values('180700');
RY1,17,17,165502,,,180800,insert into sls.jeri_fi_accounts values('180800');
RY1,17,17,165504,,,180801,insert into sls.jeri_fi_accounts values('180801');
RY1,17,1,180600,180600,x,180900,insert into sls.jeri_fi_accounts values('180900');
RY1,17,1,180601,180601,x,185000,insert into sls.jeri_fi_accounts values('185000');
RY1,17,2,180700,180700,x,185001,insert into sls.jeri_fi_accounts values('185001');
RY1,17,11,180800,180800,x,185100,insert into sls.jeri_fi_accounts values('185100');
RY1,17,11,180801,180801,x,185101,insert into sls.jeri_fi_accounts values('185101');
RY1,17,11,180802,,,185700,insert into sls.jeri_fi_accounts values('185700');
RY1,17,11,180803,,,185900,insert into sls.jeri_fi_accounts values('185900');
RY1,17,12,180900,180900,,244300,insert into sls.jeri_fi_accounts values('244300');
RY1,17,12,180902,,,244301,insert into sls.jeri_fi_accounts values('244301');
RY1,17,3,185000,185000,x,244400,insert into sls.jeri_fi_accounts values('244400');
RY1,17,3,185001,185001,x,244401,insert into sls.jeri_fi_accounts values('244401');
RY1,17,3,185002,,,244402,insert into sls.jeri_fi_accounts values('244402');
RY1,17,3,185003,,,264300,insert into sls.jeri_fi_accounts values('264300');
RY1,17,13,185100,185100,x,264301,insert into sls.jeri_fi_accounts values('264301');
RY1,17,13,185101,185101,x,264400,insert into sls.jeri_fi_accounts values('264400');
RY1,17,13,185102,,,264401,insert into sls.jeri_fi_accounts values('264401');
RY1,17,13,185200,,,264402,insert into sls.jeri_fi_accounts values('264402');
RY1,17,13,185201,,,280600,insert into sls.jeri_fi_accounts values('280600');
RY1,17,2,185700,185700,x,280601,insert into sls.jeri_fi_accounts values('280601');
RY1,17,12,185900,185900,x,280700,insert into sls.jeri_fi_accounts values('280700');
RY1,17,12,185901,,,280701,insert into sls.jeri_fi_accounts values('280701');
RY1,17,12,185902,,,280800,insert into sls.jeri_fi_accounts values('280800');
RY2,17,6,244300,244300,,280801,insert into sls.jeri_fi_accounts values('280801');
RY2,17,6,244301,244301,,280802,insert into sls.jeri_fi_accounts values('280802');
RY2,17,7,244400,244400,,285010,insert into sls.jeri_fi_accounts values('285010');
RY2,17,7,244401,244401,,285011,insert into sls.jeri_fi_accounts values('285011');
RY2,17,7,244402,244402,,285100,insert into sls.jeri_fi_accounts values('285100');
RY2,17,16,245400,,,285101,insert into sls.jeri_fi_accounts values('285101');
RY2,17,16,245401,,,285700,insert into sls.jeri_fi_accounts values('285700');
RY2,17,17,245500,,,285701,insert into sls.jeri_fi_accounts values('285701');
RY2,17,17,245501,,,,
RY2,17,17,245502,,,,
RY2,17,6,264300,264300,,,
RY2,17,6,264301,264301,,,
RY2,17,3,264310,,,,
RY2,17,7,264400,264400,,,
RY2,17,7,264401,264401,,,
RY2,17,7,264402,264402,,,
RY2,17,3,264410,,,,
RY2,17,16,265400,,,,
RY2,17,16,265401,,,,
RY2,17,17,265500,,,,
RY2,17,17,265501,,,,
RY2,17,17,265502,,,,
RY2,17,13,265510,,,,
RY2,17,13,265511,,,,
RY2,17,1,280600,280600,,,
RY2,17,1,280601,280601,,,
RY2,17,3,280610,,,,
RY2,17,3,280611,,,,
RY2,17,2,280700,280700,,,
RY2,17,2,280701,280701,,,
RY2,17,11,280800,280800,,,
RY2,17,11,280801,280801,,,
RY2,17,11,280802,280802,,,
RY2,17,13,280810,,,,
RY2,17,12,280900,,,,
RY2,17,12,280901,,,,
RY2,17,3,285003,,,,
RY2,17,3,285010,285010,,,
RY2,17,3,285011,285011,,,
RY2,17,13,285100,285100,,,
RY2,17,13,285101,285101,,,
RY2,17,2,285700,285700,,,
RY2,17,2,285701,285701,,,
RY2,17,3,285711,,,,
RY2,17,12,285900,,,,
RY2,17,12,285901,,,,
RY2,17,13,285910,,,,
RY2,17,13,285911,,,,
