store,customer,sale_date,phone_number,business_phone,cell_phone,city,state,stock_number,vin,year,make,model
GM,AARON BRODEN,2022-12-13,2187848051,0,7017995388,FERTILE,MN,G45381A,1GC1KWE85GF104037,2016,CHEVROLET,SILVERADO 2500HD DIESEL
GM,ANDREA HANSON,2022-12-30,2186891281,0,0,NEWFOLDEN,MN,G46192X,3GNAXTEV8LS509442,2020,CHEVROLET,EQUINOX
GM,BORDERTOWN RETAIL SYSTEMS- INC,2022-12-08,7018867626,0,7012652952,NECHE,ND,G45742A,1GCUYDED9KZ427110,2019,CHEVROLET,SILVERADO 1500
GM,CARLA KRUEGER,2022-12-10,7017754641,0,0,GRAND FORKS,ND,G45184B,2C4RDGEG8KR524189,2019,DODGE,GRAND CARAVAN
GM,CONCRETE STRUCTURES, LLC,2022-12-30,7019342669,0,0,BISMARCK,ND,G46049A,1GT49WEY1NF239182,2022,GMC,SIERRA 3500HD
GM,CORI HARTJE,2022-12-30,7013829500,0,0,WALHALLA,ND,G45873X,2GNAXUEV3M6112324,2021,CHEVROLET,EQUINOX
GM,COURTNEY MOORE,2022-12-30,7017993163,7017993163,7017993163,EAST GRAND FORKS,MN,G45976A,3GCUKREC7JG117168,2018,CHEVROLET,SILVERADO 1500
GM,DANIEL DAVIDSON,2022-12-22,2182895560,0,2182895560,MINNEAPOLIS,MN,G45638A,1C4PJMDX8KD491634,2019,JEEP,CHEROKEE
GM,DENNIS BEST,2022-12-30,7013311105,0,7013311105,FORDVILLE,ND,G46423L,1N6AD0EV8KN881417,2019,NISSAN,FRONTIER
GM,GARY VIGEN,2022-12-06,7012383193,7017414172,7012383191,GRAND FORKS,ND,G45145A,3GNAXJEV0JS573542,2018,CHEVROLET,EQUINOX
GM,IZIK SCHMIDT,2022-12-26,2184311129,0,2184311129,ERSKINE,MN,G46278X,1G1ZG5ST8MF054603,2021,CHEVROLET,MALIBU
GM,JENNA BELKER,2022-12-29,7012137685,0,7012137685,GRAND FORKS,ND,G45565A,LRBFX2SA2KD003208,2019,BUICK,ENVISION (2.5L)
GM,JONAH GARCIA,2022-12-30,0,0,9562572208,FARGO,ND,G45440P,2C3CDZBT0LH225732,2020,DODGE,CHALLENGER
GM,JOSHUA JOHNSON,2022-12-29,7013090275,0,7013090275,HANNAFORD,ND,G46006A,1FTEW1EP3LFB79264,2020,FORD,F-150
GM,KIM MORTENSON,2022-12-12,0,0,2184691100,ROSEAU,MN,G45821A,3GCUKSEC5JG603971,2018,CHEVROLET,SILVERADO 1500
GM,LONA OLSON,2022-12-10,7018665923,0,0,PORTLAND,ND,G45444A,1G1ZE5STXHF101187,2017,CHEVROLET,MALIBU
GM,MARTIN JOHANSON,2022-12-01,7012129995,0,7012129995,MOORHEAD,MN,G45598A,3GTU9FED9MG475542,2021,GMC,SIERRA 1500
GM,MICHAEL NOVAK,2022-12-31,2182813007,7017402698,0,CROOKSTON,MN,G46175P,2GNAXHEV2J6165339,2018,CHEVROLET,EQUINOX
GM,NEAL BEITELSPACHER,2022-12-09,7014293132,0,0,WEST FARGO,ND,G45396A,1G1YY2D7XH5114691,2017,CHEVROLET,CORVETTE
GM,NEAL GILBERG,2022-12-09,7017208355,7018386455,0,WARWICK,ND,G45713A,1GC4YPE7XMF261664,2021,CHEVROLET,SILVERADO 2500HD
GM,PAUL COCHRAN,2022-12-28,7013301663,0,0,GRAND FORKS,ND,G45568PA,1GNKRGKD0HJ103276,2017,CHEVROLET,TRAVERSE
GM,PAUL LARSON,2022-12-07,2186744213,2186865308,2186865308,KENNEDY,MN,G45836A,1GTU9FEL0MZ191868,2021,GMC,SIERRA 1500
GM,REID SJAAHEIM,2022-12-12,7017415347,0,7017415347,FARGO,ND,G44854C,1FAHP3FN2AW148271,2010,FORD,FOCUS
GM,RYAN NESS,2022-12-12,7017995098,7017995098,7017995098,MOORHEAD,MN,G45825XA,KL79MUSL4PB011086,2023,CHEVROLET,TRAILBLAZER
GM,SHANNON PEREZ,2022-12-30,7012709256,0,7012709256,GRAFTON,ND,G46061X,2GNAXUEV0M6121224,2021,CHEVROLET,EQUINOX
GM,TERRENCE MCCASKILL,2022-12-03,0,0,7734848177,GRAND FORKS,ND,G45484A,3GCUKSEC1GG147783,2016,CHEVROLET,SILVERADO 1500
GM,TYRONE GARRO II,2022-12-27,7017405554,0,0,DRAYTON,ND,G45718A,2GNAXUEV8L6114326,2020,CHEVROLET,EQUINOX
GM,WAYNE SCHANER,2022-12-01,7017943114,0,0,CENTER,ND,G46016P,1C6SRFMT7KN804234,2019,RAM,1500
Honda Nissan,JAHIEM WITHEY,2022-12-17,3404735257,0,0,GRAND FORKS AFB,ND,H16007A,1HGCR2F75EA011534,2014,HONDA,ACCORD
Honda Nissan,JEREMY BENEFIELD,2022-12-12,3612302482,0,3612302482,ARGYLE,MN,H15823B,5J6RM4H95GL134012,2016,HONDA,CR-V
Honda Nissan,JEREMY LAVALLA,2022-12-03,2186342913,0,0,BAUDETTE,MN,H15969A,5J6RW6H38KL005837,2019,HONDA,CR-V
Honda Nissan,PARKER MONETTE,2022-12-06,7017393534,0,0,THOMPSON,ND,H16011G,1FTFW1ET1DFD98789,2013,FORD,F-150
Honda Nissan,TERRI HEGGIE,2022-12-31,2182892365,0,0,GRAND FORKS,ND,H13266R,5N1AZ2CSXLN123858,2020,NISSAN,MURANO
Toyota,JOSE TORRES NEGRON,2022-12-22,5807615455,0,5807615455,BADGER,MN,T10359G,1GCGTEEN6J1241029,2018,CHEVROLET,COLORADO
Toyota,KENNETH FLETCHER,2022-12-29,7016309716,0,7016309716,VALLEY CITY,ND,T10261P,4S3GKAB65N3601037,2022,SUBARU,IMPREZA
Toyota,REXY JOHN,2022-12-22,7017297431,0,7017297431,FARGO,ND,T10149L,2T3G1RFVXKC044204,2019,TOYOTA,RAV4 (2.5L)
Toyota,TAYLOR TANDESKI,2022-12-10,7017393745,0,7017393745,GRAND FORKS,ND,T10350G,KNMAT2MT3GP729493,2016,NISSAN,ROGUE
Toyota,VAUGHN PYNE,2022-12-29,7022719448,0,7022719448,GRAND FORKS,ND,T10372H,19XFC2F63KE049499,2019,HONDA,CIVIC SEDAN
