"stock_group","description","sum"
"100","Other Accessories",72240
"120","CARQUEST",1514
"122","Collision Volume",424775
"150","Shop Other",226
"151","Other Stock",31629
"152","BG Products",4783
"201","Delco",111174
"300","MV1",4105
"500","GM",2023
"501","GM Main",1359129
"502","GM",1691
"503","GM",13
"504","GM Chemical/Paint",10888
"505","GM Accessories",35977
"506","GM Non-RIM Stock",10057
"509","FASCIA GRILLE TRUCKLOAD",151568
"510","Other Oil",14094
"511","MOBIL 1",21106
"512","DEXOS",27288
"513","Tires",21806
"514","BULK OIL",4864
"515","5/20",4658
"516","020",0
"517","DIESEL",4368
"518","QUART OIL",30
"520","Maintenance Parts",11957
"528","PERFORMANCE PARTS",144151
"529","NON TRUCKLOAD ENG/TRANS",220858
"530","Engines / Trans",181734
"531","OUTLET SHOP",0
"540","SATURN",3134
"576","Waterloo Collision Parts",0
"700","BCLEAN/R134A - MAIN SHOP",2752
"900","BodyShop Hardware",0
"910","BODY SHOP PAINT & MAT",0
"920","BODY SHOP NON-GM INV",4554
"","TOTAL",2889145
