?column?,stock_group,description,on_hand,reserved,order,back_order,spec_order,
,,,,,,,,
,,,,,,,,
_0207,122,Collision Volume,424853,7611,63205,32468,5920,
_0210,122,Collision Volume,450312,7032,37641,34692,5864,
,,,25459,-579,-25564,2224,-56,1484
,,,,,,,,
pdphist,122,desc,25447,22700,-26277,2224,-1556,22538
,,,450300,30311,36928,34692,4364,
