"tech_name","employee_number","labor_cost","flag_hours","cost"
"Axtman, Dale","18005",65.00,71.50,4647.50
"David, Gordon","131370",25.00,2.00,50.00
"Duckstad, Jared","136170",55.00,62.00,3410.00
"Gehrtz, Clayton","150126",60.00,2.00,120.00
"Grant, Desiree","152525",19.00,2.00,38.00
"Heffernan, Josh","164015",37.00,40.50,1498.50
"Holwerda, Kirby","167580",27.00,3.00,81.00
"O'Neil, Timothy","1106421",33.00,71.50,2359.50
"Schwan, Michael","1124436",32.00,29.00,928.00
"Soberg, Nicholas","152964",40.00,10.60,424.00
"Syverson, Joshua","1135410",25.00,1.00,25.00
"Thompson, Wyatt","1137590",27.00,2.00,54.00
