These are all vehicles sold in August 2022,,,,,,,,,,,,,,,,,,,,,,,
,"All estimate information is from the Tool, table VehicleReconItems",,,,,,,,,,,,,,,,,,,,,,
,"Actual values are from Dealertrack accounting where the control is a body shop ro (18XXXXXX) and journal in svi, swa, sca, pot",,,,,,,,,,,,,,,,,,,,,,
,The actual RO numbers are derived from accounting transactions (ref attribute),,,,,,,,,,,,,,,,,,,,,,
,The RO values are from service operational data (table dds.fact_repair_order),,,,,,,,,,,,,,,,,,,,,,
,,,,,,,,,,,,,,,,,,,,,,,
,,,,,,,,,,,,,,,,,,,,,,,
,,,,,,,,,,,,,,,,,,,,,,,
VEHICLE WALK,,,,,,ESTIMATE VS ACTUAL,,,RO TOTALS,,,,,,,TOOL ESTIMATE,,,RO DETAILS,,,,
stock_number,vin,walk_date,sale_date,walker,vehicle,estimate,accounting,diff,ro,labor,parts,sublet,paint_materials,shop_supplies,bs_total,description,parts,labor,opcode,complaint,labor,parts,sublet
G43569BC,1G4PP5SK2D4113304,7/28/2022,8/12/2022,Dave Wilkie,2013 Buick Verano Base,1570,3096,1526,18091748,2210,211,0,600,75,3096,PDR,0,260,CAR::REPAIR CHIPS IN PAINT,110,101,0,0
,,,,,,,,,,,,,,,,ca,0,110,PDR::PAINTLESS DENT REPAIR,"PDR RF DOOR 85, DECKLID 175",284,0,0
,,,,,,,,,,,,,,,,LEFT REAR TAIL LIGH,0,300,*::*,REPLACE LR TAIL LAMP 250,71,211,0
,,,,,,,,,,,,,,,,REFIN BOTH,0,900,024::BODY EXTERIOR PAINT,REP/REF LT SIDE DOORS 900,1704,0,0
,,,,,,,,,,,,,,,,,,,ISCAN::DATA STREAM READOUT OF COMPUTER SYSTEM - INTERNAL VEHICLES,N/A,50,0,0
G44454A,3GNAXUEU4JS586738,7/18/2022,8/13/2022,Nate Dockendorf,2018 Chevrolet Equinox LT,1395,2852,1457,18091538,1968,403,0,405,75,2851,REPLACE WINDSHIELD,0,400,CAR::REPAIR CHIPS IN PAINT,110,101,0,0
,,,,,,,,,,,,,,,,chips away,0,110,PDR::PAINTLESS DENT REPAIR,"HOOD-150, RR DOOR-95, RT QTR-150, LR QTR-75",660,0,0
,,,,,,,,,,,,,,,,pdr,0,320,WSB::WET SAND BUFF IN BODY SHOP,WET SAND BUFF RR QTR 65,99,0,0
,,,,,,,,,,,,,,,,paint rear liftgate,0,500,024::BODY EXTERIOR PAINT,"REP/REF LIFTGATE 500 NEED EQUINOX AWD, AND LT EMBLEMS",909,93,0
,,,,,,,,,,,,,,,,wetsand/buff RR quarter,0,65,GLASS::GLASS REPAIR,REPLACE WINDSHIELD-400,142,225,0
,,,,,,,,,,,,,,,,,,,025::BODY EXTERIOR METAL,INSTALL BUGSHIELD,57,85,0
G44710A,3GNAXUEV2KL292565,6/6/2022,8/9/2022,Nate Dockendorf,2019 Chevrolet Equinox LT,1565,3244,1679,18090808,1443,131,0,345,75,1994,Replace RT liftgate applique detail policy,0,125,CAR::REPAIR CHIPS IN PAINT,110,101,0,0
,,,,,,,,,18091680,526,424,0,225,75,1250,rear bowtie,0,100,025::BODY EXTERIOR METAL,REPLACE REAR BOWTIE-100,21,38,0
,,,,,,,,,,,,,,,,paint liftgate,0,500,025::BODY EXTERIOR METAL,"REP/REF LIFTGATE, REPLACE EMBLEMS-500",809,93,0
,,,,,,,,,,,,,,,,Replace/Ref liftgate spoiler detail policy,0,600,PDR::PAINTLESS DENT REPAIR,"HOOD, RT FENDER, RT FRT DOOR X2, RT RR DOOR, RT QTR BAP, LT QTR CREASE",462,0,0
,,,,,,,,,,,,,,,,pdr,0,130,ISCAN::DATA STREAM READOUT OF COMPUTER SYSTEM - INTERNAL VEHICLES,N/A,50,0,0
,,,,,,,,,,,,,,,,chips away,0,110,025::BODY EXTERIOR METAL,REPLACE LIFTGATE SPOILER BILL TO DETAIL,419,344,0
,,,,,,,,,,,,,,,,,,,025::BODY EXTERIOR METAL,REPLACE RT QTR REAR APPLIQUE BILL DETAIL,57,80,0
,,,,,,,,,,,,,,,,,,,ISCAN::DATA STREAM READOUT OF COMPUTER SYSTEM - INTERNAL VEHICLES,N/A,50,0,0
G44727AA,2GNALCEK4H6295007,7/7/2022,8/6/2022,Dave Wilkie,2017 Chevrolet Equinox LT,1195,3051,1856,18091309,1166,524,0,245,75,2010,replace,0,650,CAR::REPAIR CHIPS IN PAINT,110,101,181,0
,,,,,,,,,18091522,952,14,0,0,75,1041,ca,0,110,WSB::WET SAND BUFF IN BODY SHOP,WET SAND BUFF HOOD 75,85,0,0
,,,,,,,,,,,,,,,,ws buff,0,65,*::*,REPLACE REAR UPPER COVER PTM 650,838,343,0
,,,,,,,,,,,,,,,,PDR,0,370,WSB::WET SAND BUFF IN BODY SHOP,"RT RR DOOR, RT QTR",142,0,0
,,,,,,,,,,,,,,,,,,,GLASS::GLASS REPAIR,REPLACE WINDSHIELD-350,142,14,0
,,,,,,,,,,,,,,,,,,,PDR::PAINTLESS DENT REPAIR,"LT QTR, lt fender, RF DOOR-95, RR DOOR-95, RT QTR-225",760,0,0
,,,,,,,,,,,,,,,,,,,ISCAN::DATA STREAM READOUT OF COMPUTER SYSTEM - INTERNAL VEHICLES,N/A,50,0,0
G44784A,3GNAL2EK5FS502237,6/16/2022,8/16/2022,Nate Dockendorf,2015 Chevrolet Captiva Sport LS,4025,5415,1390,18090958,3119,954,0,695,75,4843,pdrs,0,425,CAR::REPAIR CHIPS IN PAINT,110,101,258,0
,,,,,,,,,18091523,512,0,0,0,61,573,LR quarter and bumper repair,0,2500,025::BODY EXTERIOR METAL,"REPLACE REAR BUMPER COVER, REPLACE REAR SKID",327,429,0
,,,,,,,,,,,,,,,,repair rf fender and wheel opening mouldings,0,550,025::BODY EXTERIOR METAL,"REP/REF LT QTR, REPLACE LT QTR WHEEL OPENING MLDG",1335,140,0
,,,,,,,,,,,,,,,,refinish liftgate and captiva logo and bowtie,0,550,025::BODY EXTERIOR METAL,"REP/REF RT FENDER, REPLACE RT FENDER WHEEL OPENING MLDG-550",767,77,0
,,,,,,,,,,,,,,,,,,,025::BODY EXTERIOR METAL,"REP/REF LIFTGATE, REPLACE CAPTIVA AND BOWTIE-550",589,50,0
,,,,,,,,,,,,,,,,,,,PDR::PAINTLESS DENT REPAIR,"HOOD ABAP-250, LT FENDER-75, LF DOOR ABAP-100",462,0,0
,,,,,,,,,,,,,,,,,,,ISCAN::DATA STREAM READOUT OF COMPUTER SYSTEM - INTERNAL VEHICLES,N/A,50,0,0
G44877P,WAUKJBFMXCA063324,7/14/2022,8/18/2022,Dave Wilkie,2012 Audi A3 Premium Plus TDI,1210,2370,1160,18091428,1507,333,0,435,75,2350,PDR,0,75,CAR::REPAIR CHIPS IN PAINT,110,101,0,0
,,,,,,,,,,,,,,,,refin,0,500,PDR::PAINTLESS DENT REPAIR,PDR LF DOOR 75,85,0,0
,,,,,,,,,,,,,,,,rear license plate bracket,0,75,024::BODY EXTERIOR PAINT,REFINISH REAR BUMPER 450,568,0,0
,,,,,,,,,,,,,,,,ca,0,110,024::BODY EXTERIOR PAINT,REFINISH RR QTR 500,667,0,0
,,,,,,,,,,,,,,,,refin,0,450,*::*,REPLACE REAR LICENSE BRACKET 190 #8E0827113C1P9,36,333,0
,,,,,,,,,,,,,,,,,,,ISCAN::DATA STREAM READOUT OF COMPUTER SYSTEM - INTERNAL VEHICLES,N/A,50,0,0
G44940P,ZACCJBAH0FPB66556,6/22/2022,8/5/2022,Dave Wilkie,2015 Jeep Renegade sport,1475,3751,2276,18091053,2586,198,0,495,75,3354,ca,0,110,CAR::REPAIR CHIPS IN PAINT,110,101,0,0
,,,,,,,,,18091520,355,0,0,0,43,398,refin,0,500,024::BODY EXTERIOR PAINT,REFINISH HOOD 500 NEED CHROME JEEP EMBLEM,667,72,0
,,,,,,,,,,,,,,,,PDR,0,65,024::BODY EXTERIOR PAINT,"REP/REF RR BUMPER CAP, RR QTR, AND REPLACE RR WHEEL MOLDING 850",1768,126,0
,,,,,,,,,,,,,,,,rear bumper piece and 1/4 and wheel opening moulding,0,800,ISCAN::DATA STREAM READOUT OF COMPUTER SYSTEM - INTERNAL VEHICLES,N/A,50,0,0
,,,,,,,,,,,,,,,,,,,PDR::PAINTLESS DENT REPAIR,HOOD-325,355,0,0
G44978A,1FMCU9J91DUC70836,7/15/2022,8/17/2022,Ben Knudson,2013 Ford Escape Titanium,2210,4575,2365,18091496,3993,169,0,329,75,4566,"refinish rr 1/4, door and wheel opening",0,1000,CAR::REPAIR CHIPS IN PAINT,110,101,0,0
,,,,,,,,,,,,,,,,aeroskin,0,135,024::BODY EXTERIOR PAINT,RE[/REF RR QTR BLEND RR DOOR R AND RR WHEEL MOLDING 1000,2400,58,0
,,,,,,,,,,,,,,,,chips away,0,110,024::BODY EXTERIOR PAINT,REFINISH LOWER LIFTGATE APPLIQUE 300,689,0,0
,,,,,,,,,,,,,,,,PDR,0,465,*::*,INSTALL AEROSKIN 135,57,111,0
,,,,,,,,,,,,,,,,refinish liftgate,0,500,PDR::PAINTLESS DENT REPAIR,"pdr lf fender 75, lr door 95, lr qtr 95, rf door 125, rr door 100, liftgate 125, lf door 125",696,0,0
,,,,,,,,,,,,,,,,,,,ISCAN::DATA STREAM READOUT OF COMPUTER SYSTEM - INTERNAL VEHICLES,N/A,50,0,0
G44967X,2GNAXTEV9M6141188,6/29/2022,8/10/2022,Dave Wilkie,2021 Chevrolet Equinox LT,1710,3100,1390,18091149,2125,450,0,450,75,3100,PDR,0,150,CAR::REPAIR CHIPS IN PAINT,110,101,42,0
,,,,,,,,,,,,,,,,grille,0,450,024::BODY EXTERIOR PAINT,REP/REF REAR BUMPER-450,554,0,0
,,,,,,,,,,,,,,,,right corner mop and glow,0,300,025::BODY EXTERIOR METAL,"REP/REF LR DOOR AND QTR, BLEND LF DOOR-1400",994,0,0
,,,,,,,,,,,,,,,,repair,0,700,025::BODY EXTERIOR METAL,REPLACE GRILLE-500,213,408,0
,,,,,,,,,,,,,,,,C,0,110,PDR::PAINTLESS DENT REPAIR,LIFTGATE,142,0,0
,,,,,,,,,,,,,,,,,,,NOV::NOVUS REPAIR,N/A,71,0,0
,,,,,,,,,,,,,,,,,,,ISCAN::DATA STREAM READOUT OF COMPUTER SYSTEM - INTERNAL VEHICLES,N/A,50,0,0
T10011PA,2FMTK4K90FBB16053,8/4/2022,8/19/2022,Dave Wilkie,2015 Ford Edge Titanium,1390,2985,1595,18091902,2069,457,0,385,75,2986,ca,0,110,CAR::REPAIR CHIPS IN PAINT,110,101,0,0
,,,,,,,,,,,,,,,,PDR,0,280,025::BODY EXTERIOR METAL,REP/REF RF DOOR AND BLEND-800,1172,457,0
,,,,,,,,,,,,,,,,front door right side just guessing for now,0,1000,PDR::PAINTLESS DENT REPAIR,"LR DOOR ABAP-200, RT QTR-95",320,0,0
,,,,,,,,,,,,,,,,,,,SCAN::DATA STREAM READOUT OF COMPUTER SYSTEM,N/A,50,0,0
,,,,,,,,,,,,,,,,,,,025::BODY EXTERIOR METAL,"REPLACE/REFINISH LWR FRT BMPR REPLACE GRILLE, LOWER VALANCE",426,0,0
,,,,,,,,,,,,,,,,,,,*::*,T10011PA,0,0,0
,,,,,,,,,,,,,,,,,,,,,,,
,,,,,,,,,,,,,,,,,,,,,,,
