Rod Troftgruben:             0.30%
Nick Maro:                          0.25%
Ned Euliss:                          0.25%
Garrett Jankowski:          0.20%
Justin Rodriguez:              0.20%
Conner Gothberg:           0.20%
Ken Carlson:                       0.00%
