first_name,last_name,employee_number,gross
Benjamin,Johnson,184620,89535.95
Brian,Peterson,1110425,111571.36
Chad,Gardner,150105,82719.45
Codey,Olson,1100625,90815.67
Cory,Rose,1118722,73016.64
David,Bies Ii,157953,85559.64
Dylan,Brusseau,179535,22368.65
Jonathan,Gryskiewicz,122558,14463.26
Justin,Olson,1106400,70451.67
Marcus,Eberle,137101,50893.98
Nathan,Nichols,160432,84548.42
Patrick,Adam,11660,98152.01
Peter,Jacobson,171055,129342.99
Ryan,Lene,184920,50781.50
Scott,Sevigny,1125565,80773.50
Terrance,Driscoll,135770,99113.95
Thomas,Sauls,1122352,42669.90
