company_name,stock_number,bopmast_id,date_capped,serv_cont_months,serv_cont_miles,fi,fi_employee_number,payplan,cost_center
TOYOTA MAINTENANCE,G48502A,79874,2023-10-15,120,15000,Craig Croaker,128530,croaker,Sales Consultant
TOYOTA MAINTENANCE,G48231A,80008,2023-10-24,24,25000,Jacob Charley,135795,single point,Sales Consultant
TOYOTA MAINTENANCE,G48067HB,79870,2023-10-15,24,25000,James Waldeck,165989,outlet,Auto Outlet Sales Consultant
TOYOTA MAINTENANCE,G48250A,79863,2023-10-15,36,40000,James Warmack,1147250,sales consultant,Sales Consultant
TOYOTA MAINTENANCE,G48375X,80027,2023-10-25,36,40000,Kody Schlenvogt,198373,single point,Single Point Sales Consultant
TOYOTA MAINTENANCE,G48560B,80091,2023-10-30,36,40000,Robert Rumen,141082,single point,Single Point Sales Consultant
TOYOTA MAINTENANCE,G45657RC,80042,2023-10-28,36,40000,Robert Rumen,141082,single point,Single Point Sales Consultant
TOYOTA MAINTENANCE,G48118A,79721,2023-10-12,36,40000,Robert Rumen,141082,single point,Single Point Sales Consultant
TOYOTA MAINTENANCE,G48205A,79795,2023-10-09,36,40000,Savanah Magenau,189768,single point,Single Point Sales Consultant
TOYOTA MAINTENANCE,G48345H,79783,2023-10-12,24,25000,Tyler Hinkle,145603,outlet,Auto Outlet Sales Consultant
TOYOTA MAINTENANCE,G47678B,79996,2023-10-23,12,67400,Tyler Hinkle,145603,outlet,Auto Outlet Sales Consultant
TOYOTA MAINTENANCE,G46804C,79979,2023-10-22,12,133624,Tyler Hinkle,145603,outlet,Auto Outlet Sales Consultant
TOYOTA MAINTENANCE,G47498B,80103,2023-10-30,24,25000,Tyler Hinkle,145603,outlet,Auto Outlet Sales Consultant
TOYOTA MAINTENANCE,G47377A,79980,2023-10-22,12,180352,Tyler Hinkle,145603,outlet,Auto Outlet Sales Consultant
TOYOTA MAINTENANCE,G48118B,79969,2023-10-22,12,126848,Tyler Hinkle,145603,outlet,Auto Outlet Sales Consultant
TOYOTA MAINTENANCE,G48786TA,79975,2023-10-22,12,107249,Tyler Hinkle,145603,outlet,Auto Outlet Sales Consultant
TOYOTA MAINTENANCE,H16651A,25760,2023-10-10,48,55000,Brittany Rose,259875,single point,Sales Consultant
TOYOTA MAINTENANCE,H16858B,25841,2023-10-28,36,15000,Brittany Rose,259875,single point,Sales Consultant
TOYOTA MAINTENANCE,H17060G,25740,2023-10-06,48,55000,Brittany Rose,259875,single point,Sales Consultant
TOYOTA MAINTENANCE,H17149G,25862,2023-10-31,48,55000,Brittany Rose,259875,single point,Sales Consultant
TOYOTA MAINTENANCE,H16741A,25758,2023-10-10,24,25000,William Halldorson,264845,single point,Single Point Sales Consultant
TOYOTA MAINTENANCE,T11056G,1781,2023-10-19,48,55000,Robb Sarchet,8100239,single point,Single Point Sales Consultant
