company_name,stock_number,bopmast_id,date_capped,serv_cont_months,serv_cont_miles,fi,fi_employee_number,payplan,cost_center
TOYOTA MAINTENANCE,G39879XZB,79893,2023-10-15,12,15000,James Waldeck,165989,outlet,Auto Outlet Sales Consultant
AUL,G46512B,79734,2023-10-12,180,50000,Austin Suedel,145956,single point,Single Point Sales Consultant
TOYOTA MAINTENANCE,G46804C,79979,2023-10-22,12,133624,Tyler Hinkle,145603,outlet,Auto Outlet Sales Consultant
TOYOTA MAINTENANCE,G47052B,79699,2023-10-06,12,15000,Kody Schlenvogt,198373,single point,Single Point Sales Consultant
CNA NATIONAL WARRANTY COR,G47113B,79819,2023-10-15,120,100000,James Weber,1147810,single point,Single Point Sales Consultant
TOYOTA MAINTENANCE,G47125BC,80031,2023-10-26,0,0,Craig Croaker,128530,croaker,Sales Consultant
TOYOTA MAINTENANCE,G47128AC,79719,2023-10-08,12,15000,Savanah Magenau,189768,single point,Single Point Sales Consultant
CNA NATIONAL WARRANTY COR,G47200A,79829,2023-10-12,84,100000,Richard Turner,195231,single point,Fleet Sales Consultant
AUL,G47254A,80026,2023-10-25,180,100000,Craig Croaker,128530,croaker,Sales Consultant
TOYOTA MAINTENANCE,G47318B,79881,2023-10-15,12,15000,James Waldeck,165989,outlet,Auto Outlet Sales Consultant
TOYOTA MAINTENANCE,G47347B,79912,2023-10-16,12,15000,James Waldeck,165989,outlet,Auto Outlet Sales Consultant
TOYOTA MAINTENANCE,G47371B,79780,2023-10-08,12,15000,none none,none,,
TOYOTA MAINTENANCE,G47377A,79980,2023-10-22,12,180352,Tyler Hinkle,145603,outlet,Auto Outlet Sales Consultant
TOYOTA MAINTENANCE,G47427H,79763,2023-10-06,12,15000,James Waldeck,165989,outlet,Auto Outlet Sales Consultant
TOYOTA MAINTENANCE,G47451P,79899,2023-10-16,12,15000,Craig Croaker,128530,croaker,Sales Consultant
TOYOTA MAINTENANCE,G47484P,79809,2023-10-10,12,15000,none none,none,,
CNA NATIONAL WARRANTY COR,G47498A,79852,2023-10-12,60,85000,Michael Menard,165983,single point,Single Point Sales Consultant
TOYOTA MAINTENANCE,G47536C,79882,2023-10-15,12,15000,Tyler Hinkle,145603,outlet,Auto Outlet Sales Consultant
TOYOTA MAINTENANCE,G47587A,79943,2023-10-19,12,15000,none none,none,,
TOYOTA MAINTENANCE,G47597A,79735,2023-10-05,12,15000,James Waldeck,165989,outlet,Auto Outlet Sales Consultant
CNA NATIONAL WARRANTY COR,G47641B,79776,2023-10-08,120,150000,Federico Palacios,165748,,Product Genius
TOYOTA MAINTENANCE,G47672A,79703,2023-10-05,12,15000,Rick Stout,1132700,,Finance Manager
TOYOTA MAINTENANCE,G47678B,79996,2023-10-23,12,67400,Tyler Hinkle,145603,outlet,Auto Outlet Sales Consultant
CNA NATIONAL WARRANTY COR,G47684A,79784,2023-10-08,60,60000,Craig Croaker,128530,croaker,Sales Consultant
CNA NATIONAL WARRANTY COR,G47735A,79892,2023-10-15,72,100000,Austin Suedel,145956,single point,Single Point Sales Consultant
TOYOTA MAINTENANCE,G47751A,79601,2023-10-12,48,55000,none none,none,,
TOYOTA MAINTENANCE,G47762B,79764,2023-10-08,12,15000,Rick Stout,1132700,,Finance Manager
TOYOTA MAINTENANCE,G47770X,80057,2023-10-26,12,15000,none none,none,,
TOYOTA MAINTENANCE,G47778X,79705,2023-10-05,12,15000,Austin Suedel,145956,single point,Single Point Sales Consultant
TOYOTA MAINTENANCE,G47794A,79698,2023-10-03,12,15000,Austin Suedel,145956,single point,Single Point Sales Consultant
TOYOTA MAINTENANCE,G47824X,80041,2023-10-26,12,15000,Kody Schlenvogt,198373,single point,Single Point Sales Consultant
TOYOTA MAINTENANCE,G47827A,79878,2023-10-15,12,15000,Bryce Huot,145983,sales consultant,Sales Consultant
TOYOTA MAINTENANCE,G47841A,79891,2023-10-15,12,15000,James Waldeck,165989,outlet,Auto Outlet Sales Consultant
TOYOTA MAINTENANCE,G47852A,79933,2023-10-18,12,15000,Bryce Huot,145983,sales consultant,Sales Consultant
TOYOTA MAINTENANCE,G47853X,79708,2023-10-06,12,15000,Jacob Charley,135795,single point,Sales Consultant
AUL,G47854AA,79894,2023-10-15,180,50000,Craig Croaker,128530,croaker,Sales Consultant
TOYOTA MAINTENANCE,G47897B,79957,2023-10-22,0,0,James Weber,1147810,single point,Single Point Sales Consultant
CNA NATIONAL WARRANTY COR,G47903X,79693,2023-10-03,72,100000,Arden Loven,189100,sales consultant,Sales Consultant
TOYOTA MAINTENANCE,G47946B,79850,2023-10-12,12,15000,Jacob Charley,135795,single point,Sales Consultant
CNA NATIONAL WARRANTY COR,G47953X,79755,2023-10-12,120,100000,Robert Rumen,141082,single point,Single Point Sales Consultant
TOYOTA MAINTENANCE,G47957B,79962,2023-10-22,12,15000,Craig Croaker,128530,croaker,Sales Consultant
TOYOTA MAINTENANCE,G47970A,79837,2023-10-15,0,0,James Weber,1147810,single point,Single Point Sales Consultant
TOYOTA MAINTENANCE,G47970B,80009,2023-10-24,12,15000,Craig Croaker,128530,croaker,Sales Consultant
TOYOTA MAINTENANCE,G47997A,79774,2023-10-08,12,15000,Kody Schlenvogt,198373,single point,Single Point Sales Consultant
TOYOTA MAINTENANCE,G48006X,80005,2023-10-23,12,15000,Jacob Charley,135795,single point,Sales Consultant
CNA NATIONAL WARRANTY COR,G48013L,79810,2023-10-09,48,100000,Kody Schlenvogt,198373,single point,Single Point Sales Consultant
AUL,G48014B,79792,2023-10-09,180,40000,Craig Croaker,128530,croaker,Sales Consultant
AUL,G48043XA,79786,2023-10-08,180,40000,Savanah Magenau,189768,single point,Single Point Sales Consultant
TOYOTA MAINTENANCE,G48055X,79909,2023-10-16,12,15000,Federico Palacios,165748,,Product Genius
TOYOTA MAINTENANCE,G48067HB,79870,2023-10-15,24,25000,James Waldeck,165989,outlet,Auto Outlet Sales Consultant
TOYOTA MAINTENANCE,G48118A,79721,2023-10-12,36,40000,Robert Rumen,141082,single point,Single Point Sales Consultant
TOYOTA MAINTENANCE,G48118B,79969,2023-10-22,12,126848,Tyler Hinkle,145603,outlet,Auto Outlet Sales Consultant
TOYOTA MAINTENANCE,G48126TB,79871,2023-10-15,12,15000,Jacob Charley,135795,single point,Sales Consultant
TOYOTA MAINTENANCE,G48132A,79938,2023-10-22,0,0,James Weber,1147810,single point,Single Point Sales Consultant
CNA NATIONAL WARRANTY COR,G48185AA,79964,2023-10-22,120,150000,James Warmack,1147250,sales consultant,Sales Consultant
TOYOTA MAINTENANCE,G48200A,79815,2023-10-10,12,15000,Richard Turner,195231,single point,Fleet Sales Consultant
TOYOTA MAINTENANCE,G48202A,79717,2023-10-08,12,15000,Robert Rumen,141082,single point,Single Point Sales Consultant
TOYOTA MAINTENANCE,G48205A,79795,2023-10-09,36,40000,Savanah Magenau,189768,single point,Single Point Sales Consultant
CNA NATIONAL WARRANTY COR,G48215A,79965,2023-10-22,120,150000,Jacob Charley,135795,single point,Sales Consultant
CNA NATIONAL WARRANTY COR,G48222L,79928,2023-10-19,120,100000,Michael Menard,165983,single point,Single Point Sales Consultant
CNA NATIONAL WARRANTY COR,G48230A,79696,2023-10-08,0,0,James Weber,1147810,single point,Single Point Sales Consultant
TOYOTA MAINTENANCE,G48231A,80008,2023-10-24,24,25000,Jacob Charley,135795,single point,Sales Consultant
TOYOTA MAINTENANCE,G48234B,79773,2023-10-08,12,15000,none none,none,,
TOYOTA MAINTENANCE,G48250A,79863,2023-10-15,36,40000,James Warmack,1147250,sales consultant,Sales Consultant
TOYOTA MAINTENANCE,G48260TA,79973,2023-10-23,12,15000,Jacob Charley,135795,single point,Sales Consultant
TOYOTA MAINTENANCE,G48270X,79800,2023-10-09,12,15000,Arden Loven,189100,sales consultant,Sales Consultant
TOYOTA MAINTENANCE,G48272X,79585,2023-10-06,12,15000,Richard Turner,195231,single point,Fleet Sales Consultant
CNA NATIONAL WARRANTY COR,G48283A,80017,2023-10-24,84,85000,Kody Schlenvogt,198373,single point,Single Point Sales Consultant
AUL,G48293A,79897,2023-10-15,36,36000,James Warmack,1147250,sales consultant,Sales Consultant
CNA NATIONAL WARRANTY COR,G48308X,79712,2023-10-05,108,150000,Savanah Magenau,189768,single point,Single Point Sales Consultant
CNA NATIONAL WARRANTY COR,G48326A,79918,2023-10-17,120,100000,Savanah Magenau,189768,single point,Single Point Sales Consultant
TOYOTA MAINTENANCE,G48344H,79761,2023-10-19,12,15000,Tyler Hinkle,145603,outlet,Auto Outlet Sales Consultant
TOYOTA MAINTENANCE,G48345H,79783,2023-10-12,24,25000,Tyler Hinkle,145603,outlet,Auto Outlet Sales Consultant
TOYOTA MAINTENANCE,G48347H,79828,2023-10-12,12,15000,James Waldeck,165989,outlet,Auto Outlet Sales Consultant
CNA NATIONAL WARRANTY COR,G48348X,79974,2023-10-22,72,100000,Craig Croaker,128530,croaker,Sales Consultant
CNA NATIONAL WARRANTY COR,G48370X,79691,2023-10-02,72,75000,Kody Schlenvogt,198373,single point,Single Point Sales Consultant
CNA NATIONAL WARRANTY COR,G48374X,79949,2023-10-19,120,100000,James Weber,1147810,single point,Single Point Sales Consultant
TOYOTA MAINTENANCE,G48375X,80027,2023-10-25,36,40000,Kody Schlenvogt,198373,single point,Single Point Sales Consultant
TOYOTA MAINTENANCE,G48379L,79848,2023-10-15,12,15000,Kody Schlenvogt,198373,single point,Single Point Sales Consultant
AUL,G48381HA,80039,2023-10-26,180,40000,Richard Turner,195231,single point,Fleet Sales Consultant
TOYOTA MAINTENANCE,G48390A,80040,2023-10-26,0,0,Robert Rumen,141082,single point,Single Point Sales Consultant
CNA NATIONAL WARRANTY COR,G48394A,79976,2023-10-22,120,150000,Jacob Charley,135795,single point,Sales Consultant
CNA NATIONAL WARRANTY COR,G48416X,79865,2023-10-15,120,100000,Richard Turner,195231,single point,Fleet Sales Consultant
TOYOTA MAINTENANCE,G48420X,79951,2023-10-19,0,15000,Bryce Huot,145983,sales consultant,Sales Consultant
CNA NATIONAL WARRANTY COR,G48432A,79963,2023-10-22,96,85000,Federico Palacios,165748,,Product Genius
TOYOTA MAINTENANCE,G48446X,79923,2023-10-18,12,15000,James Warmack,1147250,sales consultant,Sales Consultant
TOYOTA MAINTENANCE,G48448X,79946,2023-10-19,12,15000,Craig Croaker,128530,croaker,Sales Consultant
CNA NATIONAL WARRANTY COR,G48450X,79978,2023-10-22,120,100000,Savanah Magenau,189768,single point,Single Point Sales Consultant
CNA NATIONAL WARRANTY COR,G48456X,80053,2023-10-26,84,120000,Savanah Magenau,189768,single point,Single Point Sales Consultant
CNA NATIONAL WARRANTY COR,G48496X,79925,2023-10-17,72,80000,Craig Croaker,128530,croaker,Sales Consultant
TOYOTA MAINTENANCE,G48496XA,79934,2023-10-19,12,15000,Craig Croaker,128530,croaker,Sales Consultant
TOYOTA MAINTENANCE,G48498X,79930,2023-10-17,12,15000,none none,none,,
TOYOTA MAINTENANCE,G48502A,79874,2023-10-15,120,15000,Craig Croaker,128530,croaker,Sales Consultant
TOYOTA MAINTENANCE,G48536P,79728,2023-10-05,12,15000,Austin Suedel,145956,single point,Single Point Sales Consultant
CNA NATIONAL WARRANTY COR,G48537X,79999,2023-10-23,120,150000,Craig Croaker,128530,croaker,Sales Consultant
TOYOTA MAINTENANCE,G48560A,80020,2023-10-24,0,0,Richard Turner,195231,single point,Fleet Sales Consultant
TOYOTA MAINTENANCE,G48739H,79716,2023-10-05,0,0,James Warmack,1147250,sales consultant,Sales Consultant
TOYOTA MAINTENANCE,G48742H,79723,2023-10-05,12,15000,none none,none,,
TOYOTA MAINTENANCE,G48747H,79731,2023-10-08,12,15000,none none,none,,
CNA NATIONAL WARRANTY COR,G48774H,79770,2023-10-08,60,48000,Jacob Charley,135795,single point,Sales Consultant
CNA NATIONAL WARRANTY COR,G48786T,79836,2023-10-12,72,100000,Arden Loven,189100,sales consultant,Sales Consultant
TOYOTA MAINTENANCE,G48786TA,79975,2023-10-22,12,107249,Tyler Hinkle,145603,outlet,Auto Outlet Sales Consultant
TOYOTA MAINTENANCE,G48787H,79793,2023-10-09,12,15000,Federico Palacios,165748,,Product Genius
CNA NATIONAL WARRANTY COR,G48811H,79840,2023-10-12,108,100000,Craig Croaker,128530,croaker,Sales Consultant
TOYOTA MAINTENANCE,G48814H,79864,2023-10-15,12,15000,Austin Suedel,145956,single point,Single Point Sales Consultant
TOYOTA MAINTENANCE,G48815H,79887,2023-10-15,12,15000,James Waldeck,165989,outlet,Auto Outlet Sales Consultant
TOYOTA MAINTENANCE,G48816T,79958,2023-10-19,12,15000,James Waldeck,165989,outlet,Auto Outlet Sales Consultant
TOYOTA MAINTENANCE,G48842P,80006,2023-10-23,0,0,none none,none,,
CNA NATIONAL WARRANTY COR,G48898L,79956,2023-10-19,72,60000,James Warmack,1147250,sales consultant,Sales Consultant
CNA NATIONAL WARRANTY COR,G48900L,79959,2023-10-19,72,75000,Kody Schlenvogt,198373,single point,Single Point Sales Consultant
AUL,G48906L,79971,2023-10-22,180,40000,Richard Turner,195231,single point,Fleet Sales Consultant
AUL,G48912L,80014,2023-10-24,180,50000,Richard Turner,195231,single point,Fleet Sales Consultant
TOYOTA MAINTENANCE,G48913T,80019,2023-10-24,12,15000,Jacob Charley,135795,single point,Sales Consultant
CNA WARRANTY CORP,H16505A,25811,2023-10-23,108,80000,Brittany Rose,259875,single point,Sales Consultant
CNA WARRANTY CORP,H16552A,25762,2023-10-12,60,60000,Jessie Monreal,115883,,Sales Consultant
TOYOTA MAINTENANCE,H16651A,25760,2023-10-10,48,55000,Brittany Rose,259875,single point,Sales Consultant
TOYOTA MAINTENANCE,H16698A,25739,2023-10-05,12,15000,Jessie Monreal,115883,,Sales Consultant
TOYOTA MAINTENANCE,H16741A,25758,2023-10-10,24,25000,William Halldorson,264845,single point,Single Point Sales Consultant
TOYOTA MAINTENANCE,H16754A,25832,2023-10-27,12,15000,Brittany Rose,259875,single point,Sales Consultant
CNA WARRANTY CORP,H16781A,25821,2023-10-27,84,60000,Brittany Rose,259875,single point,Sales Consultant
TOYOTA MAINTENANCE,H16794A,25829,2023-10-27,12,15000,William Halldorson,264845,single point,Single Point Sales Consultant
CNA WARRANTY CORP,H16815L,25750,2023-10-09,48,65000,Christie Johnson,243876,single point,Sales Consultant
AUL WARRANTY,H16820B,25784,2023-10-17,180,60000,Brittany Rose,259875,single point,Sales Consultant
TOYOTA MAINTENANCE,H16844A,25730,2023-10-05,12,15000,Brittany Rose,259875,single point,Sales Consultant
AUL WARRANTY,H16858A,25800,2023-10-20,180,50000,Corey Wilde,2150210,standard,Sales Consultant
CNA WARRANTY CORP,H16872GA,25763,2023-10-12,60,54000,Fred Spencer,2130678,single point,Sales Consultant
CNA WARRANTY CORP,H16887L,25731,2023-10-05,72,95000,Brittany Rose,259875,single point,Sales Consultant
AUL WARRANTY,H16910A,25820,2023-10-24,36,24000,Fred Spencer,2130678,single point,Sales Consultant
CNA WARRANTY CORP,H16935A,25768,2023-10-16,36,72000,Christie Johnson,243876,single point,Sales Consultant
TOYOTA MAINTENANCE,H16937A,25737,2023-10-09,48,55000,Jessie Monreal,115883,,Sales Consultant
CNA WARRANTY CORP,H16937B,25741,2023-10-09,36,36000,none none,none,,
TOYOTA MAINTENANCE,H16984A,25773,2023-10-16,12,15000,Brittany Rose,259875,single point,Sales Consultant
CNA WARRANTY CORP,H17020X,25808,2023-10-20,72,60000,Brittany Rose,259875,single point,Sales Consultant
TOYOTA MAINTENANCE,H17034L,25828,2023-10-27,12,15000,Christie Johnson,243876,single point,Sales Consultant
TOYOTA MAINTENANCE,H17060G,25740,2023-10-06,48,55000,Brittany Rose,259875,single point,Sales Consultant
AUL WARRANTY,H17069G,25756,2023-10-09,180,20000,Christie Johnson,243876,single point,Sales Consultant
TOYOTA MAINTENANCE,H17072G,25757,2023-10-09,12,15000,Christie Johnson,243876,single point,Sales Consultant
TOYOTA MAINTENANCE,H17079T,25764,2023-10-11,12,15000,Jessie Monreal,115883,,Sales Consultant
CNA WARRANTY CORP,H17084L,25765,2023-10-23,108,120000,Brittany Rose,259875,single point,Sales Consultant
CNA WARRANTY CORP,H17087L,25770,2023-10-13,72,95000,Brittany Rose,259875,single point,Sales Consultant
CNA WARRANTY CORP,H17088G,25772,2023-10-16,84,72000,Corey Wilde,2150210,standard,Sales Consultant
AUL WARRANTY,H17091T,25776,2023-10-16,180,20000,Christie Johnson,243876,single point,Sales Consultant
TOYOTA MAINTENANCE,H17093G,25777,2023-10-16,12,15000,Brittany Rose,259875,single point,Sales Consultant
TOYOTA MAINTENANCE,H17098G,25786,2023-10-18,12,15000,Brittany Rose,259875,single point,Sales Consultant
CNA WARRANTY CORP,H17099G,25788,2023-10-17,48,48000,Christie Johnson,243876,single point,Sales Consultant
AUL WARRANTY,H17102T,25802,2023-10-19,180,50000,Corey Wilde,2150210,standard,Sales Consultant
AUL,T10797HAA,1756,2023-10-18,36,36000,Chad Wages,8100258,single point,Single Point Sales Consultant
TOYOTA MAINTENANCE,T10859A,1774,2023-10-17,12,15000,Brandon McCoy,8100244,single point,Single Point Sales Consultant
CNA WARRANTY,T10861A,1778,2023-10-19,120,150000,Robb Sarchet,8100239,single point,Single Point Sales Consultant
TOYOTA MAINTENANCE,T10866A,1786,2023-10-20,12,15000,none none,none,,
TOYOTA MAINTENANCE,T10880A,1801,2023-10-23,12,15000,Mason Hagen,8100207,single point,Sales Consultant
TOYOTA MAINTENANCE,T10911L,1769,2023-10-23,12,15000,Robb Sarchet,8100239,single point,Single Point Sales Consultant
TOYOTA MAINTENANCE,T10921GC,1779,2023-10-18,12,15000,Mason Hagen,8100207,single point,Sales Consultant
CNA WARRANTY,T10939X,1765,2023-10-16,108,150000,Chad Wages,8100258,single point,Single Point Sales Consultant
CNA WARRANTY,T10955A,1809,2023-10-25,180,50000,Cole Suedel,8100229,single point,Sales Consultant
TOYOTA MAINTENANCE,T10970A,1727,2023-10-09,12,15000,none none,none,,
CNA WARRANTY,T10972A,1764,2023-10-16,72,100000,Brandon McCoy,8100244,single point,Single Point Sales Consultant
TOYOTA MAINTENANCE,T11047P,1799,2023-10-23,12,15000,Ethan Christiansen,8100243,single point,Single Point Sales Consultant
TOYOTA MAINTENANCE,T11052G,1743,2023-10-11,12,15000,Brandon McCoy,8100244,single point,Single Point Sales Consultant
CNA WARRANTY,T11055G,1776,2023-10-18,84,100000,Cole Suedel,8100229,single point,Sales Consultant
TOYOTA MAINTENANCE,T11056G,1781,2023-10-19,48,55000,Robb Sarchet,8100239,single point,Single Point Sales Consultant
TOYOTA MAINTENANCE,T11058H,1797,2023-10-23,12,15000,Brandon McCoy,8100244,single point,Single Point Sales Consultant
