company_name,bopmast_stock_number,date_capped,serv_cont_months,serv_cont_miles
TOYOTA MAINTENANCE,G47778X,2023-10-05,12,15000
TOYOTA MAINTENANCE,T11058H,2023-10-23,12,15000
CNA WARRANTY CORP,H16552A,2023-10-12,60,60000
TOYOTA MAINTENANCE,G48787H,2023-10-09,12,15000
AUL WARRANTY,H16820B,2023-10-17,180,60000
TOYOTA MAINTENANCE,G47970B,2023-10-24,12,15000
TOYOTA MAINTENANCE,G48742H,2023-10-05,12,15000
CNA NATIONAL WARRANTY COR,G48370X,2023-10-02,72,75000
CNA NATIONAL WARRANTY COR,G47903X,2023-10-03,72,100000
CNA NATIONAL WARRANTY COR,G48230A,2023-10-08,0,0
TOYOTA MAINTENANCE,G47794A,2023-10-03,12,15000
TOYOTA MAINTENANCE,G47052B,2023-10-06,12,15000
TOYOTA MAINTENANCE,H16844A,2023-10-05,12,15000
CNA NATIONAL WARRANTY COR,G47953X,2023-10-12,120,100000
TOYOTA MAINTENANCE,G47672A,2023-10-05,12,15000
AUL WARRANTY,H17069G,2023-10-09,180,20000
TOYOTA MAINTENANCE,G48234B,2023-10-08,12,15000
TOYOTA MAINTENANCE,G47997A,2023-10-08,12,15000
CNA NATIONAL WARRANTY COR,G47641B,2023-10-08,120,150000
AUL,G48014B,2023-10-09,180,40000
CNA WARRANTY CORP,H16872GA,2023-10-12,60,54000
TOYOTA MAINTENANCE,G47451P,2023-10-16,12,15000
TOYOTA MAINTENANCE,G48200A,2023-10-10,12,15000
TOYOTA MAINTENANCE,G48815H,2023-10-15,12,15000
TOYOTA MAINTENANCE,G48448X,2023-10-19,12,15000
CNA NATIONAL WARRANTY COR,G48374X,2023-10-19,120,100000
TOYOTA MAINTENANCE,G48420X,2023-10-19,0,15000
CNA WARRANTY CORP,H16505A,2023-10-23,108,80000
AUL,G48906L,2023-10-22,180,40000
TOYOTA MAINTENANCE,G47678B,2023-10-23,12,67400
TOYOTA MAINTENANCE,G48272X,2023-10-06,12,15000
TOYOTA MAINTENANCE,G47751A,2023-10-12,48,55000
CNA WARRANTY CORP,H16887L,2023-10-05,72,95000
TOYOTA MAINTENANCE,G47853X,2023-10-06,12,15000
CNA NATIONAL WARRANTY COR,G48308X,2023-10-05,108,150000
TOYOTA MAINTENANCE,G48739H,2023-10-05,0,0
TOYOTA MAINTENANCE,H16937A,2023-10-09,48,55000
TOYOTA MAINTENANCE,G48202A,2023-10-08,12,15000
TOYOTA MAINTENANCE,H16698A,2023-10-05,12,15000
TOYOTA MAINTENANCE,G47128AC,2023-10-08,12,15000
TOYOTA MAINTENANCE,H17060G,2023-10-06,48,55000
TOYOTA MAINTENANCE,G48118A,2023-10-12,36,40000
TOYOTA MAINTENANCE,G48536P,2023-10-05,12,15000
TOYOTA MAINTENANCE,G48747H,2023-10-08,12,15000
AUL,G46512B,2023-10-12,180,50000
TOYOTA MAINTENANCE,G47597A,2023-10-05,12,15000
CNA WARRANTY CORP,H16937B,2023-10-09,36,36000
TOYOTA MAINTENANCE,G48344H,2023-10-19,12,15000
CNA WARRANTY CORP,H16815L,2023-10-09,48,65000
TOYOTA MAINTENANCE,G47427H,2023-10-06,12,15000
TOYOTA MAINTENANCE,G47762B,2023-10-08,12,15000
TOYOTA MAINTENANCE,T10970A,2023-10-09,12,15000
CNA NATIONAL WARRANTY COR,G48774H,2023-10-08,60,48000
TOYOTA MAINTENANCE,H17072G,2023-10-09,12,15000
TOYOTA MAINTENANCE,G47371B,2023-10-08,12,15000
TOYOTA MAINTENANCE,G48345H,2023-10-12,24,25000
CNA NATIONAL WARRANTY COR,G47684A,2023-10-08,60,60000
AUL,G48043XA,2023-10-08,180,40000
TOYOTA MAINTENANCE,G48205A,2023-10-09,36,40000
TOYOTA MAINTENANCE,G48379L,2023-10-15,12,15000
TOYOTA MAINTENANCE,H16741A,2023-10-10,24,25000
TOYOTA MAINTENANCE,G48270X,2023-10-09,12,15000
TOYOTA MAINTENANCE,H16651A,2023-10-10,48,55000
TOYOTA MAINTENANCE,G47484P,2023-10-10,12,15000
CNA NATIONAL WARRANTY COR,G48013L,2023-10-09,48,100000
TOYOTA MAINTENANCE,H17079T,2023-10-11,12,15000
CNA NATIONAL WARRANTY COR,G47113B,2023-10-15,120,100000
TOYOTA MAINTENANCE,T11052G,2023-10-11,12,15000
CNA WARRANTY CORP,H17084L,2023-10-23,108,120000
TOYOTA MAINTENANCE,G48347H,2023-10-12,12,15000
CNA NATIONAL WARRANTY COR,G47200A,2023-10-12,84,100000
CNA WARRANTY CORP,H16935A,2023-10-16,36,72000
CNA NATIONAL WARRANTY COR,G48786T,2023-10-12,72,100000
TOYOTA MAINTENANCE,G47970A,2023-10-15,0,0
CNA NATIONAL WARRANTY COR,G48811H,2023-10-12,108,100000
TOYOTA MAINTENANCE,G47946B,2023-10-12,12,15000
CNA WARRANTY CORP,H17087L,2023-10-13,72,95000
CNA NATIONAL WARRANTY COR,G47498A,2023-10-12,60,85000
CNA WARRANTY CORP,H17088G,2023-10-16,84,72000
TOYOTA MAINTENANCE,G48250A,2023-10-15,36,40000
TOYOTA MAINTENANCE,H16984A,2023-10-16,12,15000
TOYOTA MAINTENANCE,G48814H,2023-10-15,12,15000
CNA NATIONAL WARRANTY COR,G48416X,2023-10-15,120,100000
AUL,T10797HAA,2023-10-18,36,36000
TOYOTA MAINTENANCE,G48067HB,2023-10-15,24,25000
TOYOTA MAINTENANCE,G48126TB,2023-10-15,12,15000
TOYOTA MAINTENANCE,G48502A,2023-10-15,120,15000
AUL WARRANTY,H17091T,2023-10-16,180,20000
TOYOTA MAINTENANCE,G47827A,2023-10-15,12,15000
TOYOTA MAINTENANCE,G47318B,2023-10-15,12,15000
TOYOTA MAINTENANCE,H17093G,2023-10-16,12,15000
TOYOTA MAINTENANCE,G47536C,2023-10-15,12,15000
CNA WARRANTY,T10972A,2023-10-16,72,100000
TOYOTA MAINTENANCE,G47841A,2023-10-15,12,15000
CNA NATIONAL WARRANTY COR,G47735A,2023-10-15,72,100000
CNA WARRANTY,T10939X,2023-10-16,108,150000
TOYOTA MAINTENANCE,G39879XZB,2023-10-15,12,15000
AUL,G47854AA,2023-10-15,180,50000
AUL,G48293A,2023-10-15,36,36000
TOYOTA MAINTENANCE,T10911L,2023-10-23,12,15000
TOYOTA MAINTENANCE,G48055X,2023-10-16,12,15000
TOYOTA MAINTENANCE,H17098G,2023-10-18,12,15000
TOYOTA MAINTENANCE,T10859A,2023-10-17,12,15000
TOYOTA MAINTENANCE,G47347B,2023-10-16,12,15000
CNA WARRANTY,T11055G,2023-10-18,84,100000
CNA WARRANTY CORP,H17099G,2023-10-17,48,48000
CNA NATIONAL WARRANTY COR,G48326A,2023-10-17,120,100000
TOYOTA MAINTENANCE,G48446X,2023-10-18,12,15000
CNA NATIONAL WARRANTY COR,G48496X,2023-10-17,72,80000
CNA WARRANTY,T10861A,2023-10-19,120,150000
TOYOTA MAINTENANCE,T10921GC,2023-10-18,12,15000
CNA NATIONAL WARRANTY COR,G48222L,2023-10-19,120,100000
TOYOTA MAINTENANCE,G48498X,2023-10-17,12,15000
TOYOTA MAINTENANCE,T11056G,2023-10-19,48,55000
TOYOTA MAINTENANCE,G47852A,2023-10-18,12,15000
TOYOTA MAINTENANCE,G48496XA,2023-10-19,12,15000
AUL WARRANTY,H16858A,2023-10-20,180,50000
TOYOTA MAINTENANCE,G48132A,2023-10-22,0,0
TOYOTA MAINTENANCE,G47587A,2023-10-19,12,15000
AUL WARRANTY,H17102T,2023-10-19,180,50000
TOYOTA MAINTENANCE,T10866A,2023-10-20,12,15000
CNA NATIONAL WARRANTY COR,G48898L,2023-10-19,72,60000
CNA WARRANTY CORP,H17020X,2023-10-20,72,60000
TOYOTA MAINTENANCE,G47897B,2023-10-22,0,0
TOYOTA MAINTENANCE,G48816T,2023-10-19,12,15000
CNA NATIONAL WARRANTY COR,G48900L,2023-10-19,72,75000
TOYOTA MAINTENANCE,G47957B,2023-10-22,12,15000
CNA NATIONAL WARRANTY COR,G48432A,2023-10-22,96,85000
TOYOTA MAINTENANCE,T11047P,2023-10-23,12,15000
CNA NATIONAL WARRANTY COR,G48185AA,2023-10-22,120,150000
CNA NATIONAL WARRANTY COR,G48215A,2023-10-22,120,150000
CNA NATIONAL WARRANTY COR,G48354A,2023-10-22,84,85000
TOYOTA MAINTENANCE,G48118B,2023-10-22,12,126848
TOYOTA MAINTENANCE,G48260TA,2023-10-23,12,15000
CNA NATIONAL WARRANTY COR,G48348X,2023-10-22,72,100000
TOYOTA MAINTENANCE,G48786TA,2023-10-22,12,107249
CNA NATIONAL WARRANTY COR,G48394A,2023-10-22,120,150000
CNA NATIONAL WARRANTY COR,G48450X,2023-10-22,120,100000
TOYOTA MAINTENANCE,G46804C,2023-10-22,12,133624
TOYOTA MAINTENANCE,G47377A,2023-10-22,12,180352
TOYOTA MAINTENANCE,T10880A,2023-10-23,12,15000
CNA NATIONAL WARRANTY COR,G48537X,2023-10-23,120,150000
AUL WARRANTY,H16910A,2023-10-24,36,24000
TOYOTA MAINTENANCE,G48006X,2023-10-23,12,15000
TOYOTA MAINTENANCE,G48842P,2023-10-23,0,0
TOYOTA MAINTENANCE,G48231A,2023-10-24,24,25000
AUL,G48912L,2023-10-24,180,50000
CNA WARRANTY,T10955A,2023-10-25,180,50000
CNA NATIONAL WARRANTY COR,G48283A,2023-10-24,84,85000
TOYOTA MAINTENANCE,G48913T,2023-10-24,12,15000
TOYOTA MAINTENANCE,G48560A,2023-10-24,0,0
AUL,G47254A,2023-10-25,180,100000
TOYOTA MAINTENANCE,G48375X,2023-10-25,36,40000
TOYOTA MAINTENANCE,G47125BC,2023-10-26,0,0
TOYOTA MAINTENANCE,G48390A,2023-10-26,0,0
AUL,G48381HA,2023-10-26,180,40000
TOYOTA MAINTENANCE,G47824X,2023-10-26,12,15000
CNA NATIONAL WARRANTY COR,G48456X,2023-10-26,84,120000
TOYOTA MAINTENANCE,G47770X,2023-10-26,12,15000
