"Employee Name","Employee ID","EIN Tax Id","EIN Name","Pay Date","In Date","Time In","Time Out","Total Time","Time Off"
"ADHIKARI, OM","197642","45-0236743","Rydell Auto Center Inc.","2021-05-24","2021-05-24","06:17:35","05:47:35",-0.50,"Auto"
"ADHIKARI, OM","197642","45-0236743","Rydell Auto Center Inc.","2021-05-25","2021-05-25","06:18:36","05:48:36",-0.50,"Auto"
"ADHIKARI, OM","197642","45-0236743","Rydell Auto Center Inc.","2021-05-26","2021-05-26","06:18:03","05:48:03",-0.50,"Auto"
"ADHIKARI, OM","197642","45-0236743","Rydell Auto Center Inc.","2021-05-27","2021-05-27","06:18:01","05:48:01",-0.50,"Auto"
"ADHIKARI, OM","197642","45-0236743","Rydell Auto Center Inc.","2021-05-28","2021-05-28","06:17:58","05:47:58",-0.50,"Auto"
"ADHIKARI, OM","197642","45-0236743","Rydell Auto Center Inc.","2021-06-01","2021-06-01","06:16:08","05:46:08",-0.50,"Auto"
"ADHIKARI, OM","197642","45-0236743","Rydell Auto Center Inc.","2021-06-02","2021-06-02","06:16:23","05:46:23",-0.50,"Auto"
"ADHIKARI, OM","197642","45-0236743","Rydell Auto Center Inc.","2021-06-03","2021-06-03","06:16:23","05:46:23",-0.50,"Auto"
"ADHIKARI, OM","197642","45-0236743","Rydell Auto Center Inc.","2021-06-04","2021-06-04","06:18:56","05:48:56",-0.50,"Auto"
"JOHNSON, ISAIAH","195675","45-0236743","Rydell Auto Center Inc.","2021-05-24","2021-05-24","05:00:47","04:30:47",-0.50,"Auto"
"JOHNSON, ISAIAH","195675","45-0236743","Rydell Auto Center Inc.","2021-05-25","2021-05-25","05:01:12","04:31:12",-0.50,"Auto"
"JOHNSON, ISAIAH","195675","45-0236743","Rydell Auto Center Inc.","2021-05-26","2021-05-26","05:00:47","04:30:47",-0.50,"Auto"
"JOHNSON, ISAIAH","195675","45-0236743","Rydell Auto Center Inc.","2021-05-27","2021-05-27","05:02:07","04:32:07",-0.50,"Auto"
"JOHNSON, ISAIAH","195675","45-0236743","Rydell Auto Center Inc.","2021-05-28","2021-05-28","04:00:14","03:30:14",-0.50,"Auto"
"JOHNSON, ISAIAH","195675","45-0236743","Rydell Auto Center Inc.","2021-05-30","2021-05-30","15:17:57","14:47:57",-0.50,"Auto"
"JOHNSON, ISAIAH","195675","45-0236743","Rydell Auto Center Inc.","2021-06-01","2021-06-01","05:00:05","04:30:05",-0.50,"Auto"
"JOHNSON, ISAIAH","195675","45-0236743","Rydell Auto Center Inc.","2021-06-02","2021-06-02","05:00:26","04:30:26",-0.50,"Auto"
"JOHNSON, ISAIAH","195675","45-0236743","Rydell Auto Center Inc.","2021-06-03","2021-06-03","05:00:09","04:30:09",-0.50,"Auto"
"JOHNSON, ISAIAH","195675","45-0236743","Rydell Auto Center Inc.","2021-06-04","2021-06-04","04:00:13","03:30:13",-0.50,"Auto"
"LARSON, CODY J","182713","45-0236743","Rydell Auto Center Inc.","2021-05-24","2021-05-24","08:32:12","07:32:12",-1.00,"Auto"
"LARSON, CODY J","182713","45-0236743","Rydell Auto Center Inc.","2021-05-25","2021-05-25","08:07:00","07:07:00",-1.00,"Auto"
"LARSON, CODY J","182713","45-0236743","Rydell Auto Center Inc.","2021-05-26","2021-05-26","07:34:02","06:34:02",-1.00,"Auto"
"LARSON, CODY J","182713","45-0236743","Rydell Auto Center Inc.","2021-05-27","2021-05-27","08:18:08","07:18:08",-1.00,"Auto"
"LARSON, CODY J","182713","45-0236743","Rydell Auto Center Inc.","2021-05-28","2021-05-28","07:32:50","06:32:50",-1.00,"Auto"
"LARSON, CODY J","182713","45-0236743","Rydell Auto Center Inc.","2021-06-02","2021-06-02","08:04:13","07:04:13",-1.00,"Auto"
"LARSON, CODY J","182713","45-0236743","Rydell Auto Center Inc.","2021-06-03","2021-06-03","08:08:53","07:08:53",-1.00,"Auto"
"LARSON, CODY J","182713","45-0236743","Rydell Auto Center Inc.","2021-06-04","2021-06-04","07:59:05","06:59:05",-1.00,"Auto"
"MAGNUSON, TYLER D","190600","45-0236743","Rydell Auto Center Inc.","2021-05-24","2021-05-24","07:05:41","06:35:41",-0.50,"Auto"
"MAGNUSON, TYLER D","190600","45-0236743","Rydell Auto Center Inc.","2021-05-25","2021-05-25","07:05:10","06:35:10",-0.50,"Auto"
"MAGNUSON, TYLER D","190600","45-0236743","Rydell Auto Center Inc.","2021-05-26","2021-05-26","07:08:29","06:38:29",-0.50,"Auto"
"MAGNUSON, TYLER D","190600","45-0236743","Rydell Auto Center Inc.","2021-05-27","2021-05-27","06:56:54","06:26:54",-0.50,"Auto"
"MAGNUSON, TYLER D","190600","45-0236743","Rydell Auto Center Inc.","2021-05-28","2021-05-28","07:03:39","06:33:39",-0.50,"Auto"
"MAGNUSON, TYLER D","190600","45-0236743","Rydell Auto Center Inc.","2021-06-01","2021-06-01","07:33:21","07:03:21",-0.50,"Auto"
"MAGNUSON, TYLER D","190600","45-0236743","Rydell Auto Center Inc.","2021-06-02","2021-06-02","06:58:33","06:28:33",-0.50,"Auto"
"MAGNUSON, TYLER D","190600","45-0236743","Rydell Auto Center Inc.","2021-06-03","2021-06-03","07:05:52","06:35:52",-0.50,"Auto"
"POKHREL, CHANDRA","187526","45-0236743","Rydell Auto Center Inc.","2021-05-24","2021-05-24","08:54:35","08:24:35",-0.50,"Auto"
"POKHREL, CHANDRA","187526","45-0236743","Rydell Auto Center Inc.","2021-05-25","2021-05-25","08:53:01","08:23:01",-0.50,"Auto"
"POKHREL, CHANDRA","187526","45-0236743","Rydell Auto Center Inc.","2021-05-26","2021-05-26","08:49:42","08:19:42",-0.50,"Auto"
"POKHREL, CHANDRA","187526","45-0236743","Rydell Auto Center Inc.","2021-05-27","2021-05-27","08:48:31","08:18:31",-0.50,"Auto"
"POKHREL, CHANDRA","187526","45-0236743","Rydell Auto Center Inc.","2021-05-28","2021-05-28","08:48:53","08:18:53",-0.50,"Auto"
"POKHREL, CHANDRA","187526","45-0236743","Rydell Auto Center Inc.","2021-06-01","2021-06-01","08:52:50","08:22:50",-0.50,"Auto"
"POKHREL, CHANDRA","187526","45-0236743","Rydell Auto Center Inc.","2021-06-02","2021-06-02","08:47:49","08:17:49",-0.50,"Auto"
"POKHREL, CHANDRA","187526","45-0236743","Rydell Auto Center Inc.","2021-06-03","2021-06-03","08:46:05","08:16:05",-0.50,"Auto"
"POKHREL, CHANDRA","187526","45-0236743","Rydell Auto Center Inc.","2021-06-04","2021-06-04","08:48:16","08:18:16",-0.50,"Auto"
