"zip_code","count"
582010000,994
582030000,318
567210000,191
567010000,97
582370000,89
567160000,84
582780000,65
582510000,55
581040000,55
567620000,46
582750000,41
583010000,40
566010000,37
583160000,35
580780000,34
582040000,34
567630000,34
582700000,31
582670000,30
581030000,28
567510000,28
582560000,28
567230000,23
582200000,22
565600000,22
582490000,21
582280000,18
582400000,18
582570000,18
582080000,17
581020000,17
565420000,17
567500000,17
582250000,16
582180000,16
587010000,16
587030000,16
582610000,16
582820000,15
567140000,15
582710000,15
580450000,14
567570000,14
588010000,14
566230000,14
567130000,13
553740000,13
582740000,12
583290000,12
588540000,12
567260000,11
566210000,11
565400000,10
582580000,10
582070000,10
582140000,9
584010000,9
567600000,9
583440000,9
565350000,9
582430000,9
567320000,9
567100000,8
582060000,8
582220000,8
567250000,8
567360000,8
567380000,8
566710000,8
583670000,7
565560000,7
583680000,7
582350000,7
585010000,7
585030000,7
567270000,6
583270000,6
567560000,6
580720000,6
585540000,6
582100000,6
582590000,6
567370000,6
567440000,6
566340000,6
565490000,5
583800000,5
582050000,5
582650000,5
582660000,5
582620000,5
582330000,5
585040000,5
580470000,5
567350000,5
582690000,5
567330000,5
566440000,5
567280000,4
582310000,4
582300000,4
566460000,4
582290000,4
631320000,4
583240000,4
565230000,4
582120000,4
566760000,4
567590000,4
567340000,4
584210000,4
584250000,4
566510000,4
566860000,3
580590000,3
531460000,3
565810000,3
582760000,3
564700000,3
583180000,3
567220000,3
582270000,3
582230000,3
583560000,3
583740000,3
583770000,3
580320000,3
566660000,3
585230000,3
557440000,3
585450000,3
586010000,3
567420000,3
567480000,3
580120000,3
587900000,3
588520000,3
582020000,3
567150000,3
564610000,3
565480000,3
565370000,3
582016460,2
583110000,2
584740000,2
566330000,2
496820000,2
567212309,2
565290000,2
580790000,2
585400000,2
567639020,2
827180000,2
582784149,2
582017006,2
564010000,2
829010000,2
565440000,2
582600000,2
586520000,2
553790000,2
580270000,2
582769517,2
587180000,2
571040000,2
580160000,2
587300000,2
587460000,2
554270000,2
582032609,2
566730000,2
567540000,2
580510000,2
587630000,2
558110000,2
571050000,2
567580000,2
566780000,2
582440000,2
582730000,2
565010000,2
565500000,2
588350000,2
567610000,2
565100000,2
582083152,2
566840000,2
582720000,2
580540000,2
582015805,2
583690000,2
567290000,2
581060000,2
582540000,2
565570000,2
583810000,2
580360000,2
583860000,2
582033227,2
584160000,2
557460000,2
582016125,2
583480000,2
571080000,2
551240000,2
567219022,2
580460000,2
582030752,1
582030804,1
582030809,1
582030820,1
582030831,1
582031483,1
582031872,1
582032038,1
582032111,1
582032153,1
582032607,1
582032903,1
582032963,1
582033070,1
582033146,1
582033154,1
582033226,1
582033327,1
582038321,1
582083301,1
582083456,1
582083458,1
582109586,1
582129231,1
582160000,1
582189242,1
582209312,1
582229619,1
582240000,1
582289720,1
582313103,1
582371220,1
582372132,1
582380000,1
582500000,1
582510177,1
582510535,1
582564100,1
582571003,1
582589625,1
582589643,1
582599464,1
582599474,1
582609566,1
582619424,1
582679770,1
582709365,1
582739308,1
582749449,1
582759467,1
582759493,1
582770000,1
582780211,1
582784208,1
582784305,1
582788000,1
582789223,1
582789372,1
582789405,1
583300000,1
583350000,1
583350244,1
583410000,1
583430000,1
583444760,1
583520000,1
583529781,1
583550000,1
583610000,1
583620000,1
583650000,1
583660000,1
583700000,1
583850000,1
584218776,1
584430000,1
584450000,1
584480068,1
584520000,1
584610000,1
584640000,1
585210000,1
585406006,1
585610000,1
585750000,1
586210000,1
586300000,1
586530000,1
587220000,1
587270000,1
587500000,1
587520000,1
587550000,1
587560000,1
587620000,1
587700000,1
587710000,1
587720000,1
587840000,1
587850000,1
587870000,1
588490000,1
592550000,1
592750000,1
594570000,1
597150000,1
640830000,1
681060000,1
681350000,1
815010000,1
853960000,1
856500000,1
891170000,1
907450000,1
926160000,1
928310000,1
986740000,1
996540000,1
997120000,1
56733,1
997620000,1
58235,1
58352,1
58746,1
223060000,1
272920000,1
325060000,1
357580000,1
389610000,1
392060000,1
395310000,1
453420000,1
484609503,1
487630000,1
498020000,1
498910000,1
506730000,1
522410000,1
523170000,1
548710000,1
550080000,1
550240000,1
550380000,1
550440000,1
550760000,1
550770000,1
551050000,1
551090000,1
551250000,1
551290000,1
553030000,1
553040000,1
553090000,1
553130000,1
553200000,1
554130000,1
554160000,1
554220000,1
554250000,1
554280000,1
555550000,1
557340000,1
558020000,1
558100000,1
559020000,1
559920000,1
560010000,1
560270000,1
561360000,1
561430000,1
561560000,1
562150000,1
562400000,1
563470000,1
563770000,1
564250000,1
564470000,1
564640000,1
564646547,1
564750000,1
564770000,1
565140000,1
565160000,1
565170000,1
565179510,1
565210000,1
565280000,1
565354133,1
565450000,1
565470000,1
565700000,1
565720000,1
565730000,1
565760000,1
565790000,1
565800000,1
565850000,1
565860000,1
565940000,1
566300000,1
566500000,1
566670000,1
566700000,1
566840033,1
566880000,1
567014230,1
567017916,1
567017936,1
567018501,1
567109500,1
567110000,1
567144008,1
567161083,1
567161102,1
567161122,1
567161564,1
567166000,1
567168851,1
567210534,1
567211122,1
567211123,1
567211126,1
567211128,1
567211158,1
567211237,1
567211823,1
567211857,1
567212142,1
567212205,1
567212341,1
567212381,1
567212395,1
567213032,1
567219124,1
567239339,1
567258681,1
567280453,1
567322895,1
567324045,1
567353514,1
567511303,1
567518611,1
567550000,1
567589775,1
567611197,1
567628959,1
567629464,1
570050000,1
571060000,1
571070000,1
571100000,1
572010000,1
572345619,1
572620000,1
572740000,1
574010000,1
575010000,1
575320000,1
577190000,1
577540000,1
577830000,1
580050000,1
580060000,1
580110000,1
580420000,1
580450533,1
580480000,1
580520000,1
580530000,1
580560000,1
580710000,1
580750000,1
582011141,1
582011149,1
582011179,1
582011523,1
582011546,1
582011950,1
582012824,1
582012826,1
582013723,1
582013922,1
582013971,1
582014023,1
582014037,1
582014051,1
582014134,1
582014431,1
582014516,1
582014909,1
582015482,1
582015569,1
582015641,1
582015807,1
582015861,1
582015897,1
582016108,1
582016148,1
582016224,1
582016407,1
582016409,1
582016480,1
582016676,1
582016919,1
582017121,1
582017284,1
582017464,1
582017524,1
582017530,1
582017568,1
582017600,1
582017616,1
582017639,1
582017672,1
582017729,1
582017734,1
582017916,1
582017919,1
582017936,1
582018047,1
582018111,1
582018210,1
582018333,1
582018710,1
582019134,1
582019615,1
582019616,1
