"alloc_group","model","model_code","drive","peg","jan","feb","mar","apr","may","jun","jul","aug","sep","oct","nov","dec","total_sales","days_og","min_sales","diff","model_year","chrome_style_id","trim_level"
"EQUINX","Equinox","1XY26","AWD","1LT",16,12,15,17,4,13,23,5,6,8,8,16,143,365,24,119,"{2018,2019,2020}","{406427,389542,398677}","{LT}"
"TRAVRS","Traverse","1NW56","AWD","1LT",3,5,3,5,4,2,4,1,5,5,3,7,47,363,24,23,"{2018,2019,2020}","{406167,390755,399670}","{""LT Cloth""}"
"MALIBU","Malibu","1ZD69","FWD","1LT",2,3,2,2,3,9,1,1,12,5,4,2,46,365,24,22,"{2018,2019,2020}","{390994,406148,402210}","{LT}"
"EQUINX","Equinox","1XZ26","AWD","1LZ",4,4,3,3,6,2,1,2,5,5,3,5,43,365,24,19,"{2018,2019,2020}","{389543,398680,406430}","{Premier}"
"ACADIA","Acadia","TNN26","AWD","5SA",3,3,1,2,4,7,4,1,1,4,3,4,37,365,24,13,"{2018,2019,2020}","{398824,393199,407941}","{Denali}"
"TERAIN","Terrain","TXC26","AWD","4SA",4,1,2,4,1,1,1,1,3,4,3,1,26,308,20,6,"{2018,2019,2020}","{390889,406836,398585}","{SLT}"
"ACADIA","Acadia","TNL26","AWD","4SA",3,2,4,0,2,5,4,1,1,0,0,2,24,280,18,6,"{2018,2019,2020}","{407939,393197,398822}","{SLT}"
"EQUINX","Equinox","1XR26","FWD","1LT",0,1,0,2,4,2,2,6,2,1,0,2,22,365,24,-2,"{2018,2019,2020}","{389539,406418,398669}","{LT}"
"TERAIN","Terrain","TXB26","AWD","3SA",1,0,2,3,4,1,1,1,2,3,0,4,22,347,23,-1,"{2018,2019,2020}","{390894,406835,398581}","{SLE}"
"CRUZE","Cruze","1BT69","FWD","1SD",1,0,7,2,2,4,2,1,0,1,0,2,22,365,24,-2,"{2018,2019}","{401584,393109}","{LT}"
"EQUINX","Equinox","1XP26","FWD","1LS",2,1,2,1,1,3,2,0,3,4,0,0,19,302,20,-1,"{2018,2019,2020}","{398668,389538,406416}","{LS}"
"TRAVRS","Traverse","1NX56","AWD","1LZ",0,2,1,2,3,0,4,1,4,2,0,0,19,337,22,-3,"{2018,2019,2020}","{399672,406170,390752}","{Premier}"
"TRAVRS","Traverse","1NW56","AWD","3LT",2,1,1,2,4,1,1,3,1,1,1,0,18,240,16,2,"{2018,2019,2020}","{399671,390754,406168}","{""LT Leather""}"
"XT5","XT5","6NH26","AWD","1SD",1,3,1,2,0,1,0,0,3,1,4,2,18,359,23,-5,"{2018,2019,2020}","{392672,407635,398784}","{""Luxury AWD"",""Premium Luxury AWD""}"
"TRAX","Trax","1JS76","AWD","1LT",0,0,0,0,1,1,2,2,2,2,3,4,17,365,24,-7,"{2018,2019,2020}","{393488,400071,406524}","{LT}"
"YKNXL","Yukon XL","TK15906","4WD","5SA",0,1,2,0,2,3,1,2,2,1,2,0,16,311,20,-4,"{2018,2019,2020}","{398570,394340,406711}","{Denali}"
"YKN","Yukon","TK15706","4WD","5SA",0,2,1,2,0,0,1,4,4,0,1,0,15,365,24,-9,"{2018,2019,2020}","{406676,398564,393363}","{Denali}"
"ENCLAV","Enclave","4NH56","AWD","1SL",2,0,1,2,0,2,1,1,2,0,1,3,15,328,21,-6,"{2018,2019,2020}","{399922,393462,406555}","{Essence}"
"ENVISN","Envision","4XZ26","AWD","1SL",0,2,1,1,1,3,0,1,1,1,1,2,14,305,20,-6,"{2018,2019,2020}","{404838,391152,397509}","{Essence}"
"ENCLAV","Enclave","4NJ56","AWD","1SN",1,3,0,0,1,0,1,1,3,3,0,1,14,306,20,-6,"{2018,2019,2020}","{393463,406556,399923}","{Premium}"
"BLAZER","Blazer","1NS26","AWD","1RS",0,1,0,1,2,1,0,2,0,1,2,3,13,318,21,-8,"{2019,2020}","{403402,408203}","{RS}"
"EQUINX","Equinox","1XY26","AWD","2LT",0,2,3,2,1,0,0,0,0,0,0,5,13,335,22,-9,"{2018,2019,2020}","{406428,398678,390813}","{LT}"
"TAHOE","Tahoe","CK15706","4WD","1LZ",0,0,1,3,0,1,2,1,2,1,0,1,12,365,24,-12,"{2018,2019,2020}","{394127,400415,406718}","{Premier}"
"ENCORE","Encore","4JU76","FWD","1SB",1,0,1,1,2,0,3,0,1,1,0,2,12,365,24,-12,"{2018,2019,2020}","{406434,398597,391868}","{Preferred}"
"BLAZER","Blazer","1NR26","AWD","3LT",1,0,0,1,1,1,2,2,1,0,1,1,11,249,16,-5,"{2019,2020}","{408202,403401}","{LT,NULL}"
"ENCORE","Encore","4JN76","AWD","1SL",1,0,1,0,2,1,3,1,0,0,2,0,11,228,15,-4,"{2018,2019,2020}","{398602,391876,406439}","{Essence}"
"EQUINX","Equinox","1XX26","AWD","1LS",1,1,1,0,0,1,2,1,0,0,2,1,10,270,18,-8,"{2018,2019,2020}","{389541,406425,398675}","{LS}"
"MALIBU","Malibu","1ZC69","FWD","1SP",0,0,2,3,0,1,1,1,0,0,1,0,9,199,13,-4,"{2019}","{402209}","{RS}"
"XT4","XT4","6ZC26","AWD","1SE",0,1,0,0,0,4,0,4,0,0,0,0,9,351,23,-14,"{2019,2020}","{406566,398869}","{""AWD Premium Luxury""}"
"SUBURB","Suburban","CK15906","4WD","1LZ",0,0,0,0,0,0,0,2,0,4,1,1,8,279,18,-10,"{2018,2019,2020}","{392685,399959,406726}","{Premier}"
"BLAZER","Blazer","1NR26","AWD","2LT",0,0,0,0,1,0,0,1,2,1,1,1,7,178,11,-4,"{2019,2020}","{408201,403400}","{LT,NULL}"
"SUBURB","Suburban","CK15906","4WD","1LT",0,2,0,1,0,1,0,1,1,1,0,0,7,189,12,-5,"{2018,2019,2020}","{399958,392684,406725}","{LT}"
"ENCORE","Encore","4JM76","AWD","1SB",0,0,1,2,0,2,1,1,0,0,0,0,7,232,15,-8,"{2018,2019,2020}","{406437,391873,398600}","{Preferred}"
"TAHOE","Tahoe","CK15706","4WD","1LT",1,1,2,0,1,0,0,0,0,1,0,0,6,197,13,-7,"{2018,2019,2020}","{400414,394126,406717}","{LT}"
"TRAX","Trax","1JU76","FWD","1LS",0,0,0,0,2,0,3,0,0,0,0,1,6,264,17,-11,"{2018,2019,2020}","{406520,400067,393484}","{LS}"
"REGAL","Regal Sportback","4ZY68","FWD","1SL",1,2,0,1,0,1,0,0,0,0,0,0,5,135,9,-4,"{2018,2019,2020}","{406615,393812,399972}","{Essence}"
"SUBURB","Suburban","CK15906","4WD","1LS",0,1,0,2,0,0,0,0,0,0,1,1,5,26,1,4,"{2018,2019,2020}","{392683,399957,406724}","{LS}"
"XT4","XT4","6ZE26","AWD","1SG",0,0,1,0,0,1,0,0,1,1,0,1,5,264,17,-12,"{2019,2020}","{406567,398870}","{""AWD Sport""}"
"ENVISN","Envision","4XT26","AWD","1SN",1,0,0,2,0,0,0,0,0,2,0,0,5,173,11,-6,"{2018,2019,2020}","{397510,404839,391153}","{Premium}"
"EQUINX","Equinox","1XZ26","AWD","2LZ",1,0,0,1,0,1,0,0,1,0,1,0,5,15,1,4,"{2018,2019,2020}","{390815,398681,406431}","{Premier}"
"TRAVRS","Traverse","1NW56","AWD","2LT",1,0,1,0,2,1,0,0,0,0,0,0,5,157,10,-5,"{2019,2020}","{401665,406169}","{RS}"
"EXPVAN","Express Cargo Van","CG33705","RWD","1WT",0,1,1,1,0,0,0,0,0,0,0,2,5,290,19,-14,"{2018,2019,2020}","{407929,395401,401471}","{NULL}"
"ESCUTL","Escalade","6K15706","4WD","1SB",0,0,0,2,0,0,0,1,0,0,0,1,4,318,21,-17,"{2018,2019,2020}","{406903,398548,393832}","{Luxury}"
"ESCUTL","Escalade","6K15706","4WD","1SC",0,0,1,0,1,1,0,0,1,0,0,0,4,327,21,-17,"{2018,2019,2020}","{406904,398549,393833}","{""Premium Luxury""}"
"ACADIA","Acadia","TNK26","AWD","3SB",0,0,0,1,0,1,2,0,0,0,0,0,4,70,4,0,"{2018,2019}","{393196,398821}","{SLE}"
"XT4","XT4","6ZB26","AWD","1SC",0,0,0,1,0,0,0,0,0,0,1,2,4,270,18,-14,"{2019,2020}","{406565,398868}","{""AWD Luxury""}"
"ENCLAV","Enclave","4NK56","AWD","1SP",0,0,1,0,1,0,1,0,1,0,0,0,4,228,15,-11,"{2018,2019,2020}","{399924,393464,406557}","{Avenir}"
"SPARK","Spark","1DS48","FWD","1SD",0,0,0,0,0,1,0,0,0,0,0,2,3,262,17,-14,"{2018,2019,2020}","{405611,391398,399830}","{LT}"
"XT5","XT5","6NK26","AWD","1SH",1,0,0,1,0,0,0,0,0,1,0,0,3,272,18,-15,"{2018,2019}","{398786,392670}","{""Platinum AWD""}"
"BLAZER","Blazer","1NK26","FWD","2LT",0,0,0,0,1,0,0,0,0,2,0,0,3,327,21,-18,"{2019,2020}","{403396,408197}","{LT,NULL}"
"XT6","XT6","6NX26","AWD","1SF",0,0,0,0,0,0,0,0,0,1,0,2,3,142,9,-6,"{2020}","{405322}","{""AWD Sport""}"
"XT5","XT5","6NJ26","AWD","1SF",0,1,0,0,1,0,0,0,1,0,0,0,3,34,2,1,"{2018,2019,2020}","{398785,392671,407636}","{""Premium Luxury AWD"",""Sport AWD""}"
"EQUINX","Equinox","1XY26","AWD","2FL",0,0,0,0,0,0,0,0,0,0,1,2,3,62,4,-1,"{2019,2020}","{406426,398676}","{LT}"
"ESCUTL","Escalade ESV","6K15906","4WD","1SB",0,0,0,2,0,0,0,0,0,0,1,0,3,299,19,-16,"{2018,2019,2020}","{393839,406911,398556}","{Luxury}"
"TRAX","Trax","1JV76","FWD","1LT",0,0,0,0,0,1,0,0,1,0,1,0,3,129,8,-5,"{2018,2019,2020}","{400068,393485,406521}","{LT}"
"RGLWGN","Regal TourX","4ZY35","AWD","1SL",0,1,0,0,0,0,0,0,0,0,1,0,2,47,3,-1,"{2018,2019,2020}","{406668,394446,400066}","{Essence}"
"CRUZE","Cruze","1BS69","FWD","1SF",0,1,0,0,0,1,0,0,0,0,0,0,2,142,9,-7,"{2018,2019}","{393112,401586}","{Premier}"
"CRZHBK","Cruze","1BT68","FWD","1SD",1,1,0,0,0,0,0,0,0,0,0,0,2,56,3,-1,"{2018,2019}","{393114,401588}","{LT}"
"CT6","CT6","6KJ69","AWD","1SD",0,0,0,0,0,1,0,0,0,1,0,0,2,295,19,-17,"{2018,2019,2020}","{407257,390674,402320}","{""Luxury AWD"",""Premium Luxury"",""Premium Luxury AWD""}"
"ESCUTL","Escalade","6K15706","4WD","1SD",0,0,0,0,0,0,0,0,0,0,1,1,2,228,15,-13,"{2018,2019,2020}","{393826,406905,398550}","{Platinum}"
"ESCUTL","Escalade ESV","6K15906","4WD","1SD",0,0,0,0,0,0,1,0,0,0,1,0,2,253,16,-14,"{2018,2019,2020}","{398558,406913,393841}","{Platinum}"
"LACROS","LaCrosse","4ZB79","FWD","1SL",1,1,0,0,0,0,0,0,0,0,0,0,2,58,3,-1,"{2018,2019}","{398990,390772}","{Essence}"
"ACADIA","Acadia","TNC26","AWD","4SB",0,0,0,0,0,0,0,0,0,1,1,0,2,120,8,-6,"{2020}","{407940}","{AT4}"
"TAHOE","Tahoe","CK15706","4WD","1LS",1,0,0,0,1,0,0,0,0,0,0,0,2,80,5,-3,"{2018,2019,2020}","{394125,400413,406716}","{LS}"
"XT6","XT6","6NW26","AWD","1SD",0,0,0,0,0,0,1,0,0,1,0,0,2,42,2,0,"{2020}","{405321}","{""AWD Premium Luxury""}"
"YKN","Yukon","TK15706","4WD","4SA",0,0,0,0,0,0,0,1,1,0,0,0,2,86,5,-3,"{2018,2019,2020}","{398563,406675,393362}","{SLT}"
"SAVVAN","Savana Cargo Van","TG23405","RWD","1WT",0,0,0,0,0,0,0,0,0,0,0,1,1,224,14,-13,"{2018,2019,2020}","{396017,407930,401603}","{NULL}"
"MALIBU","Malibu","1ZF69","FWD","2LZ",0,1,0,0,0,0,0,0,0,0,0,0,1,1,0,1,"{2018,2019,2020}","{402212,390996,406150}","{Premier}"
"TERAIN","Terrain","TXD26","AWD","5SA",0,0,0,1,0,0,0,0,0,0,0,0,1,3,0,1,"{2018,2019,2020}","{390891,406837,398587}","{Denali}"
"EXPVAN","Express Cargo Van","CG23705","RWD","1WT",0,0,0,0,0,0,0,0,0,1,0,0,1,1,0,1,"{2018,2019,2020}","{401469,395399,407927}","{NULL}"
"EXPVAN","Express Cargo Van","CG23405","RWD","1WT",0,0,0,0,0,0,0,0,0,1,0,0,1,132,8,-7,"{2018,2019,2020}","{395398,407926,401468}","{NULL}"
"ENVISN","Envision","4XU26","AWD","1SP",0,0,0,0,0,0,0,0,0,1,0,0,1,25,1,0,"{2018,2019,2020}","{404840,397511,391154}","{""Premium II""}"
"ENCORE","Encore","4JM76","AWD","1SH",0,0,0,0,0,0,0,0,1,0,0,0,1,4,0,1,"{2018,2019,2020}","{391874,398601,406438}","{""Sport Touring""}"
"CTS","CTS Sedan","6AH69","AWD","1SF",0,0,0,0,0,0,0,0,0,0,0,1,1,364,24,-23,"{2018,2019}","{391769,399994}","{""Luxury AWD""}"
"CT6","CT6","6KL69","AWD","1SF",0,0,0,0,0,0,1,0,0,0,0,0,1,135,9,-8,"{2018}","{390675}","{""Premium Luxury AWD""}"
"CAMCON","Camaro","1AL67","RWD","ZL1",0,0,1,0,0,0,0,0,0,0,0,0,1,80,5,-4,"{2018}","{391530}","{ZL1}"
"VET","Corvette","1YW07","RWD","2LT",0,0,0,0,0,0,0,0,0,1,0,0,1,281,18,-17,"{2018,2019}","{391058,397577}","{""Grand Sport 2LT""}"
"VET","Corvette","1YW07","RWD","3LT",0,0,0,0,0,0,1,0,0,0,0,0,1,199,13,-12,"{2018,2019}","{391060,397579}","{""Grand Sport 3LT""}"
"CAMCON","Camaro","1AH67","RWD","2LT",0,0,0,1,0,0,0,0,0,0,0,0,1,1,0,1,"{2018,2019,2020}","{401412,407667,391527}","{2LT}"
"CAM","Camaro","1AL37","RWD","ZL1",0,0,1,0,0,0,0,0,0,0,0,0,1,79,5,-4,"{2018}","{391524}","{ZL1}"
"CAM","Camaro","1AL37","RWD","1SE",0,0,0,0,0,0,1,0,0,0,0,0,1,52,3,-2,"{2019,2020}","{401410,407665}","{ZL1}"
"CAM","Camaro","1AK37","RWD","2SS",0,0,0,1,0,0,0,0,0,0,0,0,1,213,14,-13,"{2018,2019,2020}","{391523,407664,401409}","{2SS}"
"BOLTEV","Bolt EV","1FC48","FWD","2LZ",0,0,0,1,0,0,0,0,0,0,0,0,1,33,2,-1,"{2018,2019,2020}","{397451,409188,399470}","{Premier}"
"BLAZER","Blazer","1NT26","AWD","0HD",0,0,0,0,0,0,0,0,0,0,0,1,1,92,6,-5,"{2019,2020}","{403403,408204}","{Premier}"
"ACADIA","Acadia","TNM26","AWD","4SB",0,0,0,0,0,0,1,0,0,0,0,0,1,3,0,1,"{2018,2019}","{393198,398823}","{SLT}"
"ATS","ATS Sedan","6AC69","AWD","1SF",0,1,0,0,0,0,0,0,0,0,0,0,1,48,3,-2,"{2018}","{392405}","{""Luxury AWD""}"
"ACADIA","Acadia","TNC26","FWD","3SB",0,0,0,0,0,0,0,0,0,0,1,0,1,27,1,0,"{2018,2019}","{398816,393191}","{SLE}"
"SONIC","Sonic","1JV69","FWD","1SD",0,0,0,0,0,0,1,0,0,0,0,0,1,244,16,-15,"{2018,2019,2020}","{400217,393292,406841}","{LT}"
"SONIC","Sonic","1JV48","FWD","1SD",0,0,0,0,0,0,1,0,0,0,0,0,1,5,0,1,"{2018,2019,2020}","{393297,400222,406846}","{LT}"
