"alloc_group","cab","drive","box","peg","jan","feb","mar","apr","may","jun","jul","aug","sep","oct","nov","dec","total_sales","days_og","min_sales","diff","model_year","model","chrome_style_id","trim_level","model_code"
"Sierra 1500 Crew","Crew","4WD","Short","4SA",10,7,7,6,6,7,7,13,11,5,10,15,104,364,24,80,"{2018,2019,2020}","{""Sierra 1500""}","{391198,399821,406640}","{SLT}","{TK10543,TK15543,TK10543}"
"Silverado 1500 Crew","Crew","4WD","Short","1LT",0,3,8,6,7,3,10,10,9,10,11,11,88,365,24,64,"{2018,2019,2020}","{""Silverado 1500""}","{391725,399780,406483}","{LT}","{CK10543,CK15543,CK10543}"
"Silverado 1500 Double","Double","4WD","Standard","1LT",0,0,5,1,13,7,2,4,10,11,11,3,67,365,24,43,"{2018,2019,2020}","{""Silverado 1500"",""Silverado 1500 LD""}","{391719,398576,399773,406477}","{LT}","{CK15753,CK10753,CK10753,CK15753}"
"Silverado 1500 Crew","Crew","4WD","Short","1LZ",0,3,1,6,4,3,5,11,9,3,6,5,56,365,24,32,"{2018,2019,2020}","{""Silverado 1500""}","{391727,399783,406486}","{LTZ}","{CK10543,CK10543,CK15543}"
"Sierra 1500 Crew","Crew","4WD","Short","5SA",2,2,4,5,5,2,4,6,3,5,4,8,50,365,24,26,"{2018,2019,2020}","{""Sierra 1500""}","{391199,399822,406642}","{Denali}","{TK10543,TK15543,TK10543}"
"Silverado 1500 Crew","Crew","4WD","Short","2LT",6,7,2,2,5,3,4,3,1,6,5,1,45,363,24,21,"{2018,2019,2020}","{""Silverado 1500""}","{391726,399782,406485}","{LT,""LT Trail Boss""}","{CK15543,CK10543,CK10543}"
"Sierra 1500 Crew","Crew","4WD","Short","4SB",2,0,2,1,6,3,3,6,2,9,6,2,42,313,20,22,"{2019,2020}","{""Sierra 1500""}","{401864,406641}","{AT4}","{TK10543,TK10543}"
"Silverado 1500 Crew","Crew","4WD","Short","1SP",1,2,5,3,1,4,1,2,2,5,4,7,37,365,24,13,"{2019,2020}","{""Silverado 1500""}","{399781,406484}","{RST}","{CK10543,CK10543}"
"Silverado 1500 Double","Double","4WD","Standard","2LT",9,5,3,4,0,1,0,0,0,1,0,3,26,295,19,7,"{2018,2019}","{""Silverado 1500"",""Silverado 1500 LD""}","{391720,398577,399775}","{LT,""LT Trail Boss""}","{CK15753,CK10753,CK15753}"
"COLRDO","Crew","4WD","Short","4Z7",0,0,2,8,3,0,3,4,1,2,1,1,25,330,22,3,"{2018,2019,2020}","{Colorado}","{392508,400013,406959}","{""4WD Z71""}","{12P43,12P43,12P43}"
"Silverado 1500 Crew","Crew","4WD","Short","1CX",0,0,0,2,0,6,1,3,1,3,2,1,19,278,18,1,"{2018,2019,2020}","{""Silverado 1500""}","{391739,399778,406481}","{Custom}","{CK10543,CK10543,CK15543}"
"Silverado 1500 Crew","Crew","4WD","Short","2CX",0,0,0,6,0,1,0,2,1,0,2,4,16,315,21,-5,"{2019,2020}","{""Silverado 1500""}","{399779,406482}","{""Custom Trail Boss""}","{CK10543,CK10543}"
"Sierra 1500 Crew","Crew","4WD","Standard","4SA",0,3,0,0,3,1,2,1,0,0,0,3,13,183,12,1,"{2018,2019,2020}","{""Sierra 1500""}","{391202,399825,406645}","{SLT}","{TK15743,TK10743,TK10743}"
"Silverado 1500 Crew","Crew","4WD","Standard","1LT",0,0,0,1,2,0,1,0,0,0,3,5,12,244,16,-4,"{2018,2019,2020}","{""Silverado 1500""}","{391732,399788,406491}","{LT}","{CK10743,CK15743,CK10743}"
"CANYON","Crew","4WD","Short","4LT",3,0,0,0,1,2,0,1,1,0,1,1,10,281,18,-8,"{2018,2019,2020}","{Canyon}","{393139,400762,407059}","{""4WD SLT""}","{T2P43,T2P43,T2P43}"
"Silverado 1500 Crew","Crew","4WD","Short","3LZ",0,3,0,1,0,0,1,1,0,1,1,1,9,275,18,-9,"{2018,2019,2020}","{""Silverado 1500""}","{391729,399784,406487}","{""High Country""}","{CK15543,CK10543,CK10543}"
"Silverado 1500 Double","Double","4WD","Standard","1SP",0,0,1,0,2,2,1,1,1,0,0,1,9,268,17,-8,"{2019,2020}","{""Silverado 1500""}","{399774,406478}","{RST}","{CK10753,CK10753}"
"Sierra 1500 Double","Double","4WD","Standard","3SA",1,0,3,0,0,0,0,0,2,0,0,0,6,200,13,-7,"{2018,2019,2020}","{""Sierra 1500"",""Sierra 1500 Limited""}","{391194,398796,399817,406634}","{SLE}","{TK15753,TK10753,TK15753,TK10753}"
"Sierra 1500 Double","Double","4WD","Standard","4SA",0,0,0,0,3,1,1,0,0,0,0,0,5,181,12,-7,"{2018,2019,2020}","{""Sierra 1500""}","{391195,399818,406636}","{SLT}","{TK15753,TK10753,TK10753}"
"Silverado 1500 Double","Double","4WD","Standard","2CX",0,0,0,0,0,3,2,0,0,0,0,0,5,71,4,1,"{2019,2020}","{""Silverado 1500""}","{399772,406476}","{""Custom Trail Boss""}","{CK10753,CK10753}"
"COLRDO","Crew","4WD","Short","4ZR",0,0,1,1,0,0,0,0,1,1,1,0,5,280,18,-13,"{2018,2019,2020}","{Colorado}","{392509,400014,406962}","{""4WD ZR2""}","{12P43,12P43,12P43}"
"Silverado 1500 Double","Double","4WD","Standard","1WT",0,0,2,1,0,1,0,0,0,0,0,0,4,56,3,1,"{2018,2019,2020}","{""Silverado 1500"",""Silverado 1500 LD""}","{391716,398574,399770,406474}","{""Work Truck""}","{CK15753,CK15753,CK10753,CK10753}"
"Sierra 1500 Crew","Crew","4WD","Short","3SA",0,0,1,0,0,0,2,0,0,0,0,1,4,224,14,-10,"{2018,2019,2020}","{""Sierra 1500""}","{391197,399820,406639}","{SLE}","{TK15543,TK10543,TK10543}"
"Silverado 1500 Crew","Crew","4WD","Standard","1LZ",0,0,0,2,0,0,1,0,0,0,0,1,4,20,1,3,"{2018,2019,2020}","{""Silverado 1500""}","{391734,399791,406494}","{LTZ}","{CK10743,CK15743,CK10743}"
"Silverado 1500 Double","Double","4WD","Standard","1CX",0,0,0,1,0,0,2,1,0,0,0,0,4,179,11,-7,"{2018,2019,2020}","{""Silverado 1500"",""Silverado 1500 LD""}","{391718,399771,403472,406475}","{Custom}","{CK10753,CK10753,CK15753,CK15753}"
"Silverado 1500 Regular","Regular","RWD","Long","1WT",0,0,0,0,1,0,0,2,0,0,0,0,3,321,21,-18,"{2018,2019,2020}","{""Silverado 1500""}","{391690,399751,406455}","{""Work Truck""}","{CC10903,CC15903,CC10903}"
"CANYON","Crew","4WD","Short","4SD",0,1,0,0,1,0,0,0,0,0,1,0,3,225,15,-12,"{2018,2019,2020}","{Canyon}","{393135,400763,407060}","{""4WD Denali""}","{T2P43,T2P43,T2P43}"
"Sierra 1500 Regular","Regular","4WD","Long","1SA",0,0,0,1,0,0,0,0,0,0,0,1,2,108,7,-5,"{2018,2019,2020}","{""Sierra 1500""}","{391191,399814,406632}","{NULL}","{TK10903,TK15903,TK10903}"
"Silverado 1500 Crew","Crew","4WD","Standard","2LT",1,0,0,0,0,0,0,0,1,0,0,0,2,24,1,1,"{2018,2019,2020}","{""Silverado 1500""}","{391733,399790,406493}","{LT,""LT Trail Boss""}","{CK10743,CK15743,CK10743}"
"Silverado 1500 Crew","Crew","4WD","Standard","1WT",0,1,0,0,0,0,0,0,0,0,0,0,1,1,0,1,"{2018,2019,2020}","{""Silverado 1500""}","{391730,399785,406488}","{""Work Truck""}","{CK15743,CK10743,CK10743}"
"Silverado 1500 Crew","Crew","4WD","Standard","2LZ",0,1,0,0,0,0,0,0,0,0,0,0,1,1,0,1,"{2018}","{""Silverado 1500""}","{391735}","{LTZ}","{CK15743}"
"Silverado 1500 Crew","Crew","4WD","Standard","3LZ",0,0,0,0,0,0,1,0,0,0,0,0,1,12,0,1,"{2018,2019,2020}","{""Silverado 1500""}","{391736,399792,406495}","{""High Country""}","{CK15743,CK10743,CK10743}"
"Silverado 1500 Crew","Crew","4WD","Short","2LZ",0,0,0,1,0,0,0,0,0,0,0,0,1,116,7,-6,"{2018}","{""Silverado 1500""}","{391728}","{LTZ}","{CK15543}"
"Sierra 1500 Regular","Regular","RWD","Long","1SA",0,0,0,1,0,0,0,0,0,0,0,0,1,298,19,-18,"{2018,2019,2020}","{""Sierra 1500""}","{391162,399795,406619}","{NULL}","{TC15903,TC10903,TC10903}"
"Sierra 1500 Crew","Crew","4WD","Standard","5SA",0,0,0,0,0,0,0,0,0,0,0,1,1,9,0,1,"{2018,2019,2020}","{""Sierra 1500""}","{391203,399826,406647}","{Denali}","{TK10743,TK15743,TK10743}"
"Sierra 1500 Crew","Crew","4WD","Short","3SB",0,0,0,0,0,0,0,0,0,0,0,1,1,4,0,1,"{2020}","{""Sierra 1500""}","{406650}","{Elevation}","{TK10543}"
"COLRDO","Crew","4WD","Standard","4Z7",0,0,0,0,0,0,0,0,0,0,1,0,1,77,5,-4,"{2018,2019,2020}","{Colorado}","{392512,400017,406961}","{""4WD Z71""}","{12V43,12V43,12V43}"
"Silverado 1500 Regular","Regular","4WD","Long","1WT",0,0,0,0,0,0,0,0,1,0,0,0,1,10,0,1,"{2018,2019,2020}","{""Silverado 1500""}","{391712,399769,406473}","{""Work Truck""}","{CK15903,CK10903,CK10903}"
"Silverado 1500 Crew","Crew","4WD","Standard","1CX",0,0,0,0,0,0,0,0,0,0,0,1,1,292,19,-18,"{2018,2019,2020}","{""Silverado 1500""}","{391740,399786,406489}","{Custom}","{CK15743,CK10743,CK10743}"
"COLRDO","Crew","4WD","Short","4LT",0,0,0,0,1,0,0,0,0,0,0,0,1,38,2,-1,"{2018,2019,2020}","{Colorado}","{392507,400012,406956}","{""4WD LT""}","{12N43,12N43,12N43}"
"Silverado 1500 Crew","Crew","4WD","Standard","1SP",0,0,0,0,0,0,0,0,0,0,0,1,1,1,0,1,"{2019,2020}","{""Silverado 1500""}","{399789,406492}","{RST}","{CK10743,CK10743}"
