"the_year","part_number","string_agg","count"
2019,"23397553","CADILLAC-ESCALADE,CADILLAC-ESCALADE ESV",2
2019,"23508429","CADILLAC-ESCALADE,CHEVROLET-SUBURBAN,CHEVROLET-TAHOE,GMC-YUKON XL",5
2019,"32244983","VOLVO-XC90",1
2019,"56101-0E242","TOYOTA-HIGHLANDER",1
2019,"56101-0E251","TOYOTA-HIGHLANDER",1
2019,"56101-0E390","LEXUS-RX 350",1
2019,"68088537AA","JEEP-WRANGLER JK UNLIMITED",1
2019,"68275584AD","RAM-1500",3
2019,"68338086AB","JEEP-CHEROKEE",1
2019,"68368276AC","DODGE-GRAND CARAVAN",1
2019,"68425376AA","JEEP-RENEGADE",1
2019,"727005AA0B","NISSAN-MURANO",1
2019,"727006CA1A","NISSAN-ALTIMA",2
2019,"727009BM0A","NISSAN-FRONTIER",2
2019,"727009UA0A","NISSAN-MURANO",1
2019,"727129NA0B","NISSAN-PATHFINDER (3.5L)",2
2019,"73111-T3W-A21","HONDA-ACCORD HYBRID",1
2019,"73111-T7W-A21","HONDA-HR-V",1
2019,"73111-TG7-A03","HONDA-RIDGELINE",1
2019,"73111-TG7-A33","HONDA-PILOT",1
2019,"73111-TG7-A53","HONDA-PILOT",2
2019,"73111-TK8-A71","HONDA-ODYSSEY",4
2019,"84209828","CHEVROLET-SILVERADO 1500,CHEVROLET-SILVERADO 1500 LD",2
2019,"84250367","CHEVROLET-SILVERADO 1500,GMC-SIERRA 1500,GMC-SIERRA 3500HD DIESEL,GMC-SIERRA DENALI 2500",4
2019,"84330030","CHEVROLET-EQUINOX",2
2019,"84352103","CADILLAC-ESCALADE,CADILLAC-ESCALADE ESV,CHEVROLET-SUBURBAN,CHEVROLET-TAHOE,GMC-YUKON,GMC-YUKON XL",17
2019,"84352104","CADILLAC-ESCALADE,CADILLAC-ESCALADE ESV",4
2019,"84398043","GMC-SIERRA 1500,GMC-SIERRA 2500HD",3
2019,"84577632","CADILLAC-XT5",1
2019,"84593337","CHEVROLET-SILVERADO 1500",3
2019,"CJ5Z-7803100-A","FORD-ESCAPE",1
2019,"DW1015GBNOEE","CHEVROLET-CORSICA",1
2019,"DW1057GBNOEE","DODGE-SPIRIT",1
2019,"DW1105GBNOEE","BUICK-LESABRE",1
2019,"DW1168GBNFYG","CHEVROLET-S-10 PICKUP",1
2019,"DW1168GBNOEE","ANY-ANY",1
2019,"DW1216GBNMSV","CHRYSLER-CONCORDE",1
2019,"DW1217GBYOEE","CHEVROLET-TAHOE 4WD,GMC-SIERRA 3500 CREW CAB",3
2019,"DW1256GBNOEE","FORD-F-150,FORD-F-150 (4.6L),FORD-F150 PU",3
2019,"DW1256GBNPPG","FORD-F-150",2
2019,"DW1297GBNAPT","",1
2019,"DW1297GBNOEE","BUICK-CENTURY",1
2019,"DW1317GBYOEE","FORD-RANGER",1
2019,"DW1317GBYPPG","MAZDA-TRUCK",1
2019,"DW1341GBYCMX","CHEVROLET-SILVERADO 1500,CHEVROLET-SILVERADO 1500HD,CHEVROLET-SUBURBAN",12
2019,"DW1341GBYMSV","CHEVROLET-AVALANCHE,CHEVROLET-K10 PICKUP 4 WH",2
2019,"DW1341GBYOEE","CHEVROLET-1500 PICKUP,CHEVROLET-K10/SILVERADO,CHEVROLET-SILVERADO 1500,CHEVROLET-SILVERADO 2500,CHEVROLET-SUBURBAN,CHEVROLET-TAHOE,CHEVROLET-TAHOE 4WD,GMC-YUKON XL",12
2019,"DW1375GBNOEE","BUICK-LESABRE",1
2019,"DW1388GBNMSV","CADILLAC-DEVILLE",1
2019,"DW1466GBNPPG","CHRYSLER-300M",1
2019,"DW1474GBYOEE","FORD-EXPLORER",1
2019,"DW1489GBNPPG","PONTIAC-VIBE",2
2019,"DW1512GBNOEE","DODGE-RAM 1500",1
2019,"DW1528GTYOEE","FORD-TAURUS",1
2019,"DW1531GTYOEE","CHEVROLET-MALIBU",1
2019,"DW1549GBYCMX","CHEVROLET-SILVERADO 1500,GMC-SIERRA 1500",2
2019,"DW1549GBYOEE","CADILLAC-ESCALADE ESV,CHEVROLET-AVALANCHE,CHEVROLET-K10/SILVERADO,CHEVROLET-SILVERADO,CHEVROLET-SILVERADO 1500,CHEVROLET-SILVERADO 2500HD,CHEVROLET-SILVERADO CLASSIC 1500,GMC-4WD 3/4 PU,GMC-SIERRA 1500 CLASSIC,GMC-YUKON",12
2019,"DW1549GTYOEE","CHEVROLET-K10/SILVERADO,CHEVROLET-SUBURBAN",2
2019,"DW1551GBYOEE","FORD-F-150",1
2019,"DW1579GBYOEE","FORD-ESCAPE",1
2019,"DW1579GTYOEE","",1
2019,"DW1580GBNCMX","CHEVROLET-EXPRESS CARGO VAN,CHEVROLET-EXPRESS CUTAWAY",2
2019,"DW1580GBNOEE","CHEVROLET-EXPRESS CARGO V,CHEVROLET-EXPRESS CARGO VAN,CHEVROLET-EXPRESS CUTAWAY",4
2019,"DW1582GBNOEE","FORD-EXPEDITION",1
2019,"DW1583GBYOEE","CHEVROLET-EQUINOX",1
2019,"DW1584GBNOEE","CHEVROLET-TRAILBLAZER,GMC-ENVOY",4
2019,"DW1584GBNPPG","BUICK-RAINIER,GMC-ENVOY",4
2019,"DW1585GTYOEE","GMC-ENVOY XL",1
2019,"DW1590GBNAPT","DODGE-DAKOTA",1
2019,"DW1591GBYOEE","JEEP-GRAND CHEROKEE",1
2019,"DW1603GBYPPG","PONTIAC-G6",1
2019,"DW1603GTYOEE","PONTIAC-G6",1
2019,"DW1605GTYMSV","CHEVROLET-COBALT LT COUPE",1
2019,"DW1606GBYOEE","CHEVROLET-COBALT",1
2019,"DW1606GBYPPG","CHEVROLET-COBALT",1
2019,"DW1609GBYOEE","FORD-MUSTANG (4.6L)",1
2019,"DW1613GTYOEE","CHEVROLET-EQUINOX",1
2019,"DW1622GBYPPG","FORD-FUSION",1
2019,"DW1629GTYPPG","PONTIAC-G6",1
2019,"DW1634GBYOEE","CADILLAC-ANY CADILLAC,CADILLAC-DTS",2
2019,"DW1637GTYMSV","CHEVROLET-HHR LS SEDAN",1
2019,"DW1637GTYOEE","CHEVROLET-HHR LS SEDAN",1
2019,"DW1638GBYOEE","BUICK-LUCERNE",2
2019,"DW1640GBYOEE","CHEVROLET-IMPALA",4
2019,"DW1640GBYPPG","CHEVROLET-IMPALA",4
2019,"DW1641GTYPPG","CHEVROLET-IMPALA",1
2019,"DW1651GBYLOF","PONTIAC-GRAND PRIX",2
2019,"DW1651GBYOEE","PONTIAC-GRAND PRIX",1
2019,"DW1653GBYLOF","FORD-EDGE",1
2019,"DW1654GTYOEE","FORD-EDGE",1
2019,"DW1658GBYCMX","CHEVROLET-K10 PICKUP,CHEVROLET-SILVERADO 1500,CHEVROLET-SILVERADO 3500HD,CHEVROLET-SUBURBAN,GMC-SIERRA 1500,GMC-SIERRA 2500HD,GMC-YUKON XL",13
2019,"DW1658GBYOEE","CADILLAC-ESCALADE,CHEVROLET-AVALANCHE,CHEVROLET-SILVERADO 1500,CHEVROLET-SILVERADO 2500HD,CHEVROLET-SUBURBAN,CHEVROLET-TAHOE,CHEVROLET-TAHOE 4WD,GMC-SIERRA 1500,GMC-SIERRA 2500HD,GMC-YUKON XL",39
2019,"DW1658GBYPPG","CHEVROLET-K10 PICKUP 4 WH,CHEVROLET-SILVERADO 1500,CHEVROLET-SILVERADO 2500HD DIESEL,GMC-SIERRA 1500,GMC-YUKON XL",6
2019,"DW1658GTYCMX","CHEVROLET-SILVERADO 2500HD,GMC-SIERRA 1500",2
2019,"DW1658GTYOEE","CHEVROLET-SILVERADO 1500,CHEVROLET-SILVERADO 3500HD,CHEVROLET-SUBURBAN,GMC-SIERRA 1500,GMC-YUKON XL",8
2019,"DW1659GBYOEE","CADILLAC-ESCALADE EXT,GMC-YUKON XL",2
2019,"DW1659GBYPPG","CHEVROLET-SUBURBAN",1
2019,"DW1659GTYMSV","GMC-SIERRA 1500",2
2019,"DW1659GTYOEE","CHEVROLET-K10 PICKUP 4 WH",1
2019,"DW1668GBNMSV","JEEP-WRANGLER",1
2019,"DW1668GTNOEE","JEEP-WRANGLER JK UNLIMITED",1
2019,"DW1668GTNPPG","JEEP-WRANGLER,JEEP-WRANGLER UNLIMITED",2
2019,"DW1681GTYOEE","BUICK-ENCLAVE,CHEVROLET-TRAVERSE",5
2019,"DW1681GTYPPG","BUICK-ENCLAVE",1
2019,"DW1690GBYOEE","MERCURY-SABLE",1
2019,"DW1691GBYPPG","FORD-TAURUS X",2
2019,"DW1704GBNOEE","JEEP-GRAND CHEROKEE",1
2019,"DW1705GBYOEE","JEEP-CHEROKEE",1
2019,"DW1708GTNOEE","DODGE-GRAND CARAVAN",1
2019,"DW1712GTYMSV","CHEVROLET-TRAVERSE,GMC-ACADIA,SATURN-OUTLOOK",24
2019,"DW1712GTYOEE","BUICK-ENCLAVE,CHEVROLET-TRAVERSE,GMC-ACADIA",11
2019,"DW1712GTYPPG","BUICK-ENCLAVE,CHEVROLET-TRAVERSE",6
2019,"DW1713GTYPPG","GMC-ACADIA",2
2019,"DW1719GBNOEE","MERCEDES-BENZ-SPRINTER VANS",1
2019,"DW1723GTNOEE","JEEP-LIBERTY",1
2019,"DW1725GBYPPG","FORD-FLEX",1
2019,"DW1746GTYLOF","CHEVROLET-MALIBU",1
2019,"DW1746GTYOEE","CHEVROLET-MALIBU,SATURN-AURA",4
2019,"DW1746GTYPPG","CHEVROLET-MALIBU,SATURN-AURA",3
2019,"DW1747GBYCMX","FORD-F-150 (3.5L)",1
2019,"DW1747GBYOEE","FORD-F-150",3
2019,"DW1747GBYPPG","FORD-F-150",2
2019,"DW1747GTYOEE","FORD-F150,FORD-F-150",3
2019,"DW1749GBYCAR","FORD-F-150",2
2019,"DW1749GTYCAR","FORD-F-150",2
2019,"DW1761GBYOEE","CHEVROLET-CAPTIVA SPORT",1
2019,"DW1761GTYOEE","SATURN-VUE (3.6L)",1
2019,"DW1768GBYCMX","LINCOLN-MKZ",1
2019,"DW1782GBYOEE","FORD-FUSION (3.0L)",1
2019,"DW1798GTYCMX","FORD-EXPEDITION",1
2019,"DW1817GTYOEE","CADILLAC-SRX",1
2019,"DW1818GBNOEE","CHRYSLER-TOWN & COUNTRY,DODGE-GRAND CARAVAN",2
2019,"DW1818GBNPPG","DODGE-GRAND CARAVAN",1
2019,"DW1818GTNCMX","DODGE-GRAND CARAVAN",1
2019,"DW1818GTNOEE","CHRYSLER-TOWN & COUNTRY,DODGE-GRAND CARAVAN",2
2019,"DW1824GBYOEE","GMC-TERRAIN",1
2019,"DW1824GTYOEE","CHEVROLET-EQUINOX,GMC-TERRAIN",2
2019,"DW1829GBYCMX","FORD-FUSION",1
2019,"DW1838GTYOEE","FORD-F-150",1
2019,"DW1839GBYOEE","JEEP-GRAND CHEROKEE",1
2019,"DW1843GGYOEE","FORD-EXPLORER",1
2019,"DW1843GGYPPG","FORD-EXPLORER",1
2019,"DW1844GBYOEE","FORD-EXPLORER (3.5L)",1
2019,"DW1851GBYOEE","FORD-F-350 SUPER DUTY,FORD-SUPER DUTY F-250 (6.2L)",2
2019,"DW1851GTYOEE","FORD-SUPER DUTY F-550 DRW",1
2019,"DW1852GTYPPG","BUICK-REGAL",1
2019,"DW1855GBYMSV","BUICK-LACROSSE",1
2019,"DW1862GBNOEE","FORD-EXPEDITION EL (5.4L)",1
2019,"DW1864GBYMSV","FORD-FLEX",1
2019,"DW1880GTNCMX","DODGE-JOURNEY,DODGE-JOURNEY (3.6L)",2
2019,"DW1881GTNMOP","JEEP-WRANGLER UNLIMITED",2
2019,"DW1883GBYCLXC","CADILLAC-ESCALADE",1
2019,"DW1883GBYOEE","CADILLAC-ESCALADE",2
2019,"DW1883GTYCLXC","CADILLAC-ESCALADE",1
2019,"DW1892GTYOEE","DODGE-CHARGER",1
2019,"DW1902GTYMSV","GMC-TERRAIN",1
2019,"DW1917GBYOEE","BUICK-LUCERNE",1
2019,"DW1925GBYOEE","CADILLAC-SEVILLE",1
2019,"DW1927GBYOEE","FORD-TAURUS",1
2019,"DW1931GTYOEE","GMC-TERRAIN",1
2019,"DW1932GTYCMX","CHEVROLET-EQUINOX",2
2019,"DW1932GTYOEE","CHEVROLET-EQUINOX,GMC-TERRAIN",12
2019,"DW1945GBYOEE","CHEVROLET-SONIC",1
2019,"DW1949GTYCMX","FORD-FUSION,FORD-FUSION (2.5L)",2
2019,"DW1949GTYOEE","FORD-FUSION",1
2019,"DW1950GTYOEE","FORD-FUSION",1
2019,"DW1953GTYOEE","DODGE-DART",1
2019,"DW1955GTYOEE","DODGE-DART (2.4L)",1
2019,"DW1958GGYPPG","FORD-EXPLORER",1
2019,"DW1960GBYCMX","CHEVROLET-CRUZE",3
2019,"DW1960GBYOEE","CHEVROLET-CRUZE,CHEVROLET-CRUZE (1.4L)",6
2019,"DW1969GBYOEE","CADILLAC-XTS",2
2019,"DW1985GBYOEE","CADILLAC-ATS",1
2019,"DW1989GTNOEE","CHEVROLET-EXPRESS CUTAWAY",1
2019,"DW1995GTYOEE","BUICK-ENCORE",1
2019,"DW2003GTYPPG","CHEVROLET-TRAX",1
2019,"DW2007GBNOEE","RAM-2500",1
2019,"DW2007GTNOEE","RAM-2500",1
2019,"DW2009GTYFYG","CHEVROLET-EQUINOX",2
2019,"DW2009GTYOEE","GMC-TERRAIN",2
2019,"DW2009GTYPPG","CHEVROLET-EQUINOX,GMC-TERRAIN",3
2019,"DW2021GTNMSV","CHRYSLER-200",1
2019,"DW2024GTYOEE","CHEVROLET-IMPALA",3
2019,"DW2028GBYOEE","JEEP-GRAND CHEROKEE",1
2019,"DW2029GTYOEE","DODGE-DURANGO",1
2019,"DW2035GTYPPG","CADILLAC-SRX",1
2019,"DW2040GBYOEE","CHEVROLET-SILVERADO 2500HD",1
2019,"DW2040GTYFYG","CHEVROLET-SILVERADO 1500,CHEVROLET-SILVERADO 2500HD,CHEVROLET-SILVERADO 2500HD (PRE-SEP,CHEVROLET-SILVERADO 3500HD,GMC-SIERRA 1500,GMC-SIERRA 3500HD",20
2019,"DW2040GTYOEE","CHEVROLET-SILVERADO,CHEVROLET-SILVERADO 1500,CHEVROLET-SILVERADO 2500HD,GMC-SIERRA,GMC-SIERRA 1500,GMC-SIERRA 2500HD,GMC-SIERRA DENALI 1500",61
2019,"DW2040GTYPPG","CHEVROLET-SILVERADO 1500,GMC-SIERRA 1500",3
2019,"DW2041GTYCMX","CHEVROLET-SILVERADO 2500HD BUILT AF,GMC-SIERRA 1500,GMC-SIERRA 2500HD,GMC-SIERRA 3500HD,GMC-SIERRA 3500HD DIESEL",7
2019,"DW2041GTYOEE","CHEVROLET-SILVERADO 1500,CHEVROLET-SILVERADO 2500HD,CHEVROLET-SILVERADO 3500HD,GMC-SIERRA 1500,GMC-SIERRA 2500HD,GMC-SIERRA 2500HD DIESEL",20
2019,"DW2066GTYOEE","FORD-F-150",1
2019,"DW2074GTYMOP","RAM-1500",1
2019,"DW2077GTNGDN","JEEP-COMPASS",1
2019,"DW2077GTNOEE","JEEP-COMPASS",1
2019,"DW2080GBYMSV","FORD-FLEX",1
2019,"DW2081GBYMSV","CHEVROLET-SONIC",1
2019,"DW2082GTYOEE","CHEVROLET-TRAVERSE",5
2019,"DW2084GTYOEE","BUICK-ENCLAVE",1
2019,"DW2084GTYPPG","BUICK-ENCLAVE",2
2019,"DW2086GTYOEE","FORD-C-MAX ENERGI",1
2019,"DW2087GTYPPG","FORD-FUSION",1
2019,"DW2088GTNOEE","DODGE-AVENGER",1
2019,"DW2092GTYPPG","BUICK-LACROSSE",1
2019,"DW2097GTYOEE","RAM-1500",1
2019,"DW2097GTYPPG","RAM-1500",1
2019,"DW2102GTYGDN","JEEP-CHEROKEE (2.4L)",1
2019,"DW2104GTYPPG","JEEP-CHEROKEE",1
2019,"DW2122GTYMSV","BUICK-ENCORE",1
2019,"DW2123GTYOEE","DODGE-JOURNEY",1
2019,"DW2124GTYPPG","BUICK-ENCORE",1
2019,"DW2134GBYOEE","CHEVROLET-SUBURBAN,CHEVROLET-TAHOE",5
2019,"DW2144GTYOEE","LINCOLN-NAVIGATOR L",1
2019,"DW2145GTYMSV","CHEVROLET-IMPALA",1
2019,"DW2145GTYPPG","CHEVROLET-IMPALA",1
2019,"DW2147GTYMSV","FORD-MUSTANG",1
2019,"DW2153GTYOEE","FORD-SUPER DUTY F-350 DIESEL (",1
2019,"DW2153GTYPPG","FORD-F-150 (5.0L)",1
2019,"DW2154GTYLOF","FORD-F-150",1
2019,"DW2154GTYOEE","FORD-F-150",1
2019,"DW2159GTYFYG","CHEVROLET-IMPALA",1
2019,"DW2159GTYOEE","CHEVROLET-IMPALA",1
2019,"DW2164GTYMSV","CHRYSLER-200",1
2019,"DW2165GTYMSV","CHEVROLET-COLORADO",2
2019,"DW2165GTYOEE","CHEVROLET-COLORADO,GMC-CANYON",6
2019,"DW2165GTYPPG","GMC-CANYON",1
2019,"DW2166GTYMSV","GMC-CANYON",1
2019,"DW2166GTYPPG","CHEVROLET-COLORADO",1
2019,"DW2176GTYOEE","CHRYSLER-300 (3.6L)",1
2019,"DW2177GTYOEE","CHRYSLER-300 (3.6L)",1
2019,"DW2192GTYOEE","DODGE-DART",1
2019,"DW2194GBYMSV","FORD-EDGE",1
2019,"DW2194GBYOEE","FORD-EDGE",1
2019,"DW2195GBYMSV","FORD-EDGE",1
2019,"DW2198GBYMSV","CHEVROLET-SUBURBAN,CHEVROLET-TAHOE",2
2019,"DW2198GBYOEE","GMC-YUKON,GMC-YUKON XL",3
2019,"DW2215GTNOEE","FORD-ESCAPE",1
2019,"DW2220GTYOEE","DODGE-DURANGO",1
2019,"DW2227GTYOEE","CHEVROLET-MALIBU",1
2019,"DW2228GTYCMX","CHEVROLET-MALIBU",2
2019,"DW2228GTYOEE","CHEVROLET-MALIBU",5
2019,"DW2228GTYSEK","CHEVROLET-MALIBU",2
2019,"DW2229GTYOEE","CHEVROLET-MALIBU",1
2019,"DW2230GTYOEE","CHEVROLET-TRAX",1
2019,"DW2255GTYMOP","CHRYSLER-PACIFICA",1
2019,"DW2264GTYPPG","JEEP-CHEROKEE (3.2L)",1
2019,"DW2274GBYLOF","GMC-YUKON",1
2019,"DW2274GBYOEE","CHEVROLET-SUBURBAN,CHEVROLET-TAHOE,GMC-YUKON,GMC-YUKON XL",11
2019,"DW2275GBYLOF","GMC-YUKON",1
2019,"DW2286GTNOEE","CHEVROLET-SPARK",1
2019,"DW2292GTYMSV","JEEP-RENEGADE",1
2019,"DW2316GTYMSV","CHEVROLET-CRUZE",1
2019,"DW2316GTYOEE","CHEVROLET-CRUZE,CHEVROLET-CRUZE (1.4L)",6
2019,"DW2326GTYMOP","JEEP-CHEROKEE",1
2019,"DW2329GTYMOP","JEEP-CHEROKEE",1
2019,"DW2351GBYOEE","CADILLAC-XT5",1
2019,"DW2352GBYOEE","CADILLAC-XT5",1
2019,"DW2354GTYCAR","FORD-F-150,FORD-F-150 (3.5L)",2
2019,"DW2356GTYFYG","BUICK-LACROSSE",1
2019,"DW2368GTYMSV","CHEVROLET-EQUINOX",2
2019,"DW2368GTYOEE","CHEVROLET-EQUINOX",5
2019,"DW2369GTYOEE","CHEVROLET-EQUINOX",1
2019,"DW2403GTYCAR","FORD-EXPEDITION",1
2019,"DW2411GTYMSV","CHEVROLET-TRAVERSE",2
2019,"DW2413GTYOEE","CHEVROLET-TRAVERSE",1
2019,"DW2425GTYOEE","GMC-TERRAIN",1
2019,"DW2432GTYOEE","BUICK-ENCLAVE",3
2019,"DW2476GTNOEE","DODGE-GRAND CARAVAN",1
2019,"DW2498GTYOEE","CHEVROLET-SILVERADO 1500",2
2019,"DW2499GTYOEE","GMC-SIERRA 1500",1
2019,"DW3558GTYOEE","MAZDA-CX-5",1
2019,"DW753GBNMSV","ANY-ANY",1
2019,"DW848GBNOEE","CHEVROLET-SILVERAADO",1
2019,"FW173GTNOEE","WHEEL-WHEEL",1
2019,"FW2011GGNMSV","TOYOTA-4RUNNER",1
2019,"FW2012GBNOEE","NISSAN-PATHFINDER",1
2019,"FW2059GBNOEE","TOYOTA-COROLLA",1
2019,"FW2061GBNOEE","TOYOTA-SIENNA",1
2019,"FW2105GBNOEE","CHEVROLET-TRACKER",1
2019,"FW2105GGNOEE","CHEVROLET-TRACKER",1
2019,"FW2179GBNOEE","NISSAN-SENTRA",2
2019,"FW2184GGYOEE","HONDA-CIVIC",1
2019,"FW2216GBNMSV","HYUNDAI-SANTA FE",1
2019,"FW2267GBNOEE","TOYOTA-CAMRY",1
2019,"FW2333GGNOEE","SUBARU-FORESTER",1
2019,"FW2351GBNOEE","HONDA-ACCORD",1
2019,"FW2372GGNMSV","TOYOTA-4RUNNER",1
2019,"FW2380GBNOEE","HONDA-ELEMENT",1
2019,"FW2391GBNOEE","NISSAN-TITAN",1
2019,"FW2395GBNOEE","TOYOTA-SIENNA",1
2019,"FW2448GGYLOF","BMW-5 SERIES",1
2019,"FW2501GBNCMX","HONDA-ODYSSEY",1
2019,"FW2501GBNLOF","HONDA-ODYSSEY",1
2019,"FW2501GBNMSV","HONDA-ODYSSEY",2
2019,"FW2501GBNOEE","HONDA-ODYSSEY",1
2019,"FW2510GBNOEE","NISSAN-FRONTIER",1
2019,"FW2535GBNOEE","HONDA-RIDG",1
2019,"FW2537GBNPPG","HONDA-RIDGELINE",1
2019,"FW2562GBNOEE","HYUNDAI-SONATA",1
2019,"FW2584GTYOEE","HONDA-CIVIC SDN",1
2019,"FW2595GBNOEE","SUBARU-TRIBECA",1
2019,"FW2605GBNOEE","KIA-RIO",1
2019,"FW2625GBYOEE","TOYOTA-RAV4",2
2019,"FW2652GTYOEE","TOYOTA-FJ CRUISER",1
2019,"FW2707GBNCMX","HONDA-CR-V",1
2019,"FW2707GBNMSV","HONDA-CR-V",1
2019,"FW2707GBNOEE","HONDA-CR-V",3
2019,"FW2707GTNMSV","HONDA-CR-V",2
2019,"FW2707GTNOEE","HONDA-CR-V",4
2019,"FW2722GBYOEE","TOYOTA-TUNDRA",1
2019,"FW2724GBYOEE","TOYOTA-TUNDRA 4WD",1
2019,"FW2734GBNOEE","NISSAN-ALTIMA",1
2019,"FW2758GBNMSV","ACURA-TL",1
2019,"FW2795GTYOEE","VOLKSWAGEN-JETTA SEDAN",1
2019,"FW2816GBNOEE","HONDA-ACCORD 4DR EX-L",1
2019,"FW2863GTNMSV","SUBARU-IMPREZA WAGON",1
2019,"FW2870GGYOEE","TOYOTA-HIGHLANDER",1
2019,"FW2878GBNOEE","NISSAN-ROGUE",1
2019,"FW2878GTNOEE","NISSAN-ROGUE",1
2019,"FW2925GBNOEE","HONDA-PILOT",2
2019,"FW2926GBNFYG","HONDA-PILOT",1
2019,"FW2926GBNOEE","HONDA-PILOT",3
2019,"FW2926GBNPPG","HONDA-PILOT",1
2019,"FW3002GTYFYG","VOLKSWAGEN-JETTA SPORTWAGEN",1
2019,"FW3013GTNOEE","HONDA-FIT",1
2019,"FW3087GTYCMX","MAZDA-MAZDA3",1
2019,"FW3170GBNCMX","KIA-SORENTO",1
2019,"FW3170GBNOEE","KIA-SORENTO",1
2019,"FW3170GTNPPG","KIA-SORENTO",1
2019,"FW3171GBNOEE","KIA-SORENTO",1
2019,"FW3171GTNOEE","KIA-SORENTO",1
2019,"FW3183GTYMSV","TOYOTA-4RUNNER",1
2019,"FW3218GBYMSV","TOYOTA-TUNDRA 4WD TRUCK",2
2019,"FW3221GTNOEE","HYUNDAI-TUCSON",1
2019,"FW3223GTNMSV","HYUNDAI-TUCSON (2.4L)",1
2019,"FW3231GTYOEE","SUZUKI-KIZASHI",1
2019,"FW3250GBNMSV","HYUNDAI-SONATA",1
2019,"FW3253GBNOEE","HONDA-PILOT",2
2019,"FW3253GBNPPG","HONDA-PILOT",1
2019,"FW3260GTYOEE","TOYOTA-COROLLA",1
2019,"FW3282GTNOEE","HONDA-ODYSSEY",2
2019,"FW3283GBNOEE","HONDA-ODYSSEY",2
2019,"FW3284GBNOEE","HONDA-ODYSSEY",1
2019,"FW3311GTNPPG","NISSAN-JUKE",1
2019,"FW3349GBNLOF","KIA-OPTIMA",1
2019,"FW3349GBNOEE","KIA-OPTIMA",1
2019,"FW3379GBYPPG","NISSAN-QUEST",1
2019,"FW3404GBNOEE","HONDA-CIVIC SEDAN",1
2019,"FW3404GTNOEE","HONDA-CIVIC",3
2019,"FW3434GBNOEE","TOYOTA-TACOMA",1
2019,"FW3442GBYOEE","NISSAN-MURANO",1
2019,"FW3456GBNOEE","NISSAN-NV CARGO",1
2019,"FW3473GBYOEE","TOYOTA-CAMRY",1
2019,"FW3485GBYOEE","TOYOTA-CAMRY",1
2019,"FW3516GTYOEE","HONDA-CR-V",1
2019,"FW3516GTYPPG","HONDA-CR-V",4
2019,"FW3521GTYMSV","HONDA-CR-V",1
2019,"FW3521GTYOEE","HONDA-CR-V",2
2019,"FW3558GTYMSV","MAZDA-CX-5",1
2019,"FW3565GTNOEE","SUBARU-WRX (2.0L)",1
2019,"FW3579GBYOEE","NISSAN-PATHFINDER,NISSAN-PATHFINDER (3.5L)",2
2019,"FW3579GBYPPG","NISSAN-PATHFINDER (3.5L)",1
2019,"FW3607GTYOEE","BMW-3 SERIES",1
2019,"FW3619GTYPPG","VOLKSWAGEN-TOUAREG",1
2019,"FW3621GBYCLXC","NISSAN-ALTIMA",1
2019,"FW3621GBYMSV","NISSAN-ALTIMA",1
2019,"FW3637GBNOEE","ACURA-RDX",1
2019,"FW3647GBNFYG","HONDA-ACCORD SEDAN",1
2019,"FW3647GTNOEE","HONDA-ACCORD,HONDA-ACCORD HYBRID,HONDA-ACCORD SEDAN",3
2019,"FW3647GTNPPG","HONDA-ACCORD SEDAN",1
2019,"FW3648GBYPPG","HONDA-ACCORD SDN",1
2019,"FW3711GBNPPG","HYUNDAI-SONATA",1
2019,"FW3733GBYOEE","LEXUS-GS 350",1
2019,"FW3741GTNPPG","SUBARU-FORESTER",2
2019,"FW3748GTYOEE","TOYOTA-RAV4",1
2019,"FW3749GTNOEE","HONDA-CIVIC COUPE",1
2019,"FW3756GBNFYG","CHEVROLET-IMPALA",1
2019,"FW3756GBNOEE","HONDA-ACCORD",1
2019,"FW3757GBNOEE","HONDA-ACCORD SEDAN",1
2019,"FW3759GBYFYG","TOYOTA-SIENNA",1
2019,"FW3760GBYOEE","TOYOTA-SIENNA",1
2019,"FW3793GTYOEE","INFINITI-Q50",1
2019,"FW3838GTYOEE","TOYOTA-COROLLA",1
2019,"FW3854GTYOE","HONDA-ODYSSEY",1
2019,"FW3854GTYOEE","HONDA-ODYSSEY",1
2019,"FW3855GTYOEE","HONDA-ODYSSEY",1
2019,"FW3866GBNOEE","NISSAN-FRONTIER",1
2019,"FW3878GTYMSV","TOYOTA-HIGHLANDER",1
2019,"FW3878GTYPPG","TOYOTA-HIGHLANDER",1
2019,"FW3885GBNOEE","HYUNDAI-SANTA FE SPORT",1
2019,"FW3885GBYOEE","NISSAN-MAXIMA",1
2019,"FW3898GTYOEE","NISSAN-ROGUE",3
2019,"FW3919GBYOEE","SUBARU-LEGACY,SUBARU-OUTBACK",3
2019,"FW3919GBYPPG","SUBARU-OUTBACK",1
2019,"FW3930GTYOEE","HONDA-FIT",1
2019,"FW4077GTYMSV","NISSAN-ROGUE",1
2019,"FW4077GTYPPG","NISSAN-ROGUE",1
2019,"FW4101GTYCMX","HONDA-RIDGELINE",1
2019,"FW4101GTYOEE","HONDA-PILOT",1
2019,"FW4129GTNOEE","SUBARU-CROSSTREK",1
2019,"FW4145GTYOEE","AUDI-Q7",2
2019,"FW4155GTYOEE","TOYOTA-HIGHLANDER",1
2019,"FW4160GTYOEE","NISSAN-ALTIMA",2
2019,"FW4160GTYPPG","NISSAN-ALTIMA",2
2019,"FW4200GBYOEE","KIA-SORENTO (2.0L)",1
2019,"FW4210GTYOEE","VOLVO-XC90",1
2019,"FW4236GTYMSV","HONDA-PILOT",1
2019,"FW4238GTYOEE","HONDA-PILOT",1
2019,"FW4239GTYOEE","HONDA-PILOT",2
2019,"FW4242GTYOEE","HONDA-PILOT",2
2019,"FW4260GTNOEE","HONDA-CIVIC",1
2019,"FW4260GTYOEE","HONDA-CIVIC,HONDA-CIVIC SEDAN",2
2019,"FW4404GTNOEE","NISSAN-SENTRA (1.8L)",1
2019,"FW4537GTYOEE","HONDA-CR-V",1
2019,"FW4542GTNOEE","HONDA-CIVIC HATCHBACK",1
2019,"FW4542GTYOEE","HONDA-CIVIC HATCHBACK",1
2019,"FW4578GTYOEE","NISSAN-ROGUE",1
2019,"FW4626GTYOEE","TOYOTA-HIGHLANDER",2
2019,"FW4751GTYOEE","TOYOTA-TACOMA",1
2019,"FW4757GBYMSV","HYUNDAI-SONATA",1
2019,"FW4793GTYOEE","HONDA-ACCORD SEDAN",1
2019,"FW4811GTYOEE","SCION-YARIS IA",1
2019,"FW4913GTNOEE","NISSAN-PATHFINDER",1
2019,"FW4952GTNOEE","SUBARU-ASCENT",1
2019,"G27001V84B","NISSAN-ARMADA",2
2019,"TK51-63-900C","MAZDA-CX-9",1
2020,"56101-04082","TOYOTA-TACOMA 4WD",1
2020,"56101-4F951","TOYOTA-PRIUS",1
2020,"65009AL41A","SUBARU-OUTBACK",1
2020,"68272881AD","JEEP-CHEROKEE (3.2L)",1
2020,"68275584AD","RAM-1500",1
2020,"727005HT0A","NISSAN-ROGUE",2
2020,"727009UA0A","NISSAN-MURANO",1
2020,"727129NA0B","NISSAN-PATHFINDER (3.5L)",1
2020,"73111-TBA-A61","HONDA-CIVIC",2
2020,"73111-TK8-A71","HONDA-ODYSSEY",1
2020,"73111-TP6-A51","HONDA-CROSSTOUR",1
2020,"84330030","CHEVROLET-EQUINOX",2
2020,"84352103","CHEVROLET-SUBURBAN,CHEVROLET-TAHOE,GMC-SIERRA 1500,GMC-YUKON,GMC-YUKON XL",22
2020,"84352104","CADILLAC-ESCALADE,CADILLAC-ESCALADE ESV",7
2020,"84398043","CHEVROLET-SILVERADO 1500,GMC-SIERRA 1500",6
2020,"84593337","CHEVROLET-SILVERADO 1500,GMC-SIERRA 1500",3
2020,"DW1155GBNOEE","PONTIAC-FIREBIRD",1
2020,"DW1158GBNOEE","CHEVROLET-ASTRO CARGO VAN",1
2020,"DW1217GBYOEE","CHEVROLET-CK 1500 SERIES,CHEVROLET-C/K 2500",2
2020,"DW1218GBYOEE","FORD-TAURUS",1
2020,"DW1256GBNOEE","FORD-F-150",1
2020,"DW1270GBYOEE","CHEVROLET-CAVALIER",1
2020,"DW1317GBYOEE","FORD-RANGER",1
2020,"DW1341GBYOEE","CHEVROLET-SILVERADO,CHEVROLET-SILVERADO SS",2
2020,"DW1396GTYCAR","FORD-MUSTANG (3.8L)",1
2020,"DW1419GBYOEE","CADILLAC-SEVILLE",1
2020,"DW1478GBNOEE","PONTIAC-GRAND AM",1
2020,"DW1494GTYOEE","FREIGHTLINER-114SD",1
2020,"DW1504GBYOEE","FORD-E-SERIES VAN",1
2020,"DW1519GBNOEE","CHEVROLET-EXPRESS CUTAWAY,GMC-SAVANA CUTAWAY",2
2020,"DW1522GBYCAR","FORD-SUPER DUTY F-350 SRW",1
2020,"DW1532GBNOEE","PONTIAC-GTO",1
2020,"DW1547GBNOEE","OLDS-ALERO",1
2020,"DW1549GBYOEE","CHEVROLET-3500 CREW CAB,CHEVROLET-SILVERADO 1500,CHEVROLET-SILVERADO 2500HD,CHEVROLET-SUBURBAN,CHEVROLET-TAHOE,GMC-4WD 1/2 PU,GMC-SIERRA 1500 2WD,GMC-SIERRA 1500 4WD,GMC-YUKON",10
2020,"DW1580GBNOEE","CHEVROLET-EXPRESS CARGO VAN,CHEVROLET-EXPRESS CUTAWAY",3
2020,"DW1581GTNOEE","CHEVROLET-EXPRESS CUTAWAY",1
2020,"DW1583GTNOEE","CHEVROLET-EQUINOX,PONTIAC-TORRENT",2
2020,"DW1584GBNOEE","CHEVROLET-TRAILBLAZER",1
2020,"DW1585GTYOEE","GMC-SIERRA 1500",1
2020,"DW1603GBYOEE","PONTIAC-G6",1
2020,"DW1603GTYOEE","PONTIAC-G6",2
2020,"DW1609GTYOEE","FORD-MUSTANG",2
2020,"DW1637GBYMSV","CHEVROLET-HHR LT SEDAN",2
2020,"DW1640GBYOEE","CHEVROLET-IMPALA,CHEVROLET-IMPALA LIMITED,CHEVROLET-IMPALA LT SEDAN",7
2020,"DW1654GTYOEE","FORD-EDGE (3.5L)",1
2020,"DW1658GBYOEE","ANY-ANY,CHEVROLET-AVALANCHE,CHEVROLET-K20 CREW CAB,CHEVROLET-SILVERADO 1500,CHEVROLET-SILVERADO 1500 4WD,CHEVROLET-SILVERADO 1500 PICKUP,CHEVROLET-SILVERADO 2500HD,CHEVROLET-SILVERADO 3500HD DIESEL,CHEVROLET-SUBURBAN,CHEVROLET-TAHOE,GMC-SIERRA,GMC-SIERRA 1500,GMC-SIERRA 2500HD,GMC-SIERRA 2500HD DIESEL,GMC-YUKON,GMC-YUKON XL",39
2020,"DW1658GTYOEE","CHEVROLET-SILVERADO 1500,CHEVROLET-SILVERADO 2500HD DIESEL,GMC-SIERRA 1500",3
2020,"DW1659GTYOEE","CHEVROLET-AVALANCHE,CHEVROLET-SUBURBAN,CHEVROLET-TAHOE",3
2020,"DW1662GTNOEE","JEEP-COMPASS",1
2020,"DW1668GBNOEE","JEEP-WRANGLER",1
2020,"DW1668GTNOEE","JEEP-WRANGLER,JEEP-WRANGLER UNLIMITED",4
2020,"DW1681GTYOEE","CHEVROLET-TRAVERSE,GMC-ACADIA",3
2020,"DW1682GTNOEE","JEEP-PATRIOT",1
2020,"DW1684GTYOEE","FORD-ESCAPE",2
2020,"DW1685GTYOEE","INTERNATIONAL-INTERNATIONAL",1
2020,"DW1690GBYOEE","MERCURY-SABLE",1
2020,"DW1697GBYOEE","BUICK-LUCERNE",1
2020,"DW1705GBYOEE","JEEP-GRAND CHEROKEE",1
2020,"DW1708GBNOEE","CHRYSLER-TOWN &AMP; COUNTRY,DODGE-GRAND CARAVAN (3.8L)",2
2020,"DW1712GTYMSV","BUICK-ENCLAVE,CHEVROLET-TRAVERSE",24
2020,"DW1712GTYOEE","BUICK-ENCLAVE,CHEVROLET-TRAVERSE,DODGE-AVENGER,GMC-ACADIA",15
2020,"DW1713GTYOEE","GMC-ACADIA",1
2020,"DW1746GTYOEE","CHEVROLET-MALIBU 1LT",1
2020,"DW1747GBYOEE","FORD-F-150,FORD-F-150 (3.5L)",11
2020,"DW1749GTYCAR","FORD-F-150 (5.4L)",1
2020,"DW1760GBYMOP","DODGE-CHALLENGER (5.7L)",1
2020,"DW1761GTYOEE","SATURN-VUE",1
2020,"DW1762GTYOEE","CHEVROLET-CAPTIVA SPORT FLEET",1
2020,"DW1786GBYOEE","FORD-TAURUS (2.0L)",1
2020,"DW1787GBYOEE","FORD-TAURUS (3.5L)",1
2020,"DW1795GBYOEE","FORD-ESCAPE",1
2020,"DW1798GBYOEE","FORD-EXPEDITION",1
2020,"DW1818GBNOEE","CHRYSLER-TOWN & COUNTRY",1
2020,"DW1818GTNOEE","CHRYSLER-COUNTRY,CHRYSLER-TOWN & COUNTRY (3.6L),DODGE-GRAND CARAVAN",4
2020,"DW1819GTYOEE","CHRYSLER-TOWN & COUNTRY",1
2020,"DW1822GTYOEE","BUICK-LACROSSE",1
2020,"DW1833GTYCAR","FORD-SUPER DUTY F-350 SRW",1
2020,"DW1838GTYOEE","FORD-F-150,FORD-F-150 (3.5L)",4
2020,"DW1839GTYOEE","DODGE-DURANGO (3.6L)",1
2020,"DW1843GGYOEE","FORD-EXPLORER (3.7L)",1
2020,"DW1844GGYOEE","FORD-EXPLORER",1
2020,"DW1851GBYOEE","FORD-F-350 SD",1
2020,"DW1851GTYOEE","FORD-SUPER DUTY F-250 SRW",1
2020,"DW1867GTYOEE","FORD-F-150",1
2020,"DW1880GBNOEE","DODGE-JOURNEY",1
2020,"DW1880GTNOEE","DODGE-JOURNEY",1
2020,"DW1883GBYOEE","CADILLAC-ESCALADE EXT,GMC-SIERRA 1500",2
2020,"DW1883GTYOEE","CADILLAC-ESCALADE ESV",1
2020,"DW1902GTYMSV","CHEVROLET-EQUINOX,GMC-TERRAIN",3
2020,"DW1903GTYOEE","CHEVROLET-CAMARO",1
2020,"DW1904GTYOEE","CHEVROLET-CAMARO",1
2020,"DW1920GTYCAR","FORD-ESCAPE",1
2020,"DW1920GTYOEE","FORD-ESCAPE",1
2020,"DW1921GTYOEE","FORD-ESCAPE",1
2020,"DW1922GTYOEE","FORD-ESCAPE (2.0L)",1
2020,"DW1927GBYOEE","FORD-TAURUS",1
2020,"DW1931GTYOEE","CHEVROLET-EQUINOX",1
2020,"DW1932GTYOEE","CHEVROLET-EQUINOX,GMC-TERRAIN",7
2020,"DW1946GTYOEE","CHEVROLET-MALIBU",1
2020,"DW1947GTYOEE","CHEVROLET-MALIBU",2
2020,"DW1949GTYOEE","FORD-FUSION (2.5L)",1
2020,"DW1960GBYOEE","CHEVROLET-CRUZE",2
2020,"DW1966GTYOEE","CHEVROLET-MALIBU,CHEVROLET-MALIBU LIMITED",2
2020,"DW1969GBYOEE","CADILLAC-XTS",1
2020,"DW1982GTYCAR","FORD-F-150,FORD-F-150 (3.5L)",3
2020,"DW1995GTYOEE","BUICK-ENCORE",1
2020,"DW2002GTYOEE","FORD-FOCUS",1
2020,"DW2007GBNOEE","RAM-1500 (5.7L),RAM-2500,RAM-2500 DIESEL (6.7L)",3
2020,"DW2008GTYOEE","RAM-2500 DIESEL (6.7L)",1
2020,"DW2009GTYOEE","CHEVROLET-EQUINOX,GMC-TERRAIN",21
2020,"DW2020GTYOEE","GMC-TERRAIN",2
2020,"DW2023GTYOEE","CHEVROLET-IMPALA",1
2020,"DW2024GTYOEE","CHEVROLET-IMPALA",1
2020,"DW2028GTYOEE","DODGE-DURANGO (3.6L),JEEP-GRAND CHEROKEE (3.6L)",2
2020,"DW2040GBYOEE","CHEVROLET-SILVERADO 1500",1
2020,"DW2040GTYOEE","CHEVROLET-SILVERADO,CHEVROLET-SILVERADO 1500,CHEVROLET-SILVERADO 2500HD,CHEVROLET-SILVERADO 2500 HD,CHEVROLET-SILVERADO 3500HD,CHEVROLET-SILVERADO 3500HD DIESEL,GMC-SIERRA,GMC-SIERRA 1500,GMC-SIERRA 3500HD",94
2020,"DW2041GTYOEE","CHEVROLET-SILVERADO 1500,CHEVROLET-SILVERADO 2500HD,GMC-SIERRA 1500,GMC-SIERRA 2500HD,GMC-SIERRA 2500HD DIESEL,GMC-SIERRA 3500HD",28
2020,"DW2075GTYMOP","RAM-1500",1
2020,"DW2082GTYOEE","CHEVROLET-TRAVERSE",4
2020,"DW2084GTYOEE","BUICK-ENCLAVE",5
2020,"DW2088GTNOEE","CHRYSLER-200",1
2020,"DW2102GTYOEE","JEEP-CHEROKEE (3.2L)",1
2020,"DW2104GTYOEE","JEEP-CHEROKEE (3.2L)",1
2020,"DW2107GTYOEE","FORD-TRANSIT VAN",1
2020,"DW2121GTYOEE","RAM-PROMASTER CARGO VAN",1
2020,"DW2130GTYCAR","FORD-F-150 (3.3L)",1
2020,"DW2133GBYOEE","CHEVROLET-TAHOE",1
2020,"DW2134GBYOEE","CHEVROLET-SUBURBAN,CHEVROLET-TAHOE,GMC-YUKON,GMC-YUKON XL",8
2020,"DW2145GTYOEE","CHEVROLET-IMPALA",1
2020,"DW2153GTYOEE","FORD-F-150 (2.7L),FORD-F-150 (5.0L)",2
2020,"DW2154GTYOEE","FORD-F-150,FORD-F-150 (5.0L)",2
2020,"DW2159GTYMSV","CHEVROLET-IMPALA",2
2020,"DW2159GTYOEE","CHEVROLET-IMPALA",2
2020,"DW2163GTYMOP","CHRYSLER-200",2
2020,"DW2165GTYOEE","CHEVROLET-COLORADO",3
2020,"DW2166GTYMSV","GMC-CANYON",1
2020,"DW2188GTYMOP","JEEP-RENEGADE (2.4L)",2
2020,"DW2194GBYOEE","FORD-EDGE (3.5L)",1
2020,"DW2198GBYOEE","GMC-YUKON XL",2
2020,"DW2204GGYOEE","FORD-EXPLORER,FORD-EXPLORER (3.5L)",2
2020,"DW2205GGYOEE","FORD-EXPLORER",1
2020,"DW2209GBYOEE","CHEVROLET-SUBURBAN",1
2020,"DW2210GBYOEE","LINCOLN-MKX",1
2020,"DW2219GTYOEE","DODGE-DURANGO,JEEP-GRAND CHEROKEE (3.6L)",2
2020,"DW2221GTYOEE","DODGE-DURANGO,JEEP-GRAND CHEROKEE (3.6L)",2
2020,"DW2227GTYOEE","CHEVROLET-MALIBU",5
2020,"DW2228GTYOEE","CHEVROLET-MALIBU",8
2020,"DW2230GTYOEE","CHEVROLET-TRAX",4
2020,"DW2264GTYOEE","JEEP-CHEROKEE,JEEP-CHEROKEE (2.4L)",2
2020,"DW2273GTYOEE","GMC-CANYON",3
2020,"DW2274GBYOEE","CHEVROLET-SUBURBAN,CHEVROLET-TAHOE,GMC-YUKON,GMC-YUKON XL",13
2020,"DW2292GTNOEE","JEEP-RENEGADE",1
2020,"DW2294GBYOEE","CHEVROLET-SUBURBAN",1
2020,"DW2309GBYMSV","BUICK-ENVISION (2.5L)",1
2020,"DW2309GBYOEE","BUICK-ENVISION",1
2020,"DW2309GTYOEE","BUICK-ENVISION",1
2020,"DW2310GTYOEE","BUICK-ENVISION",1
2020,"DW2316GTYOEE","CHEVROLET-CRUZE,CHEVROLET-CRUZE (1.4L)",5
2020,"DW2329GTYMOP","JEEP-CHEROKEE,JEEP-CHEROKEE (3.2L)",3
2020,"DW2352GBYOEE","CADILLAC-XT5",1
2020,"DW2352GTYOEE","CADILLAC-XT5",2
2020,"DW2355GTYOEE","FORD-F-150 (5.0L),FORD-SUPER DUTY F-350 SRW",3
2020,"DW2356GBYOEE","BUICK-LACROSSE",2
2020,"DW2366GTYOEE","FORD-F-150 (3.5L)",1
2020,"DW2368GTYMSV","CHEVROLET-EQUINOX",3
2020,"DW2368GTYOEE","CHEVROLET-EQUINOX",4
2020,"DW2369GTYOEE","CHEVROLET-EQUINOX",1
2020,"DW2376GTYOEE","GMC-ACADIA",5
2020,"DW2382GTYOEE","FORD-EXPLORER (3.5L)",1
2020,"DW2389GTYOEE","JEEP-COMPASS NEXT GEN (2.4L)",1
2020,"DW2392GTYOEE","JEEP-COMPASS (2.4L)",1
2020,"DW2411GTYOEE","CHEVROLET-TRAVERSE",4
2020,"DW2412GTYOEE","CHEVROLET-TRAVERSE",1
2020,"DW2413GTYOEE","CHEVROLET-TRAVERSE",3
2020,"DW2415GTYMOP","JEEP-WRANGLER UNLIMITED",1
2020,"DW2425GTYOEE","GMC-TERRAIN",2
2020,"DW2430GTYOEE","BUICK-ENCLAVE",3
2020,"DW2432GTYOEE","BUICK-ENCLAVE",2
2020,"DW2454GTYOEE","RAM-1500",1
2020,"DW2455GTYOEE","BUICK-REGAL TOURX",2
2020,"DW2475GTNOEE","DODGE-GRAND CARAVAN",1
2020,"DW2476GTNOEE","DODGE-GRAND CARAVAN",2
2020,"DW2498GBYOEE","CHEVROLET-SILVERADO 1500,GMC-SIERRA 1500",2
2020,"DW2498GTYOEE","CHEVROLET-SILVERADO 1500",3
2020,"DW2499GTYOEE","CHEVROLET-SILVERADO 1500,GMC-SIERRA 1500",2
2020,"DW2508GTYOEE","JEEP-CHEROKEE",1
2020,"DW2531GTYOEE","CHEVROLET-BLAZER",1
2020,"DW2584GTYMSV","GMC-TERRAIN",2
2020,"DW848GBNOEE","CHEVROLET-SUBURBAN",1
2020,"FW2072GYYOEE","VOLKSWAGEN-NEW BEETLE",1
2020,"FW2109GBNOEE","HONDA-ODYSSEY",1
2020,"FW2109GGYOEE","HONDA-ODYSSEY",1
2020,"FW2121GBNOEE","NISSAN-MAXIMA",1
2020,"FW2334GGNMSV","SUBARU-FORESTER",1
2020,"FW2351GBNOEE","HONDA-ACCORD",1
2020,"FW2359GBNOEE","TOYOTA-TUNDRA (4.7L)",1
2020,"FW2381GBNMSV","NISSAN-MURANO",1
2020,"FW2389GBNOEE","NISSAN-MAXIMA",1
2020,"FW2501GBNOEE","HONDA-ODYSSEY",6
2020,"FW2510GBNMSV","NISSAN-FRONTIER",1
2020,"FW2535GBNOEE","HONDA-RIDGELINE",1
2020,"FW2536GBNOEE","HONDA-RIDGELINE",1
2020,"FW2537GBNOEE","HONDA-RIDGELINE",1
2020,"FW2538GBNOEE","HONDA-RIDGELINE",1
2020,"FW2553GBNOEE","KIA-SPORTAGE",1
2020,"FW2631GTNOEE","HONDA-FIT SPORT 5DR",1
2020,"FW2652GTYOEE","TOYOTA-FJ CRUISER",2
2020,"FW2654GBNOEE","HYUNDAI-SANTA FE",1
2020,"FW2707GBNMSV","HONDA-CR-V",1
2020,"FW2707GBNOEE","HONDA-CR-V,HONDA-CR-V EX-L 5DR",4
2020,"FW2717GBYOEE","INFINITI-G35 (3.5L)",1
2020,"FW2736GBYOEE","VOLVO-XC70",1
2020,"FW2738GYYOEE","BMW-3 SERIES (3.0L) 328",1
2020,"FW2741GTYOEE","SUZUKI-XL7 (3.6L)",1
2020,"FW2816GBNMSV","HONDA-ACCORD",1
2020,"FW2816GBNOEE","HONDA-ACCORD,HONDA-ACCORD SDN",3
2020,"FW2864GBNOEE","SUBARU-IMPREZA WRX (2.5L)",1
2020,"FW2878GTNMSV","NISSAN-ROGUE SELECT",1
2020,"FW2878GTNOEE","NISSAN-ROGUE",1
2020,"FW2886GBNMSV","MITSUBISHI-ENDEAVOR",1
2020,"FW2924GBNOEE","ISUZU-TRUCK",2
2020,"FW2926GBNOEE","HONDA-PILOT",2
2020,"FW2944GTYMSV","VOLKSWAGEN-TIGUAN",1
2020,"FW3013GTNOEE","HONDA-FIT",1
2020,"FW3053GGYOEE","LEXUS-RX 350",1
2020,"FW3057GBNMSV","KIA-OPTIMA",1
2020,"FW3102GBNOEE","SUBARU-LEGACY,SUBARU-LEGACY (2.5L),SUBARU-OUTBACK (2.5L)",3
2020,"FW3102GBYOEE","SUBARU-OUTBACK",1
2020,"FW3171GBNOEE","KIA-SORENTO (3.5L)",1
2020,"FW3183GTYOEE","TOYOTA-4RUNNER,TOYOTA-4RUNNER (4.0L)",2
2020,"FW3185GTYOEE","TOYOTA-4RUNNER",1
2020,"FW3186GYYOEE","VOLKSWAGEN-GOLF",1
2020,"FW3239GBNMSV","HYUNDAI-SONATA",1
2020,"FW3240GBYOEE","TOYOTA-SIENNA",1
2020,"FW3253GBNOEE","HONDA-PILOT",3
2020,"FW3282GTNOEE","HONDA-ODYSSEY",1
2020,"FW3283GBNOEE","HONDA-ODYSSEY",1
2020,"FW3284GBNOEE","HONDA-ODYSSEY",1
2020,"FW3311GTNMSV","NISSAN-JUKE",1
2020,"FW3316GTYOEE","VOLKSWAGEN-JETTA",1
2020,"FW3349GBNOEE","KIA-OPTIMA,KIA-OPTIMA (2.4L)",3
2020,"FW3404GTNOEE","HONDA-CIVIC,HONDA-CIVIC SEDAN",3
2020,"FW3419GTYOEE","VOLKSWAGEN-PASSAT",2
2020,"FW3473GBYOEE","TOYOTA-CAMRY",2
2020,"FW3485GBYOEE","TOYOTA-CAMRY",1
2020,"FW3499GBNOEE","HYUNDAI-VELOSTER",1
2020,"FW3516GTYOEE","HONDA-CR-V",4
2020,"FW3521GTYOEE","HONDA-CR-V",1
2020,"FW3546GTYOEE","MERCEDES-BENZ-M-CLASS (3.5L)",1
2020,"FW3565GTNOEE","SUBARU-IMPREZA,SUBARU-XV CROSSTREK,SUBARU-XV CROSSTREK (2.0L)",3
2020,"FW3579GBYOEE","NISSAN-PATHFINDER",1
2020,"FW3621GBNOEE","NISSAN-ALTIMA",2
2020,"FW3621GBYOEE","NISSAN-ALTIMA",2
2020,"FW3647GTNOEE","HONDA-ACCORD SEDAN",2
2020,"FW3650GBYOEE","HONDA-ACCORD",1
2020,"FW3652GBNOEE","HYUNDAI-SANTA FE",1
2020,"FW3657GBYOEE","NISSAN-MAXIMA",1
2020,"FW3666GTNOEE","NISSAN-VERSA (1.6L),NISSAN-VERSA SEDAN",2
2020,"FW3667GTYOEE","NISSAN-SENTRA (1.8L)",1
2020,"FW3713GBYOEE","TOYOTA-AVALON",1
2020,"FW3741GTNOEE","SUBARU-FORESTER (2.5L)",1
2020,"FW3745GBYOEE","TOYOTA-AVALON HYBRID",1
2020,"FW3748GTYOEE","TOYOTA-RAV4",1
2020,"FW3755GBNMSV","HONDA-ACCORD",1
2020,"FW3755GBNOEE","HONDA-ACCORD",1
2020,"FW3756GBNOEE","HONDA-ACCORD",1
2020,"FW3854GTYOEE","HONDA-ODYSSEY",3
2020,"FW3878GTYMSV","TOYOTA-HIGHLANDER",1
2020,"FW3885GBYOEE","HYUNDAI-SANTA FE SPORT",1
2020,"FW3898GTYOEE","NISSAN-ROGUE",4
2020,"FW3913GTYOEE","TOYOTA-COROLLA",1
2020,"FW3919GBYOEE","SUBARU-LEGACY",1
2020,"FW3920GBYOEE","SUBARU-OUTBACK",2
2020,"FW3930GTYOEE","HONDA-FIT",1
2020,"FW3990GTYOEE","HONDA-ODYSSEY",1
2020,"FW4009GTYOEE","TOYOTA-RAV4",1
2020,"FW4049GBYMSV","HYUNDAI-SONATA",1
2020,"FW4049GBYOEE","HYUNDAI-SONATA (2.4L)",1
2020,"FW4071GTYOEE","NISSAN-MURANO",2
2020,"FW4077GTYOEE","NISSAN-ROGUE",2
2020,"FW4086GTYMSV","HONDA-HR-V",2
2020,"FW4086GTYOEE","HONDA-HR-V",1
2020,"FW4095GBNOEE","LEXUS-NX 200T",1
2020,"FW4101GTYOEE","HONDA-PILOT",3
2020,"FW4102GBYOEE","KIA-SORENTO",1
2020,"FW4138GTYMSV","NISSAN-MAXIMA",1
2020,"FW4155GTYOEE","TOYOTA-HIGHLANDER",1
2020,"FW4160GTYOEE","NISSAN-ALTIMA",2
2020,"FW4168GTYOEE","NISSAN-TITAN,NISSAN-TITAN XD",3
2020,"FW4200GBYOEE","KIA-SORENTO (3.3L)",1
2020,"FW4236GTYOEE","HONDA-PILOT",1
2020,"FW4239GTYOEE","HONDA-PILOT",1
2020,"FW4242GTYOEE","HONDA-PILOT",1
2020,"FW4260GTNOEE","HONDA-CIVIC,HONDA-CIVIC SEDAN",2
2020,"FW4260GTYOEE","HONDA-CIVIC",2
2020,"FW4299GTYMSV","TOYOTA-TACOMA",1
2020,"FW4370GBYOEE","HYUNDAI-TUCSON",1
2020,"FW4401GTYOEE","SUBARU-IMPREZA (2.0L)",1
2020,"FW4423GTNOEE","HYUNDAI-ELANTRA",1
2020,"FW4486GTYOEE","NISSAN-MURANO",1
2020,"FW4498GTYOEE","TOYOTA-COROLLA",1
2020,"FW4534GTYMSV","HONDA-CR-V",1
2020,"FW4537GTYOEE","HONDA-CR-V",5
2020,"FW4542GTNOEE","HONDA-CIVIC",1
2020,"FW4548GTYMSV","NISSAN-MURANO",1
2020,"FW4560GTYOEE","LAND ROVER-RANGE ROVER SPORT (3.0L)",1
2020,"FW4626GTYOEE","TOYOTA-HIGHLANDER",2
2020,"FW4645GBYOEE","SUBARU-OUTBACK",2
2020,"FW4662GTYOEE","HONDA-ODYSSEY",1
2020,"FW4721GTYOEE","NISSAN-ROGUE SPORT",1
2020,"FW4774GTYMSV","NISSAN-ALTIMA",1
2020,"FW4774GTYOEE","NISSAN-ALTIMA",3
2020,"FW4775GTYOEE","NISSAN-ALTIMA",2
2020,"FW4792GBYOEE","TOYOTA-CAMRY",1
2020,"FW4793GTYOEE","HONDA-ACCORD",1
2020,"FW4794GTYOEE","HONDA-ACCORD SEDAN",1
2020,"FW4795GTYOEE","HONDA-ACCORD",1
2020,"FW4801GTNOEE","HONDA-CIVIC",1
2020,"FW4913GTNOEE","NISSAN-PATHFINDER",1
2020,"FW5011GTYOEE","HYUNDAI-SANTA FE",1
2020,"FW5045GTYOEE","NISSAN-MURANO",1
2020,"FW753GBNMSV","HONDA-ACCORD",1
2020,"TM52-63-900A","MAZDA-CX-9",1
