"the_year","part_number","string_agg","count"
2019,"23397553","ESCALADE,ESCALADE ESV",2
2019,"23508429","ESCALADE,SUBURBAN,TAHOE,YUKON XL",5
2019,"84209828","SILVERADO 1500,SILVERADO 1500 LD",2
2019,"84250367","SIERRA 1500,SIERRA 3500HD DIESEL,SIERRA DENALI 2500,SILVERADO 1500",4
2019,"84330030","EQUINOX",2
2019,"84352103","ESCALADE,ESCALADE ESV,SUBURBAN,TAHOE,YUKON,YUKON XL",17
2019,"84352104","ESCALADE,ESCALADE ESV",4
2019,"84398043","SIERRA 1500,SIERRA 2500HD",3
2019,"84577632","XT5",1
2019,"84593337","SILVERADO 1500",3
2019,"DW1015GBNOEE","CORSICA",1
2019,"DW1105GBNOEE","LESABRE",1
2019,"DW1168GBNFYG","S-10 PICKUP",1
2019,"DW1217GBYOEE","SIERRA 3500 CREW CAB,TAHOE 4WD",3
2019,"DW1297GBNOEE","CENTURY",1
2019,"DW1341GBYCMX","SILVERADO 1500,SILVERADO 1500HD,SUBURBAN",12
2019,"DW1341GBYMSV","AVALANCHE,K10 PICKUP 4 WH",2
2019,"DW1341GBYOEE","1500 PICKUP,K10/SILVERADO,SILVERADO 1500,SILVERADO 2500,SUBURBAN,TAHOE,TAHOE 4WD,YUKON XL",12
2019,"DW1375GBNOEE","LESABRE",1
2019,"DW1388GBNMSV","DEVILLE",1
2019,"DW1489GBNPPG","VIBE",2
2019,"DW1531GTYOEE","MALIBU",1
2019,"DW1549GBYCMX","SIERRA 1500,SILVERADO 1500",2
2019,"DW1549GBYOEE","4WD 3/4 PU,AVALANCHE,ESCALADE ESV,K10/SILVERADO,SIERRA 1500 CLASSIC,SILVERADO,SILVERADO 1500,SILVERADO 2500HD,SILVERADO CLASSIC 1500,YUKON",12
2019,"DW1549GTYOEE","K10/SILVERADO,SUBURBAN",2
2019,"DW1580GBNCMX","EXPRESS CARGO VAN,EXPRESS CUTAWAY",2
2019,"DW1580GBNOEE","EXPRESS CARGO V,EXPRESS CARGO VAN,EXPRESS CUTAWAY",4
2019,"DW1583GBYOEE","EQUINOX",1
2019,"DW1584GBNOEE","ENVOY,TRAILBLAZER",4
2019,"DW1584GBNPPG","ENVOY,RAINIER",4
2019,"DW1585GTYOEE","ENVOY XL",1
2019,"DW1603GBYPPG","G6",1
2019,"DW1603GTYOEE","G6",1
2019,"DW1605GTYMSV","COBALT LT COUPE",1
2019,"DW1606GBYOEE","COBALT",1
2019,"DW1606GBYPPG","COBALT",1
2019,"DW1613GTYOEE","EQUINOX",1
2019,"DW1629GTYPPG","G6",1
2019,"DW1634GBYOEE","ANY CADILLAC,DTS",2
2019,"DW1637GTYMSV","HHR LS SEDAN",1
2019,"DW1637GTYOEE","HHR LS SEDAN",1
2019,"DW1638GBYOEE","LUCERNE",2
2019,"DW1640GBYOEE","IMPALA",4
2019,"DW1640GBYPPG","IMPALA",4
2019,"DW1641GTYPPG","IMPALA",1
2019,"DW1651GBYLOF","GRAND PRIX",2
2019,"DW1651GBYOEE","GRAND PRIX",1
2019,"DW1658GBYCMX","K10 PICKUP,SIERRA 1500,SIERRA 2500HD,SILVERADO 1500,SILVERADO 3500HD,SUBURBAN,YUKON XL",13
2019,"DW1658GBYOEE","AVALANCHE,ESCALADE,SIERRA 1500,SIERRA 2500HD,SILVERADO 1500,SILVERADO 2500HD,SUBURBAN,TAHOE,TAHOE 4WD,YUKON XL",39
2019,"DW1658GBYPPG","K10 PICKUP 4 WH,SIERRA 1500,SILVERADO 1500,SILVERADO 2500HD DIESEL,YUKON XL",6
2019,"DW1658GTYCMX","SIERRA 1500,SILVERADO 2500HD",2
2019,"DW1658GTYOEE","SIERRA 1500,SILVERADO 1500,SILVERADO 3500HD,SUBURBAN,YUKON XL",8
2019,"DW1659GBYOEE","ESCALADE EXT,YUKON XL",2
2019,"DW1659GBYPPG","SUBURBAN",1
2019,"DW1659GTYMSV","SIERRA 1500",2
2019,"DW1659GTYOEE","K10 PICKUP 4 WH",1
2019,"DW1681GTYOEE","ENCLAVE,TRAVERSE",5
2019,"DW1681GTYPPG","ENCLAVE",1
2019,"DW1712GTYMSV","ACADIA,TRAVERSE",22
2019,"DW1712GTYOEE","ACADIA,ENCLAVE,TRAVERSE",11
2019,"DW1712GTYPPG","ENCLAVE,TRAVERSE",6
2019,"DW1713GTYPPG","ACADIA",2
2019,"DW1746GTYLOF","MALIBU",1
2019,"DW1746GTYOEE","MALIBU",3
2019,"DW1746GTYPPG","MALIBU",2
2019,"DW1761GBYOEE","CAPTIVA SPORT",1
2019,"DW1817GTYOEE","SRX",1
2019,"DW1824GBYOEE","TERRAIN",1
2019,"DW1824GTYOEE","EQUINOX,TERRAIN",2
2019,"DW1852GTYPPG","REGAL",1
2019,"DW1855GBYMSV","LACROSSE",1
2019,"DW1883GBYCLXC","ESCALADE",1
2019,"DW1883GBYOEE","ESCALADE",2
2019,"DW1883GTYCLXC","ESCALADE",1
2019,"DW1902GTYMSV","TERRAIN",1
2019,"DW1917GBYOEE","LUCERNE",1
2019,"DW1925GBYOEE","SEVILLE",1
2019,"DW1931GTYOEE","TERRAIN",1
2019,"DW1932GTYCMX","EQUINOX",2
2019,"DW1932GTYOEE","EQUINOX,TERRAIN",12
2019,"DW1945GBYOEE","SONIC",1
2019,"DW1960GBYCMX","CRUZE",3
2019,"DW1960GBYOEE","CRUZE,CRUZE (1.4L)",6
2019,"DW1969GBYOEE","XTS",2
2019,"DW1985GBYOEE","ATS",1
2019,"DW1989GTNOEE","EXPRESS CUTAWAY",1
2019,"DW1995GTYOEE","ENCORE",1
2019,"DW2003GTYPPG","TRAX",1
2019,"DW2009GTYFYG","EQUINOX",2
2019,"DW2009GTYOEE","TERRAIN",2
2019,"DW2009GTYPPG","EQUINOX,TERRAIN",3
2019,"DW2024GTYOEE","IMPALA",3
2019,"DW2035GTYPPG","SRX",1
2019,"DW2040GBYOEE","SILVERADO 2500HD",1
2019,"DW2040GTYFYG","SIERRA 1500,SIERRA 3500HD,SILVERADO 1500,SILVERADO 2500HD,SILVERADO 2500HD (PRE-SEP,SILVERADO 3500HD",20
2019,"DW2040GTYOEE","SIERRA,SIERRA 1500,SIERRA 2500HD,SIERRA DENALI 1500,SILVERADO,SILVERADO 1500,SILVERADO 2500HD",61
2019,"DW2040GTYPPG","SIERRA 1500,SILVERADO 1500",3
2019,"DW2041GTYCMX","SIERRA 1500,SIERRA 2500HD,SIERRA 3500HD,SIERRA 3500HD DIESEL,SILVERADO 2500HD BUILT AF",7
2019,"DW2041GTYOEE","SIERRA 1500,SIERRA 2500HD,SIERRA 2500HD DIESEL,SILVERADO 1500,SILVERADO 2500HD,SILVERADO 3500HD",20
2019,"DW2081GBYMSV","SONIC",1
2019,"DW2082GTYOEE","TRAVERSE",5
2019,"DW2084GTYOEE","ENCLAVE",1
2019,"DW2084GTYPPG","ENCLAVE",2
2019,"DW2092GTYPPG","LACROSSE",1
2019,"DW2122GTYMSV","ENCORE",1
2019,"DW2124GTYPPG","ENCORE",1
2019,"DW2134GBYOEE","SUBURBAN,TAHOE",5
2019,"DW2145GTYMSV","IMPALA",1
2019,"DW2145GTYPPG","IMPALA",1
2019,"DW2159GTYFYG","IMPALA",1
2019,"DW2159GTYOEE","IMPALA",1
2019,"DW2165GTYMSV","COLORADO",2
2019,"DW2165GTYOEE","CANYON,COLORADO",6
2019,"DW2165GTYPPG","CANYON",1
2019,"DW2166GTYMSV","CANYON",1
2019,"DW2166GTYPPG","COLORADO",1
2019,"DW2198GBYMSV","SUBURBAN,TAHOE",2
2019,"DW2198GBYOEE","YUKON,YUKON XL",3
2019,"DW2227GTYOEE","MALIBU",1
2019,"DW2228GTYCMX","MALIBU",2
2019,"DW2228GTYOEE","MALIBU",5
2019,"DW2228GTYSEK","MALIBU",2
2019,"DW2229GTYOEE","MALIBU",1
2019,"DW2230GTYOEE","TRAX",1
2019,"DW2274GBYLOF","YUKON",1
2019,"DW2274GBYOEE","SUBURBAN,TAHOE,YUKON,YUKON XL",11
2019,"DW2275GBYLOF","YUKON",1
2019,"DW2286GTNOEE","SPARK",1
2019,"DW2316GTYMSV","CRUZE",1
2019,"DW2316GTYOEE","CRUZE,CRUZE (1.4L)",6
2019,"DW2351GBYOEE","XT5",1
2019,"DW2352GBYOEE","XT5",1
2019,"DW2356GTYFYG","LACROSSE",1
2019,"DW2368GTYMSV","EQUINOX",2
2019,"DW2368GTYOEE","EQUINOX",5
2019,"DW2369GTYOEE","EQUINOX",1
2019,"DW2411GTYMSV","TRAVERSE",2
2019,"DW2413GTYOEE","TRAVERSE",1
2019,"DW2425GTYOEE","TERRAIN",1
2019,"DW2432GTYOEE","ENCLAVE",3
2019,"DW2498GTYOEE","SILVERADO 1500",2
2019,"DW2499GTYOEE","SIERRA 1500",1
2019,"DW848GBNOEE","SILVERAADO",1
2019,"FW2105GBNOEE","TRACKER",1
2019,"FW2105GGNOEE","TRACKER",1
2019,"FW3756GBNFYG","IMPALA",1
2020,"84330030","EQUINOX",2
2020,"84352103","SIERRA 1500,SUBURBAN,TAHOE,YUKON,YUKON XL",22
2020,"84352104","ESCALADE,ESCALADE ESV",7
2020,"84398043","SIERRA 1500,SILVERADO 1500",6
2020,"84593337","SIERRA 1500,SILVERADO 1500",3
2020,"DW1155GBNOEE","FIREBIRD",1
2020,"DW1158GBNOEE","ASTRO CARGO VAN",1
2020,"DW1217GBYOEE","CK 1500 SERIES,C/K 2500",2
2020,"DW1270GBYOEE","CAVALIER",1
2020,"DW1341GBYOEE","SILVERADO,SILVERADO SS",2
2020,"DW1419GBYOEE","SEVILLE",1
2020,"DW1478GBNOEE","GRAND AM",1
2020,"DW1519GBNOEE","EXPRESS CUTAWAY,SAVANA CUTAWAY",2
2020,"DW1532GBNOEE","GTO",1
2020,"DW1549GBYOEE","3500 CREW CAB,4WD 1/2 PU,SIERRA 1500 2WD,SIERRA 1500 4WD,SILVERADO 1500,SILVERADO 2500HD,SUBURBAN,TAHOE,YUKON",10
2020,"DW1580GBNOEE","EXPRESS CARGO VAN,EXPRESS CUTAWAY",3
2020,"DW1581GTNOEE","EXPRESS CUTAWAY",1
2020,"DW1583GTNOEE","EQUINOX,TORRENT",2
2020,"DW1584GBNOEE","TRAILBLAZER",1
2020,"DW1585GTYOEE","SIERRA 1500",1
2020,"DW1603GBYOEE","G6",1
2020,"DW1603GTYOEE","G6",2
2020,"DW1637GBYMSV","HHR LT SEDAN",2
2020,"DW1640GBYOEE","IMPALA,IMPALA LIMITED,IMPALA LT SEDAN",7
2020,"DW1658GBYOEE","AVALANCHE,K20 CREW CAB,SIERRA,SIERRA 1500,SIERRA 2500HD,SIERRA 2500HD DIESEL,SILVERADO 1500,SILVERADO 1500 4WD,SILVERADO 1500 PICKUP,SILVERADO 2500HD,SILVERADO 3500HD DIESEL,SUBURBAN,TAHOE,YUKON,YUKON XL",38
2020,"DW1658GTYOEE","SIERRA 1500,SILVERADO 1500,SILVERADO 2500HD DIESEL",3
2020,"DW1659GTYOEE","AVALANCHE,SUBURBAN,TAHOE",3
2020,"DW1681GTYOEE","ACADIA,TRAVERSE",3
2020,"DW1697GBYOEE","LUCERNE",1
2020,"DW1712GTYMSV","ENCLAVE,TRAVERSE",24
2020,"DW1712GTYOEE","ACADIA,ENCLAVE,TRAVERSE",14
2020,"DW1713GTYOEE","ACADIA",1
2020,"DW1746GTYOEE","MALIBU 1LT",1
2020,"DW1762GTYOEE","CAPTIVA SPORT FLEET",1
2020,"DW1822GTYOEE","LACROSSE",1
2020,"DW1883GBYOEE","ESCALADE EXT,SIERRA 1500",2
2020,"DW1883GTYOEE","ESCALADE ESV",1
2020,"DW1902GTYMSV","EQUINOX,TERRAIN",3
2020,"DW1903GTYOEE","CAMARO",1
2020,"DW1904GTYOEE","CAMARO",1
2020,"DW1931GTYOEE","EQUINOX",1
2020,"DW1932GTYOEE","EQUINOX,TERRAIN",7
2020,"DW1946GTYOEE","MALIBU",1
2020,"DW1947GTYOEE","MALIBU",2
2020,"DW1960GBYOEE","CRUZE",2
2020,"DW1966GTYOEE","MALIBU,MALIBU LIMITED",2
2020,"DW1969GBYOEE","XTS",1
2020,"DW1995GTYOEE","ENCORE",1
2020,"DW2009GTYOEE","EQUINOX,TERRAIN",21
2020,"DW2020GTYOEE","TERRAIN",2
2020,"DW2023GTYOEE","IMPALA",1
2020,"DW2024GTYOEE","IMPALA",1
2020,"DW2040GBYOEE","SILVERADO 1500",1
2020,"DW2040GTYOEE","SIERRA,SIERRA 1500,SIERRA 3500HD,SILVERADO,SILVERADO 1500,SILVERADO 2500HD,SILVERADO 2500 HD,SILVERADO 3500HD,SILVERADO 3500HD DIESEL",94
2020,"DW2041GTYOEE","SIERRA 1500,SIERRA 2500HD,SIERRA 2500HD DIESEL,SIERRA 3500HD,SILVERADO 1500,SILVERADO 2500HD",28
2020,"DW2082GTYOEE","TRAVERSE",4
2020,"DW2084GTYOEE","ENCLAVE",5
2020,"DW2133GBYOEE","TAHOE",1
2020,"DW2134GBYOEE","SUBURBAN,TAHOE,YUKON,YUKON XL",8
2020,"DW2145GTYOEE","IMPALA",1
2020,"DW2159GTYMSV","IMPALA",2
2020,"DW2159GTYOEE","IMPALA",2
2020,"DW2165GTYOEE","COLORADO",3
2020,"DW2166GTYMSV","CANYON",1
2020,"DW2198GBYOEE","YUKON XL",2
2020,"DW2209GBYOEE","SUBURBAN",1
2020,"DW2227GTYOEE","MALIBU",5
2020,"DW2228GTYOEE","MALIBU",8
2020,"DW2230GTYOEE","TRAX",4
2020,"DW2273GTYOEE","CANYON",3
2020,"DW2274GBYOEE","SUBURBAN,TAHOE,YUKON,YUKON XL",13
2020,"DW2294GBYOEE","SUBURBAN",1
2020,"DW2309GBYMSV","ENVISION (2.5L)",1
2020,"DW2309GBYOEE","ENVISION",1
2020,"DW2309GTYOEE","ENVISION",1
2020,"DW2310GTYOEE","ENVISION",1
2020,"DW2316GTYOEE","CRUZE,CRUZE (1.4L)",5
2020,"DW2352GBYOEE","XT5",1
2020,"DW2352GTYOEE","XT5",2
2020,"DW2356GBYOEE","LACROSSE",2
2020,"DW2368GTYMSV","EQUINOX",3
2020,"DW2368GTYOEE","EQUINOX",4
2020,"DW2369GTYOEE","EQUINOX",1
2020,"DW2376GTYOEE","ACADIA",5
2020,"DW2411GTYOEE","TRAVERSE",4
2020,"DW2412GTYOEE","TRAVERSE",1
2020,"DW2413GTYOEE","TRAVERSE",3
2020,"DW2425GTYOEE","TERRAIN",2
2020,"DW2430GTYOEE","ENCLAVE",3
2020,"DW2432GTYOEE","ENCLAVE",2
2020,"DW2455GTYOEE","REGAL TOURX",2
2020,"DW2498GBYOEE","SIERRA 1500,SILVERADO 1500",2
2020,"DW2498GTYOEE","SILVERADO 1500",3
2020,"DW2499GTYOEE","SIERRA 1500,SILVERADO 1500",2
2020,"DW2531GTYOEE","BLAZER",1
2020,"DW2584GTYMSV","TERRAIN",2
2020,"DW848GBNOEE","SUBURBAN",1
